tick: 1.0, AdultDuration: 31.957255065103727
tick: 25.0, AdultDuration: 31.966581251281738
tick: 49.0, AdultDuration: 31.968624448667622
tick: 73.0, AdultDuration: 31.96936566668114
tick: 97.0, AdultDuration: 31.96942624852713
tick: 121.0, AdultDuration: 31.969499404013842
tick: 145.0, AdultDuration: 31.969818106498614
tick: 169.0, AdultDuration: 31.970548580286323
tick: 193.0, AdultDuration: 31.97108756725104
tick: 217.0, AdultDuration: 31.972394729293153
tick: 241.0, AdultDuration: 31.97287016262213
tick: 265.0, AdultDuration: 31.973104692750685
tick: 289.0, AdultDuration: 31.973710233887058
tick: 313.0, AdultDuration: 31.97438261526512
tick: 337.0, AdultDuration: 31.975906282194604
tick: 361.0, AdultDuration: 31.977534551617225
tick: 385.0, AdultDuration: 31.97961997756423
tick: 409.0, AdultDuration: 31.980581153654263
tick: 433.0, AdultDuration: 31.9821628042251
tick: 457.0, AdultDuration: 31.98440768291232
tick: 481.0, AdultDuration: 31.987495030598954
tick: 505.0, AdultDuration: 31.991886162808502
tick: 529.0, AdultDuration: 31.996524541626556
tick: 553.0, AdultDuration: 32.002760059652225
tick: 577.0, AdultDuration: 32.01063628158607
tick: 601.0, AdultDuration: 32.020011262184354
tick: 625.0, AdultDuration: 32.03856637956083
tick: 649.0, AdultDuration: 32.065502566562515
tick: 673.0, AdultDuration: 32.11742625004366
tick: 697.0, AdultDuration: 32.21606515108978
tick: 721.0, AdultDuration: 31.771249834265113
tick: 745.0, AdultDuration: 32.12933334906806
tick: 769.0, AdultDuration: 32.361174053024165
tick: 793.0, AdultDuration: 32.57513119435936
tick: 817.0, AdultDuration: NaN
