tick: 0.0, Adults: 900.0
tick: 24.0, Adults: 827.0
tick: 48.0, Adults: 807.0
tick: 72.0, Adults: 779.0
tick: 96.0, Adults: 740.0
tick: 120.0, Adults: 713.0
tick: 144.0, Adults: 688.0
tick: 168.0, Adults: 655.0
tick: 192.0, Adults: 632.0
tick: 216.0, Adults: 605.0
tick: 240.0, Adults: 575.0
tick: 264.0, Adults: 554.0
tick: 288.0, Adults: 527.0
tick: 312.0, Adults: 494.0
tick: 336.0, Adults: 470.0
tick: 360.0, Adults: 441.0
tick: 384.0, Adults: 408.0
tick: 408.0, Adults: 385.0
tick: 432.0, Adults: 351.0
tick: 456.0, Adults: 322.0
tick: 480.0, Adults: 296.0
tick: 504.0, Adults: 275.0
tick: 528.0, Adults: 264.0
tick: 552.0, Adults: 264.0
tick: 576.0, Adults: 292.0
tick: 600.0, Adults: 296.0
tick: 624.0, Adults: 326.0
tick: 648.0, Adults: 354.0
tick: 672.0, Adults: 370.0
tick: 696.0, Adults: 401.0
tick: 720.0, Adults: 437.0
tick: 744.0, Adults: 437.0
tick: 768.0, Adults: 480.0
tick: 792.0, Adults: 545.0
tick: 816.0, Adults: 622.0
tick: 840.0, Adults: 672.0
tick: 864.0, Adults: 717.0
tick: 888.0, Adults: 768.0
tick: 912.0, Adults: 828.0
tick: 936.0, Adults: 880.0
tick: 960.0, Adults: 941.0
tick: 984.0, Adults: 982.0
tick: 1008.0, Adults: 1026.0
tick: 1032.0, Adults: 1076.0
tick: 1056.0, Adults: 1112.0
tick: 1080.0, Adults: 1138.0
tick: 1104.0, Adults: 1170.0
tick: 1128.0, Adults: 1203.0
tick: 1152.0, Adults: 1223.0
tick: 1176.0, Adults: 1238.0
tick: 1200.0, Adults: 1252.0
tick: 1224.0, Adults: 1271.0
tick: 1248.0, Adults: 1278.0
tick: 1272.0, Adults: 1277.0
tick: 1296.0, Adults: 1271.0
tick: 1320.0, Adults: 1253.0
tick: 1344.0, Adults: 1222.0
tick: 1368.0, Adults: 1187.0
tick: 1392.0, Adults: 1140.0
tick: 1416.0, Adults: 1110.0
tick: 1440.0, Adults: 1062.0
tick: 1464.0, Adults: 789.0
tick: 1488.0, Adults: 758.0
tick: 1512.0, Adults: 733.0
tick: 1536.0, Adults: 710.0
tick: 1560.0, Adults: 690.0
tick: 1584.0, Adults: 689.0
tick: 1608.0, Adults: 705.0
tick: 1632.0, Adults: 716.0
tick: 1656.0, Adults: 716.0
tick: 1680.0, Adults: 730.0
tick: 1704.0, Adults: 747.0
tick: 1728.0, Adults: 769.0
tick: 1752.0, Adults: 807.0
tick: 1776.0, Adults: 863.0
tick: 1800.0, Adults: 913.0
tick: 1824.0, Adults: 979.0
tick: 1848.0, Adults: 1046.0
tick: 1872.0, Adults: 1103.0
tick: 1896.0, Adults: 1166.0
tick: 1920.0, Adults: 1207.0
tick: 1944.0, Adults: 1255.0
tick: 1968.0, Adults: 1296.0
tick: 1992.0, Adults: 1327.0
tick: 2016.0, Adults: 1348.0
tick: 2040.0, Adults: 1388.0
tick: 2064.0, Adults: 1430.0
tick: 2088.0, Adults: 1446.0
tick: 2112.0, Adults: 1452.0
tick: 2136.0, Adults: 1468.0
tick: 2160.0, Adults: 1492.0
tick: 2184.0, Adults: 1465.0
tick: 2208.0, Adults: 1492.0
tick: 2232.0, Adults: 1502.0
tick: 2256.0, Adults: 1514.0
tick: 2280.0, Adults: 1557.0
tick: 2304.0, Adults: 1589.0
tick: 2328.0, Adults: 1597.0
tick: 2352.0, Adults: 1619.0
tick: 2376.0, Adults: 1662.0
tick: 2400.0, Adults: 1697.0
tick: 2424.0, Adults: 1711.0
tick: 2448.0, Adults: 1745.0
tick: 2472.0, Adults: 1766.0
tick: 2496.0, Adults: 1780.0
tick: 2520.0, Adults: 1785.0
tick: 2544.0, Adults: 1780.0
tick: 2568.0, Adults: 1761.0
tick: 2592.0, Adults: 1744.0
tick: 2616.0, Adults: 1716.0
tick: 2640.0, Adults: 1717.0
tick: 2664.0, Adults: 1707.0
tick: 2688.0, Adults: 1699.0
tick: 2712.0, Adults: 1703.0
tick: 2736.0, Adults: 1713.0
tick: 2760.0, Adults: 1692.0
tick: 2784.0, Adults: 1703.0
tick: 2808.0, Adults: 1729.0
