tick: 0.0, Adults: 161900.0
tick: 24.0, Adults: 150105.0
tick: 48.0, Adults: 144286.0
tick: 72.0, Adults: 138773.0
tick: 96.0, Adults: 133457.0
tick: 120.0, Adults: 128403.0
tick: 144.0, Adults: 123297.0
tick: 168.0, Adults: 118234.0
tick: 192.0, Adults: 113196.0
tick: 216.0, Adults: 108201.0
tick: 240.0, Adults: 103275.0
tick: 264.0, Adults: 98216.0
tick: 288.0, Adults: 93153.0
tick: 312.0, Adults: 88032.0
tick: 336.0, Adults: 82947.0
tick: 360.0, Adults: 77840.0
tick: 384.0, Adults: 72757.0
tick: 408.0, Adults: 67731.0
tick: 432.0, Adults: 62773.0
tick: 456.0, Adults: 57752.0
