tick: 1.0, AdultDuration: 31.956505501618906
tick: 25.0, AdultDuration: 31.965505758425728
tick: 49.0, AdultDuration: 31.967928421684796
tick: 73.0, AdultDuration: 31.969010782490646
tick: 97.0, AdultDuration: 31.97006145175386
tick: 121.0, AdultDuration: 31.97043971556461
tick: 145.0, AdultDuration: 31.97109567447994
tick: 169.0, AdultDuration: 31.97154426912352
tick: 193.0, AdultDuration: 31.972152164707104
tick: 217.0, AdultDuration: 31.972207172191485
tick: 241.0, AdultDuration: 31.973172038142362
tick: 265.0, AdultDuration: 31.974019696674404
tick: 289.0, AdultDuration: 31.974864580323633
tick: 313.0, AdultDuration: 31.9762071522413
tick: 337.0, AdultDuration: 31.97799916502062
tick: 361.0, AdultDuration: 31.979006544626447
tick: 385.0, AdultDuration: 31.98019498790527
tick: 409.0, AdultDuration: 31.9821027308993
tick: 433.0, AdultDuration: 31.98402720199402
tick: 457.0, AdultDuration: 31.9850352337016
tick: 481.0, AdultDuration: 31.986993401112915
tick: 505.0, AdultDuration: 31.99116566419849
tick: 529.0, AdultDuration: 31.995858928319155
tick: 553.0, AdultDuration: 32.00157983503858
