tick: 1.0, Fetal Count: 0.0
tick: 25.0, Fetal Count: 2.0
tick: 49.0, Fetal Count: 34.0
tick: 73.0, Fetal Count: 50.0
tick: 97.0, Fetal Count: 112.0
tick: 121.0, Fetal Count: 170.0
tick: 145.0, Fetal Count: 230.0
tick: 169.0, Fetal Count: 290.0
tick: 193.0, Fetal Count: 330.0
tick: 217.0, Fetal Count: 412.0
tick: 241.0, Fetal Count: 444.0
tick: 265.0, Fetal Count: 480.0
tick: 289.0, Fetal Count: 520.0
tick: 313.0, Fetal Count: 582.0
tick: 337.0, Fetal Count: 606.0
tick: 361.0, Fetal Count: 630.0
tick: 385.0, Fetal Count: 698.0
tick: 409.0, Fetal Count: 734.0
tick: 433.0, Fetal Count: 782.0
tick: 457.0, Fetal Count: 846.0
tick: 481.0, Fetal Count: 904.0
tick: 505.0, Fetal Count: 925.0
tick: 529.0, Fetal Count: 955.0
tick: 553.0, Fetal Count: 972.0
tick: 577.0, Fetal Count: 960.0
tick: 601.0, Fetal Count: 942.0
tick: 625.0, Fetal Count: 890.0
tick: 649.0, Fetal Count: 870.0
tick: 673.0, Fetal Count: 845.0
tick: 697.0, Fetal Count: 804.0
tick: 721.0, Fetal Count: 762.0
tick: 745.0, Fetal Count: 751.0
tick: 769.0, Fetal Count: 730.0
tick: 793.0, Fetal Count: 700.0
tick: 817.0, Fetal Count: 674.0
tick: 841.0, Fetal Count: 644.0
tick: 865.0, Fetal Count: 630.0
tick: 889.0, Fetal Count: 598.0
tick: 913.0, Fetal Count: 566.0
tick: 937.0, Fetal Count: 537.0
tick: 961.0, Fetal Count: 506.0
tick: 985.0, Fetal Count: 496.0
tick: 1009.0, Fetal Count: 499.0
tick: 1033.0, Fetal Count: 497.0
tick: 1057.0, Fetal Count: 476.0
tick: 1081.0, Fetal Count: 484.0
tick: 1105.0, Fetal Count: 493.0
tick: 1129.0, Fetal Count: 507.0
tick: 1153.0, Fetal Count: 507.0
tick: 1177.0, Fetal Count: 507.0
tick: 1201.0, Fetal Count: 511.0
tick: 1225.0, Fetal Count: 573.0
tick: 1249.0, Fetal Count: 598.0
tick: 1273.0, Fetal Count: 646.0
tick: 1297.0, Fetal Count: 688.0
tick: 1321.0, Fetal Count: 721.0
tick: 1345.0, Fetal Count: 725.0
tick: 1369.0, Fetal Count: 761.0
tick: 1393.0, Fetal Count: 778.0
tick: 1417.0, Fetal Count: 813.0
tick: 1441.0, Fetal Count: 807.0
tick: 1465.0, Fetal Count: 455.0
tick: 1489.0, Fetal Count: 457.0
tick: 1513.0, Fetal Count: 445.0
tick: 1537.0, Fetal Count: 533.0
tick: 1561.0, Fetal Count: 556.0
tick: 1585.0, Fetal Count: 558.0
tick: 1609.0, Fetal Count: 562.0
tick: 1633.0, Fetal Count: 635.0
tick: 1657.0, Fetal Count: 742.0
tick: 1681.0, Fetal Count: 793.0
tick: 1705.0, Fetal Count: 879.0
tick: 1729.0, Fetal Count: 945.0
tick: 1753.0, Fetal Count: 1022.0
tick: 1777.0, Fetal Count: 1037.0
tick: 1801.0, Fetal Count: 1044.0
tick: 1825.0, Fetal Count: 1041.0
tick: 1849.0, Fetal Count: 1009.0
tick: 1873.0, Fetal Count: 1004.0
tick: 1897.0, Fetal Count: 992.0
tick: 1921.0, Fetal Count: 947.0
tick: 1945.0, Fetal Count: 970.0
tick: 1969.0, Fetal Count: 944.0
tick: 1993.0, Fetal Count: 917.0
tick: 2017.0, Fetal Count: 896.0
tick: 2041.0, Fetal Count: 939.0
tick: 2065.0, Fetal Count: 996.0
tick: 2089.0, Fetal Count: 1028.0
tick: 2113.0, Fetal Count: 1074.0
tick: 2137.0, Fetal Count: 1050.0
tick: 2161.0, Fetal Count: 1074.0
tick: 2185.0, Fetal Count: 1174.0
tick: 2209.0, Fetal Count: 1192.0
tick: 2233.0, Fetal Count: 1116.0
tick: 2257.0, Fetal Count: 1064.0
tick: 2281.0, Fetal Count: 1016.0
tick: 2305.0, Fetal Count: 981.0
tick: 2329.0, Fetal Count: 869.0
tick: 2353.0, Fetal Count: 800.0
tick: 2377.0, Fetal Count: 749.0
tick: 2401.0, Fetal Count: 741.0
tick: 2425.0, Fetal Count: 697.0
tick: 2449.0, Fetal Count: 626.0
tick: 2473.0, Fetal Count: 516.0
tick: 2497.0, Fetal Count: 463.0
tick: 2521.0, Fetal Count: 530.0
tick: 2545.0, Fetal Count: 544.0
tick: 2569.0, Fetal Count: 559.0
tick: 2593.0, Fetal Count: 632.0
tick: 2617.0, Fetal Count: 733.0
tick: 2641.0, Fetal Count: 773.0
tick: 2665.0, Fetal Count: 774.0
tick: 2689.0, Fetal Count: 782.0
tick: 2713.0, Fetal Count: 819.0
tick: 2737.0, Fetal Count: 921.0
tick: 2761.0, Fetal Count: 936.0
tick: 2785.0, Fetal Count: 934.0
tick: 2809.0, Fetal Count: 975.0
tick: 2833.0, Fetal Count: 974.0
tick: 2857.0, Fetal Count: 888.0
tick: 2881.0, Fetal Count: 833.0
tick: 2905.0, Fetal Count: 808.0
tick: 2929.0, Fetal Count: 776.0
tick: 2953.0, Fetal Count: 781.0
tick: 2977.0, Fetal Count: 800.0
tick: 3001.0, Fetal Count: 765.0
tick: 3025.0, Fetal Count: 761.0
tick: 3049.0, Fetal Count: 797.0
tick: 3073.0, Fetal Count: 747.0
tick: 3097.0, Fetal Count: 747.0
tick: 3121.0, Fetal Count: 825.0
tick: 3145.0, Fetal Count: 901.0
tick: 3169.0, Fetal Count: 868.0
tick: 3193.0, Fetal Count: 843.0
tick: 3217.0, Fetal Count: 786.0
tick: 3241.0, Fetal Count: 776.0
tick: 3265.0, Fetal Count: 776.0
tick: 3289.0, Fetal Count: 717.0
tick: 3313.0, Fetal Count: 687.0
tick: 3337.0, Fetal Count: 668.0
tick: 3361.0, Fetal Count: 653.0
tick: 3385.0, Fetal Count: 666.0
tick: 3409.0, Fetal Count: 664.0
tick: 3433.0, Fetal Count: 619.0
tick: 3457.0, Fetal Count: 656.0
tick: 3481.0, Fetal Count: 655.0
tick: 3505.0, Fetal Count: 721.0
tick: 3529.0, Fetal Count: 749.0
tick: 3553.0, Fetal Count: 767.0
tick: 3577.0, Fetal Count: 769.0
tick: 3601.0, Fetal Count: 740.0
tick: 3625.0, Fetal Count: 810.0
tick: 3649.0, Fetal Count: 894.0
tick: 3673.0, Fetal Count: 850.0
tick: 3697.0, Fetal Count: 848.0
tick: 3721.0, Fetal Count: 840.0
tick: 3745.0, Fetal Count: 847.0
tick: 3769.0, Fetal Count: 815.0
tick: 3793.0, Fetal Count: 830.0
tick: 3817.0, Fetal Count: 771.0
tick: 3841.0, Fetal Count: 837.0
tick: 3865.0, Fetal Count: 802.0
tick: 3889.0, Fetal Count: 794.0
tick: 3913.0, Fetal Count: 809.0
tick: 3937.0, Fetal Count: 812.0
tick: 3961.0, Fetal Count: 784.0
tick: 3985.0, Fetal Count: 776.0
tick: 4009.0, Fetal Count: 767.0
tick: 4033.0, Fetal Count: 828.0
tick: 4057.0, Fetal Count: 890.0
tick: 4081.0, Fetal Count: 974.0
tick: 4105.0, Fetal Count: 942.0
tick: 4129.0, Fetal Count: 886.0
tick: 4153.0, Fetal Count: 930.0
tick: 4177.0, Fetal Count: 899.0
tick: 4201.0, Fetal Count: 898.0
tick: 4225.0, Fetal Count: 850.0
tick: 4249.0, Fetal Count: 798.0
tick: 4273.0, Fetal Count: 827.0
tick: 4297.0, Fetal Count: 798.0
tick: 4321.0, Fetal Count: 769.0
tick: 4345.0, Fetal Count: 732.0
tick: 4369.0, Fetal Count: 645.0
tick: 4393.0, Fetal Count: 626.0
tick: 4417.0, Fetal Count: 583.0
tick: 4441.0, Fetal Count: 579.0
tick: 4465.0, Fetal Count: 604.0
tick: 4489.0, Fetal Count: 564.0
tick: 4513.0, Fetal Count: 556.0
tick: 4537.0, Fetal Count: 533.0
tick: 4561.0, Fetal Count: 526.0
tick: 4585.0, Fetal Count: 525.0
tick: 4609.0, Fetal Count: 536.0
tick: 4633.0, Fetal Count: 503.0
tick: 4657.0, Fetal Count: 520.0
tick: 4681.0, Fetal Count: 546.0
tick: 4705.0, Fetal Count: 560.0
tick: 4729.0, Fetal Count: 616.0
tick: 4753.0, Fetal Count: 573.0
tick: 4777.0, Fetal Count: 631.0
tick: 4801.0, Fetal Count: 648.0
tick: 4825.0, Fetal Count: 684.0
tick: 4849.0, Fetal Count: 707.0
tick: 4873.0, Fetal Count: 809.0
tick: 4897.0, Fetal Count: 842.0
tick: 4921.0, Fetal Count: 878.0
tick: 4945.0, Fetal Count: 919.0
tick: 4969.0, Fetal Count: 958.0
tick: 4993.0, Fetal Count: 948.0
tick: 5017.0, Fetal Count: 931.0
tick: 5041.0, Fetal Count: 895.0
tick: 5065.0, Fetal Count: 888.0
tick: 5089.0, Fetal Count: 835.0
tick: 5113.0, Fetal Count: 837.0
tick: 5137.0, Fetal Count: 800.0
tick: 5161.0, Fetal Count: 711.0
tick: 5185.0, Fetal Count: 614.0
tick: 5209.0, Fetal Count: 580.0
tick: 5233.0, Fetal Count: 509.0
tick: 5257.0, Fetal Count: 461.0
tick: 5281.0, Fetal Count: 466.0
tick: 5305.0, Fetal Count: 491.0
tick: 5329.0, Fetal Count: 468.0
tick: 5353.0, Fetal Count: 484.0
tick: 5377.0, Fetal Count: 545.0
tick: 5401.0, Fetal Count: 632.0
tick: 5425.0, Fetal Count: 602.0
tick: 5449.0, Fetal Count: 639.0
tick: 5473.0, Fetal Count: 663.0
tick: 5497.0, Fetal Count: 692.0
tick: 5521.0, Fetal Count: 736.0
tick: 5545.0, Fetal Count: 729.0
tick: 5569.0, Fetal Count: 719.0
tick: 5593.0, Fetal Count: 656.0
tick: 5617.0, Fetal Count: 692.0
tick: 5641.0, Fetal Count: 755.0
tick: 5665.0, Fetal Count: 717.0
tick: 5689.0, Fetal Count: 620.0
tick: 5713.0, Fetal Count: 595.0
tick: 5737.0, Fetal Count: 584.0
tick: 5761.0, Fetal Count: 627.0
tick: 5785.0, Fetal Count: 571.0
tick: 5809.0, Fetal Count: 506.0
tick: 5833.0, Fetal Count: 538.0
tick: 5857.0, Fetal Count: 549.0
tick: 5881.0, Fetal Count: 581.0
tick: 5905.0, Fetal Count: 574.0
tick: 5929.0, Fetal Count: 523.0
tick: 5953.0, Fetal Count: 461.0
tick: 5977.0, Fetal Count: 479.0
tick: 6001.0, Fetal Count: 511.0
tick: 6025.0, Fetal Count: 575.0
tick: 6049.0, Fetal Count: 522.0
tick: 6073.0, Fetal Count: 570.0
tick: 6097.0, Fetal Count: 672.0
tick: 6121.0, Fetal Count: 665.0
tick: 6145.0, Fetal Count: 682.0
tick: 6169.0, Fetal Count: 695.0
tick: 6193.0, Fetal Count: 680.0
tick: 6217.0, Fetal Count: 781.0
tick: 6241.0, Fetal Count: 818.0
tick: 6265.0, Fetal Count: 859.0
tick: 6289.0, Fetal Count: 841.0
tick: 6313.0, Fetal Count: 818.0
tick: 6337.0, Fetal Count: 814.0
tick: 6361.0, Fetal Count: 804.0
tick: 6385.0, Fetal Count: 743.0
tick: 6409.0, Fetal Count: 741.0
tick: 6433.0, Fetal Count: 721.0
tick: 6457.0, Fetal Count: 749.0
tick: 6481.0, Fetal Count: 710.0
tick: 6505.0, Fetal Count: 571.0
tick: 6529.0, Fetal Count: 627.0
tick: 6553.0, Fetal Count: 621.0
tick: 6577.0, Fetal Count: 642.0
tick: 6601.0, Fetal Count: 593.0
tick: 6625.0, Fetal Count: 587.0
tick: 6649.0, Fetal Count: 588.0
tick: 6673.0, Fetal Count: 591.0
tick: 6697.0, Fetal Count: 572.0
tick: 6721.0, Fetal Count: 520.0
tick: 6745.0, Fetal Count: 504.0
tick: 6769.0, Fetal Count: 533.0
tick: 6793.0, Fetal Count: 590.0
tick: 6817.0, Fetal Count: 547.0
tick: 6841.0, Fetal Count: 515.0
tick: 6865.0, Fetal Count: 489.0
tick: 6889.0, Fetal Count: 493.0
tick: 6913.0, Fetal Count: 478.0
tick: 6937.0, Fetal Count: 451.0
tick: 6961.0, Fetal Count: 467.0
tick: 6985.0, Fetal Count: 444.0
tick: 7009.0, Fetal Count: 523.0
tick: 7033.0, Fetal Count: 494.0
tick: 7057.0, Fetal Count: 461.0
tick: 7081.0, Fetal Count: 461.0
tick: 7105.0, Fetal Count: 489.0
tick: 7129.0, Fetal Count: 579.0
tick: 7153.0, Fetal Count: 560.0
tick: 7177.0, Fetal Count: 565.0
tick: 7201.0, Fetal Count: 633.0
tick: 7225.0, Fetal Count: 627.0
tick: 7249.0, Fetal Count: 702.0
tick: 7273.0, Fetal Count: 795.0
tick: 7297.0, Fetal Count: 783.0
tick: 7321.0, Fetal Count: 813.0
tick: 7345.0, Fetal Count: 758.0
tick: 7369.0, Fetal Count: 761.0
tick: 7393.0, Fetal Count: 719.0
tick: 7417.0, Fetal Count: 705.0
tick: 7441.0, Fetal Count: 742.0
tick: 7465.0, Fetal Count: 740.0
tick: 7489.0, Fetal Count: 725.0
tick: 7513.0, Fetal Count: 668.0
tick: 7537.0, Fetal Count: 560.0
tick: 7561.0, Fetal Count: 497.0
tick: 7585.0, Fetal Count: 486.0
tick: 7609.0, Fetal Count: 483.0
tick: 7633.0, Fetal Count: 483.0
tick: 7657.0, Fetal Count: 456.0
tick: 7681.0, Fetal Count: 537.0
tick: 7705.0, Fetal Count: 586.0
tick: 7729.0, Fetal Count: 560.0
tick: 7753.0, Fetal Count: 561.0
tick: 7777.0, Fetal Count: 538.0
tick: 7801.0, Fetal Count: 553.0
tick: 7825.0, Fetal Count: 566.0
tick: 7849.0, Fetal Count: 572.0
tick: 7873.0, Fetal Count: 626.0
tick: 7897.0, Fetal Count: 644.0
tick: 7921.0, Fetal Count: 652.0
tick: 7945.0, Fetal Count: 709.0
tick: 7969.0, Fetal Count: 645.0
tick: 7993.0, Fetal Count: 592.0
tick: 8017.0, Fetal Count: 591.0
tick: 8041.0, Fetal Count: 597.0
tick: 8065.0, Fetal Count: 656.0
tick: 8089.0, Fetal Count: 632.0
tick: 8113.0, Fetal Count: 596.0
tick: 8137.0, Fetal Count: 582.0
tick: 8161.0, Fetal Count: 542.0
tick: 8185.0, Fetal Count: 525.0
tick: 8209.0, Fetal Count: 461.0
tick: 8233.0, Fetal Count: 376.0
tick: 8257.0, Fetal Count: 375.0
tick: 8281.0, Fetal Count: 395.0
tick: 8305.0, Fetal Count: 436.0
tick: 8329.0, Fetal Count: 400.0
tick: 8353.0, Fetal Count: 426.0
tick: 8377.0, Fetal Count: 420.0
tick: 8401.0, Fetal Count: 447.0
tick: 8425.0, Fetal Count: 418.0
tick: 8449.0, Fetal Count: 429.0
tick: 8473.0, Fetal Count: 473.0
tick: 8497.0, Fetal Count: 485.0
tick: 8521.0, Fetal Count: 511.0
tick: 8545.0, Fetal Count: 525.0
tick: 8569.0, Fetal Count: 501.0
tick: 8593.0, Fetal Count: 483.0
tick: 8617.0, Fetal Count: 479.0
tick: 8641.0, Fetal Count: 459.0
tick: 8665.0, Fetal Count: 477.0
tick: 8689.0, Fetal Count: 511.0
tick: 8713.0, Fetal Count: 535.0
tick: 8737.0, Fetal Count: 555.0
tick: 8761.0, Fetal Count: 565.0
tick: 8785.0, Fetal Count: 583.0
tick: 8809.0, Fetal Count: 605.0
tick: 8833.0, Fetal Count: 619.0
tick: 8857.0, Fetal Count: 626.0
tick: 8881.0, Fetal Count: 641.0
tick: 8905.0, Fetal Count: 626.0
tick: 8929.0, Fetal Count: 622.0
tick: 8953.0, Fetal Count: 587.0
tick: 8977.0, Fetal Count: 547.0
tick: 9001.0, Fetal Count: 530.0
tick: 9025.0, Fetal Count: 490.0
tick: 9049.0, Fetal Count: 457.0
tick: 9073.0, Fetal Count: 428.0
tick: 9097.0, Fetal Count: 392.0
tick: 9121.0, Fetal Count: 349.0
tick: 9145.0, Fetal Count: 330.0
tick: 9169.0, Fetal Count: 320.0
tick: 9193.0, Fetal Count: 330.0
tick: 9217.0, Fetal Count: 326.0
tick: 9241.0, Fetal Count: 315.0
tick: 9265.0, Fetal Count: 317.0
tick: 9289.0, Fetal Count: 329.0
tick: 9313.0, Fetal Count: 311.0
tick: 9337.0, Fetal Count: 287.0
tick: 9361.0, Fetal Count: 260.0
tick: 9385.0, Fetal Count: 251.0
tick: 9409.0, Fetal Count: 281.0
tick: 9433.0, Fetal Count: 268.0
tick: 9457.0, Fetal Count: 258.0
tick: 9481.0, Fetal Count: 251.0
tick: 9505.0, Fetal Count: 257.0
tick: 9529.0, Fetal Count: 263.0
tick: 9553.0, Fetal Count: 279.0
tick: 9577.0, Fetal Count: 275.0
tick: 9601.0, Fetal Count: 301.0
tick: 9625.0, Fetal Count: 302.0
tick: 9649.0, Fetal Count: 302.0
tick: 9673.0, Fetal Count: 303.0
tick: 9697.0, Fetal Count: 275.0
tick: 9721.0, Fetal Count: 291.0
tick: 9745.0, Fetal Count: 297.0
tick: 9769.0, Fetal Count: 309.0
tick: 9793.0, Fetal Count: 305.0
tick: 9817.0, Fetal Count: 295.0
tick: 9841.0, Fetal Count: 308.0
tick: 9865.0, Fetal Count: 324.0
tick: 9889.0, Fetal Count: 326.0
tick: 9913.0, Fetal Count: 321.0
tick: 9937.0, Fetal Count: 303.0
tick: 9961.0, Fetal Count: 308.0
tick: 9985.0, Fetal Count: 313.0
tick: 10009.0, Fetal Count: 328.0
tick: 10033.0, Fetal Count: 324.0
tick: 10057.0, Fetal Count: 309.0
tick: 10081.0, Fetal Count: 313.0
tick: 10105.0, Fetal Count: 166.0
tick: 10129.0, Fetal Count: 172.0
tick: 10153.0, Fetal Count: 222.0
tick: 10177.0, Fetal Count: 232.0
tick: 10201.0, Fetal Count: 273.0
tick: 10225.0, Fetal Count: 318.0
tick: 10249.0, Fetal Count: 330.0
tick: 10273.0, Fetal Count: 358.0
tick: 10297.0, Fetal Count: 352.0
tick: 10321.0, Fetal Count: 348.0
tick: 10345.0, Fetal Count: 358.0
tick: 10369.0, Fetal Count: 387.0
tick: 10393.0, Fetal Count: 390.0
tick: 10417.0, Fetal Count: 400.0
tick: 10441.0, Fetal Count: 414.0
tick: 10465.0, Fetal Count: 406.0
tick: 10489.0, Fetal Count: 376.0
tick: 10513.0, Fetal Count: 330.0
tick: 10537.0, Fetal Count: 319.0
tick: 10561.0, Fetal Count: 300.0
tick: 10585.0, Fetal Count: 299.0
tick: 10609.0, Fetal Count: 300.0
tick: 10633.0, Fetal Count: 318.0
tick: 10657.0, Fetal Count: 295.0
tick: 10681.0, Fetal Count: 280.0
tick: 10705.0, Fetal Count: 293.0
tick: 10729.0, Fetal Count: 254.0
tick: 10753.0, Fetal Count: 239.0
tick: 10777.0, Fetal Count: 250.0
tick: 10801.0, Fetal Count: 279.0
tick: 10825.0, Fetal Count: 276.0
tick: 10849.0, Fetal Count: 292.0
tick: 10873.0, Fetal Count: 272.0
tick: 10897.0, Fetal Count: 312.0
tick: 10921.0, Fetal Count: 305.0
tick: 10945.0, Fetal Count: 403.0
tick: 10969.0, Fetal Count: 376.0
tick: 10993.0, Fetal Count: 374.0
tick: 11017.0, Fetal Count: 415.0
tick: 11041.0, Fetal Count: 407.0
tick: 11065.0, Fetal Count: 376.0
tick: 11089.0, Fetal Count: 346.0
tick: 11113.0, Fetal Count: 320.0
tick: 11137.0, Fetal Count: 356.0
tick: 11161.0, Fetal Count: 344.0
tick: 11185.0, Fetal Count: 320.0
tick: 11209.0, Fetal Count: 326.0
tick: 11233.0, Fetal Count: 363.0
tick: 11257.0, Fetal Count: 360.0
tick: 11281.0, Fetal Count: 377.0
tick: 11305.0, Fetal Count: 361.0
tick: 11329.0, Fetal Count: 384.0
tick: 11353.0, Fetal Count: 452.0
tick: 11377.0, Fetal Count: 452.0
tick: 11401.0, Fetal Count: 476.0
tick: 11425.0, Fetal Count: 473.0
tick: 11449.0, Fetal Count: 534.0
tick: 11473.0, Fetal Count: 523.0
tick: 11497.0, Fetal Count: 462.0
tick: 11521.0, Fetal Count: 427.0
tick: 11545.0, Fetal Count: 462.0
tick: 11569.0, Fetal Count: 434.0
tick: 11593.0, Fetal Count: 448.0
tick: 11617.0, Fetal Count: 410.0
tick: 11641.0, Fetal Count: 451.0
tick: 11665.0, Fetal Count: 465.0
tick: 11689.0, Fetal Count: 439.0
tick: 11713.0, Fetal Count: 392.0
tick: 11737.0, Fetal Count: 354.0
tick: 11761.0, Fetal Count: 342.0
tick: 11785.0, Fetal Count: 324.0
tick: 11809.0, Fetal Count: 311.0
tick: 11833.0, Fetal Count: 324.0
tick: 11857.0, Fetal Count: 378.0
tick: 11881.0, Fetal Count: 360.0
tick: 11905.0, Fetal Count: 357.0
tick: 11929.0, Fetal Count: 330.0
tick: 11953.0, Fetal Count: 356.0
tick: 11977.0, Fetal Count: 413.0
tick: 12001.0, Fetal Count: 451.0
tick: 12025.0, Fetal Count: 484.0
tick: 12049.0, Fetal Count: 561.0
tick: 12073.0, Fetal Count: 585.0
tick: 12097.0, Fetal Count: 546.0
tick: 12121.0, Fetal Count: 476.0
tick: 12145.0, Fetal Count: 449.0
tick: 12169.0, Fetal Count: 425.0
tick: 12193.0, Fetal Count: 440.0
tick: 12217.0, Fetal Count: 428.0
tick: 12241.0, Fetal Count: 375.0
tick: 12265.0, Fetal Count: 340.0
tick: 12289.0, Fetal Count: 300.0
tick: 12313.0, Fetal Count: 275.0
tick: 12337.0, Fetal Count: 288.0
tick: 12361.0, Fetal Count: 313.0
tick: 12385.0, Fetal Count: 328.0
tick: 12409.0, Fetal Count: 334.0
tick: 12433.0, Fetal Count: 405.0
tick: 12457.0, Fetal Count: 464.0
tick: 12481.0, Fetal Count: 421.0
tick: 12505.0, Fetal Count: 410.0
tick: 12529.0, Fetal Count: 506.0
tick: 12553.0, Fetal Count: 550.0
tick: 12577.0, Fetal Count: 595.0
tick: 12601.0, Fetal Count: 568.0
tick: 12625.0, Fetal Count: 534.0
tick: 12649.0, Fetal Count: 504.0
tick: 12673.0, Fetal Count: 508.0
tick: 12697.0, Fetal Count: 494.0
tick: 12721.0, Fetal Count: 576.0
tick: 12745.0, Fetal Count: 572.0
tick: 12769.0, Fetal Count: 587.0
tick: 12793.0, Fetal Count: 569.0
tick: 12817.0, Fetal Count: 530.0
tick: 12841.0, Fetal Count: 477.0
tick: 12865.0, Fetal Count: 439.0
tick: 12889.0, Fetal Count: 422.0
tick: 12913.0, Fetal Count: 419.0
tick: 12937.0, Fetal Count: 467.0
tick: 12961.0, Fetal Count: 512.0
tick: 12985.0, Fetal Count: 527.0
tick: 13009.0, Fetal Count: 460.0
tick: 13033.0, Fetal Count: 364.0
tick: 13057.0, Fetal Count: 444.0
tick: 13081.0, Fetal Count: 438.0
tick: 13105.0, Fetal Count: 424.0
tick: 13129.0, Fetal Count: 468.0
tick: 13153.0, Fetal Count: 489.0
tick: 13177.0, Fetal Count: 496.0
tick: 13201.0, Fetal Count: 474.0
tick: 13225.0, Fetal Count: 451.0
tick: 13249.0, Fetal Count: 387.0
tick: 13273.0, Fetal Count: 362.0
tick: 13297.0, Fetal Count: 420.0
tick: 13321.0, Fetal Count: 424.0
tick: 13345.0, Fetal Count: 362.0
tick: 13369.0, Fetal Count: 312.0
tick: 13393.0, Fetal Count: 370.0
tick: 13417.0, Fetal Count: 345.0
tick: 13441.0, Fetal Count: 341.0
tick: 13465.0, Fetal Count: 350.0
tick: 13489.0, Fetal Count: 352.0
tick: 13513.0, Fetal Count: 355.0
tick: 13537.0, Fetal Count: 349.0
tick: 13561.0, Fetal Count: 370.0
tick: 13585.0, Fetal Count: 319.0
tick: 13609.0, Fetal Count: 308.0
tick: 13633.0, Fetal Count: 331.0
tick: 13657.0, Fetal Count: 317.0
tick: 13681.0, Fetal Count: 279.0
tick: 13705.0, Fetal Count: 264.0
tick: 13729.0, Fetal Count: 238.0
tick: 13753.0, Fetal Count: 252.0
tick: 13777.0, Fetal Count: 249.0
tick: 13801.0, Fetal Count: 259.0
tick: 13825.0, Fetal Count: 267.0
tick: 13849.0, Fetal Count: 261.0
tick: 13873.0, Fetal Count: 450.0
tick: 13897.0, Fetal Count: 445.0
tick: 13921.0, Fetal Count: 424.0
tick: 13945.0, Fetal Count: 447.0
tick: 13969.0, Fetal Count: 475.0
tick: 13993.0, Fetal Count: 554.0
tick: 14017.0, Fetal Count: 569.0
tick: 14041.0, Fetal Count: 598.0
tick: 14065.0, Fetal Count: 569.0
tick: 14089.0, Fetal Count: 606.0
tick: 14113.0, Fetal Count: 667.0
tick: 14137.0, Fetal Count: 719.0
tick: 14161.0, Fetal Count: 642.0
tick: 14185.0, Fetal Count: 563.0
tick: 14209.0, Fetal Count: 556.0
tick: 14233.0, Fetal Count: 580.0
tick: 14257.0, Fetal Count: 546.0
tick: 14281.0, Fetal Count: 491.0
tick: 14305.0, Fetal Count: 463.0
tick: 14329.0, Fetal Count: 425.0
tick: 14353.0, Fetal Count: 413.0
tick: 14377.0, Fetal Count: 494.0
tick: 14401.0, Fetal Count: 441.0
tick: 14425.0, Fetal Count: 351.0
tick: 14449.0, Fetal Count: 318.0
tick: 14473.0, Fetal Count: 330.0
tick: 14497.0, Fetal Count: 326.0
tick: 14521.0, Fetal Count: 303.0
tick: 14545.0, Fetal Count: 294.0
tick: 14569.0, Fetal Count: 433.0
tick: 14593.0, Fetal Count: 468.0
tick: 14617.0, Fetal Count: 457.0
tick: 14641.0, Fetal Count: 447.0
tick: 14665.0, Fetal Count: 440.0
tick: 14689.0, Fetal Count: 408.0
tick: 14713.0, Fetal Count: 443.0
tick: 14737.0, Fetal Count: 442.0
tick: 14761.0, Fetal Count: 454.0
tick: 14785.0, Fetal Count: 486.0
tick: 14809.0, Fetal Count: 539.0
tick: 14833.0, Fetal Count: 559.0
tick: 14857.0, Fetal Count: 500.0
tick: 14881.0, Fetal Count: 441.0
tick: 14905.0, Fetal Count: 422.0
tick: 14929.0, Fetal Count: 417.0
tick: 14953.0, Fetal Count: 447.0
tick: 14977.0, Fetal Count: 431.0
tick: 15001.0, Fetal Count: 431.0
tick: 15025.0, Fetal Count: 534.0
tick: 15049.0, Fetal Count: 547.0
tick: 15073.0, Fetal Count: 500.0
tick: 15097.0, Fetal Count: 465.0
tick: 15121.0, Fetal Count: 535.0
tick: 15145.0, Fetal Count: 491.0
tick: 15169.0, Fetal Count: 488.0
tick: 15193.0, Fetal Count: 510.0
tick: 15217.0, Fetal Count: 534.0
tick: 15241.0, Fetal Count: 574.0
tick: 15265.0, Fetal Count: 547.0
tick: 15289.0, Fetal Count: 483.0
tick: 15313.0, Fetal Count: 440.0
tick: 15337.0, Fetal Count: 419.0
tick: 15361.0, Fetal Count: 415.0
tick: 15385.0, Fetal Count: 492.0
tick: 15409.0, Fetal Count: 434.0
tick: 15433.0, Fetal Count: 424.0
tick: 15457.0, Fetal Count: 440.0
tick: 15481.0, Fetal Count: 416.0
tick: 15505.0, Fetal Count: 363.0
tick: 15529.0, Fetal Count: 362.0
tick: 15553.0, Fetal Count: 356.0
tick: 15577.0, Fetal Count: 337.0
tick: 15601.0, Fetal Count: 351.0
tick: 15625.0, Fetal Count: 374.0
tick: 15649.0, Fetal Count: 354.0
tick: 15673.0, Fetal Count: 318.0
tick: 15697.0, Fetal Count: 340.0
tick: 15721.0, Fetal Count: 350.0
tick: 15745.0, Fetal Count: 347.0
tick: 15769.0, Fetal Count: 328.0
tick: 15793.0, Fetal Count: 330.0
tick: 15817.0, Fetal Count: 316.0
tick: 15841.0, Fetal Count: 355.0
tick: 15865.0, Fetal Count: 329.0
tick: 15889.0, Fetal Count: 289.0
tick: 15913.0, Fetal Count: 288.0
tick: 15937.0, Fetal Count: 251.0
tick: 15961.0, Fetal Count: 266.0
tick: 15985.0, Fetal Count: 282.0
tick: 16009.0, Fetal Count: 267.0
tick: 16033.0, Fetal Count: 256.0
tick: 16057.0, Fetal Count: 258.0
tick: 16081.0, Fetal Count: 243.0
tick: 16105.0, Fetal Count: 242.0
tick: 16129.0, Fetal Count: 239.0
tick: 16153.0, Fetal Count: 238.0
tick: 16177.0, Fetal Count: 260.0
tick: 16201.0, Fetal Count: 300.0
tick: 16225.0, Fetal Count: 280.0
tick: 16249.0, Fetal Count: 277.0
tick: 16273.0, Fetal Count: 257.0
tick: 16297.0, Fetal Count: 264.0
tick: 16321.0, Fetal Count: 298.0
tick: 16345.0, Fetal Count: 350.0
tick: 16369.0, Fetal Count: 413.0
tick: 16393.0, Fetal Count: 436.0
tick: 16417.0, Fetal Count: 425.0
tick: 16441.0, Fetal Count: 440.0
tick: 16465.0, Fetal Count: 395.0
tick: 16489.0, Fetal Count: 376.0
tick: 16513.0, Fetal Count: 364.0
tick: 16537.0, Fetal Count: 374.0
tick: 16561.0, Fetal Count: 426.0
tick: 16585.0, Fetal Count: 416.0
tick: 16609.0, Fetal Count: 373.0
tick: 16633.0, Fetal Count: 383.0
tick: 16657.0, Fetal Count: 320.0
tick: 16681.0, Fetal Count: 287.0
tick: 16705.0, Fetal Count: 271.0
tick: 16729.0, Fetal Count: 251.0
tick: 16753.0, Fetal Count: 236.0
tick: 16777.0, Fetal Count: 274.0
tick: 16801.0, Fetal Count: 257.0
tick: 16825.0, Fetal Count: 221.0
tick: 16849.0, Fetal Count: 202.0
tick: 16873.0, Fetal Count: 192.0
tick: 16897.0, Fetal Count: 198.0
tick: 16921.0, Fetal Count: 267.0
tick: 16945.0, Fetal Count: 306.0
tick: 16969.0, Fetal Count: 352.0
tick: 16993.0, Fetal Count: 396.0
tick: 17017.0, Fetal Count: 416.0
tick: 17041.0, Fetal Count: 414.0
tick: 17065.0, Fetal Count: 406.0
tick: 17089.0, Fetal Count: 437.0
tick: 17113.0, Fetal Count: 453.0
tick: 17137.0, Fetal Count: 460.0
tick: 17161.0, Fetal Count: 506.0
tick: 17185.0, Fetal Count: 471.0
tick: 17209.0, Fetal Count: 390.0
tick: 17233.0, Fetal Count: 342.0
tick: 17257.0, Fetal Count: 341.0
tick: 17281.0, Fetal Count: 331.0
tick: 17305.0, Fetal Count: 331.0
tick: 17329.0, Fetal Count: 353.0
tick: 17353.0, Fetal Count: 359.0
tick: 17377.0, Fetal Count: 365.0
tick: 17401.0, Fetal Count: 407.0
tick: 17425.0, Fetal Count: 417.0
tick: 17449.0, Fetal Count: 421.0
tick: 17473.0, Fetal Count: 421.0
tick: 17497.0, Fetal Count: 452.0
tick: 17521.0, Fetal Count: 442.0
tick: 17545.0, Fetal Count: 431.0
tick: 17569.0, Fetal Count: 415.0
tick: 17593.0, Fetal Count: 394.0
tick: 17617.0, Fetal Count: 370.0
tick: 17641.0, Fetal Count: 340.0
tick: 17665.0, Fetal Count: 353.0
tick: 17689.0, Fetal Count: 346.0
tick: 17713.0, Fetal Count: 363.0
tick: 17737.0, Fetal Count: 340.0
tick: 17761.0, Fetal Count: 319.0
tick: 17785.0, Fetal Count: 311.0
tick: 17809.0, Fetal Count: 333.0
tick: 17833.0, Fetal Count: 341.0
tick: 17857.0, Fetal Count: 343.0
tick: 17881.0, Fetal Count: 326.0
tick: 17905.0, Fetal Count: 304.0
tick: 17929.0, Fetal Count: 299.0
tick: 17953.0, Fetal Count: 305.0
tick: 17977.0, Fetal Count: 318.0
tick: 18001.0, Fetal Count: 304.0
tick: 18025.0, Fetal Count: 299.0
tick: 18049.0, Fetal Count: 299.0
tick: 18073.0, Fetal Count: 312.0
tick: 18097.0, Fetal Count: 314.0
tick: 18121.0, Fetal Count: 324.0
tick: 18145.0, Fetal Count: 323.0
tick: 18169.0, Fetal Count: 304.0
tick: 18193.0, Fetal Count: 281.0
tick: 18217.0, Fetal Count: 266.0
tick: 18241.0, Fetal Count: 273.0
tick: 18265.0, Fetal Count: 268.0
tick: 18289.0, Fetal Count: 265.0
tick: 18313.0, Fetal Count: 261.0
tick: 18337.0, Fetal Count: 273.0
tick: 18361.0, Fetal Count: 264.0
tick: 18385.0, Fetal Count: 271.0
tick: 18409.0, Fetal Count: 276.0
tick: 18433.0, Fetal Count: 293.0
tick: 18457.0, Fetal Count: 282.0
tick: 18481.0, Fetal Count: 255.0
tick: 18505.0, Fetal Count: 241.0
tick: 18529.0, Fetal Count: 242.0
tick: 18553.0, Fetal Count: 237.0
tick: 18577.0, Fetal Count: 232.0
tick: 18601.0, Fetal Count: 223.0
tick: 18625.0, Fetal Count: 218.0
tick: 18649.0, Fetal Count: 212.0
tick: 18673.0, Fetal Count: 221.0
tick: 18697.0, Fetal Count: 220.0
tick: 18721.0, Fetal Count: 231.0
tick: 18745.0, Fetal Count: 98.0
tick: 18769.0, Fetal Count: 112.0
tick: 18793.0, Fetal Count: 120.0
tick: 18817.0, Fetal Count: 145.0
tick: 18841.0, Fetal Count: 187.0
tick: 18865.0, Fetal Count: 187.0
tick: 18889.0, Fetal Count: 231.0
tick: 18913.0, Fetal Count: 241.0
tick: 18937.0, Fetal Count: 291.0
tick: 18961.0, Fetal Count: 298.0
tick: 18985.0, Fetal Count: 297.0
tick: 19009.0, Fetal Count: 294.0
tick: 19033.0, Fetal Count: 363.0
tick: 19057.0, Fetal Count: 402.0
tick: 19081.0, Fetal Count: 430.0
tick: 19105.0, Fetal Count: 411.0
tick: 19129.0, Fetal Count: 385.0
tick: 19153.0, Fetal Count: 384.0
tick: 19177.0, Fetal Count: 353.0
tick: 19201.0, Fetal Count: 307.0
tick: 19225.0, Fetal Count: 283.0
tick: 19249.0, Fetal Count: 285.0
tick: 19273.0, Fetal Count: 291.0
tick: 19297.0, Fetal Count: 286.0
tick: 19321.0, Fetal Count: 257.0
tick: 19345.0, Fetal Count: 219.0
tick: 19369.0, Fetal Count: 185.0
tick: 19393.0, Fetal Count: 237.0
tick: 19417.0, Fetal Count: 239.0
tick: 19441.0, Fetal Count: 229.0
tick: 19465.0, Fetal Count: 408.0
tick: 19489.0, Fetal Count: 404.0
tick: 19513.0, Fetal Count: 411.0
tick: 19537.0, Fetal Count: 395.0
tick: 19561.0, Fetal Count: 415.0
tick: 19585.0, Fetal Count: 427.0
tick: 19609.0, Fetal Count: 433.0
tick: 19633.0, Fetal Count: 428.0
tick: 19657.0, Fetal Count: 476.0
tick: 19681.0, Fetal Count: 477.0
tick: 19705.0, Fetal Count: 497.0
tick: 19729.0, Fetal Count: 412.0
tick: 19753.0, Fetal Count: 332.0
tick: 19777.0, Fetal Count: 325.0
tick: 19801.0, Fetal Count: 314.0
tick: 19825.0, Fetal Count: 324.0
tick: 19849.0, Fetal Count: 350.0
tick: 19873.0, Fetal Count: 330.0
tick: 19897.0, Fetal Count: 315.0
tick: 19921.0, Fetal Count: 293.0
tick: 19945.0, Fetal Count: 248.0
tick: 19969.0, Fetal Count: 277.0
tick: 19993.0, Fetal Count: 282.0
tick: 20017.0, Fetal Count: 280.0
tick: 20041.0, Fetal Count: 320.0
tick: 20065.0, Fetal Count: 399.0
tick: 20089.0, Fetal Count: 391.0
tick: 20113.0, Fetal Count: 430.0
tick: 20137.0, Fetal Count: 404.0
tick: 20161.0, Fetal Count: 400.0
tick: 20185.0, Fetal Count: 380.0
tick: 20209.0, Fetal Count: 380.0
tick: 20233.0, Fetal Count: 387.0
tick: 20257.0, Fetal Count: 417.0
tick: 20281.0, Fetal Count: 435.0
tick: 20305.0, Fetal Count: 426.0
tick: 20329.0, Fetal Count: 373.0
tick: 20353.0, Fetal Count: 336.0
tick: 20377.0, Fetal Count: 306.0
tick: 20401.0, Fetal Count: 253.0
tick: 20425.0, Fetal Count: 311.0
tick: 20449.0, Fetal Count: 380.0
tick: 20473.0, Fetal Count: 384.0
tick: 20497.0, Fetal Count: 527.0
tick: 20521.0, Fetal Count: 494.0
tick: 20545.0, Fetal Count: 443.0
tick: 20569.0, Fetal Count: 415.0
tick: 20593.0, Fetal Count: 411.0
tick: 20617.0, Fetal Count: 502.0
tick: 20641.0, Fetal Count: 514.0
tick: 20665.0, Fetal Count: 554.0
tick: 20689.0, Fetal Count: 538.0
tick: 20713.0, Fetal Count: 493.0
tick: 20737.0, Fetal Count: 460.0
tick: 20761.0, Fetal Count: 371.0
tick: 20785.0, Fetal Count: 274.0
tick: 20809.0, Fetal Count: 327.0
tick: 20833.0, Fetal Count: 342.0
tick: 20857.0, Fetal Count: 360.0
tick: 20881.0, Fetal Count: 329.0
tick: 20905.0, Fetal Count: 298.0
tick: 20929.0, Fetal Count: 259.0
tick: 20953.0, Fetal Count: 249.0
tick: 20977.0, Fetal Count: 234.0
tick: 21001.0, Fetal Count: 297.0
tick: 21025.0, Fetal Count: 323.0
tick: 21049.0, Fetal Count: 343.0
tick: 21073.0, Fetal Count: 415.0
tick: 21097.0, Fetal Count: 374.0
tick: 21121.0, Fetal Count: 365.0
tick: 21145.0, Fetal Count: 356.0
tick: 21169.0, Fetal Count: 329.0
tick: 21193.0, Fetal Count: 413.0
tick: 21217.0, Fetal Count: 476.0
tick: 21241.0, Fetal Count: 476.0
tick: 21265.0, Fetal Count: 469.0
tick: 21289.0, Fetal Count: 470.0
tick: 21313.0, Fetal Count: 429.0
tick: 21337.0, Fetal Count: 406.0
tick: 21361.0, Fetal Count: 488.0
tick: 21385.0, Fetal Count: 473.0
tick: 21409.0, Fetal Count: 551.0
tick: 21433.0, Fetal Count: 541.0
tick: 21457.0, Fetal Count: 615.0
tick: 21481.0, Fetal Count: 572.0
tick: 21505.0, Fetal Count: 566.0
tick: 21529.0, Fetal Count: 540.0
tick: 21553.0, Fetal Count: 533.0
tick: 21577.0, Fetal Count: 533.0
tick: 21601.0, Fetal Count: 588.0
tick: 21625.0, Fetal Count: 603.0
tick: 21649.0, Fetal Count: 561.0
tick: 21673.0, Fetal Count: 554.0
tick: 21697.0, Fetal Count: 504.0
tick: 21721.0, Fetal Count: 447.0
tick: 21745.0, Fetal Count: 435.0
tick: 21769.0, Fetal Count: 432.0
tick: 21793.0, Fetal Count: 386.0
tick: 21817.0, Fetal Count: 358.0
tick: 21841.0, Fetal Count: 400.0
tick: 21865.0, Fetal Count: 411.0
tick: 21889.0, Fetal Count: 360.0
tick: 21913.0, Fetal Count: 357.0
tick: 21937.0, Fetal Count: 338.0
tick: 21961.0, Fetal Count: 286.0
tick: 21985.0, Fetal Count: 283.0
tick: 22009.0, Fetal Count: 276.0
tick: 22033.0, Fetal Count: 261.0
tick: 22057.0, Fetal Count: 261.0
tick: 22081.0, Fetal Count: 270.0
tick: 22105.0, Fetal Count: 329.0
tick: 22129.0, Fetal Count: 298.0
tick: 22153.0, Fetal Count: 253.0
tick: 22177.0, Fetal Count: 258.0
tick: 22201.0, Fetal Count: 326.0
tick: 22225.0, Fetal Count: 329.0
tick: 22249.0, Fetal Count: 343.0
tick: 22273.0, Fetal Count: 390.0
tick: 22297.0, Fetal Count: 395.0
tick: 22321.0, Fetal Count: 447.0
tick: 22345.0, Fetal Count: 423.0
tick: 22369.0, Fetal Count: 399.0
tick: 22393.0, Fetal Count: 360.0
tick: 22417.0, Fetal Count: 365.0
tick: 22441.0, Fetal Count: 360.0
tick: 22465.0, Fetal Count: 359.0
tick: 22489.0, Fetal Count: 323.0
tick: 22513.0, Fetal Count: 307.0
tick: 22537.0, Fetal Count: 309.0
tick: 22561.0, Fetal Count: 275.0
tick: 22585.0, Fetal Count: 268.0
tick: 22609.0, Fetal Count: 228.0
tick: 22633.0, Fetal Count: 222.0
tick: 22657.0, Fetal Count: 295.0
tick: 22681.0, Fetal Count: 371.0
tick: 22705.0, Fetal Count: 378.0
tick: 22729.0, Fetal Count: 378.0
tick: 22753.0, Fetal Count: 372.0
tick: 22777.0, Fetal Count: 401.0
tick: 22801.0, Fetal Count: 470.0
tick: 22825.0, Fetal Count: 438.0
tick: 22849.0, Fetal Count: 479.0
tick: 22873.0, Fetal Count: 474.0
tick: 22897.0, Fetal Count: 490.0
tick: 22921.0, Fetal Count: 515.0
tick: 22945.0, Fetal Count: 471.0
tick: 22969.0, Fetal Count: 442.0
tick: 22993.0, Fetal Count: 439.0
tick: 23017.0, Fetal Count: 460.0
tick: 23041.0, Fetal Count: 454.0
tick: 23065.0, Fetal Count: 422.0
tick: 23089.0, Fetal Count: 420.0
tick: 23113.0, Fetal Count: 400.0
tick: 23137.0, Fetal Count: 392.0
tick: 23161.0, Fetal Count: 421.0
tick: 23185.0, Fetal Count: 524.0
tick: 23209.0, Fetal Count: 503.0
tick: 23233.0, Fetal Count: 496.0
tick: 23257.0, Fetal Count: 537.0
tick: 23281.0, Fetal Count: 497.0
tick: 23305.0, Fetal Count: 504.0
tick: 23329.0, Fetal Count: 516.0
tick: 23353.0, Fetal Count: 549.0
tick: 23377.0, Fetal Count: 563.0
tick: 23401.0, Fetal Count: 556.0
tick: 23425.0, Fetal Count: 567.0
tick: 23449.0, Fetal Count: 546.0
tick: 23473.0, Fetal Count: 480.0
tick: 23497.0, Fetal Count: 442.0
tick: 23521.0, Fetal Count: 440.0
tick: 23545.0, Fetal Count: 406.0
tick: 23569.0, Fetal Count: 377.0
tick: 23593.0, Fetal Count: 352.0
tick: 23617.0, Fetal Count: 350.0
tick: 23641.0, Fetal Count: 300.0
tick: 23665.0, Fetal Count: 257.0
tick: 23689.0, Fetal Count: 314.0
tick: 23713.0, Fetal Count: 304.0
tick: 23737.0, Fetal Count: 272.0
tick: 23761.0, Fetal Count: 258.0
tick: 23785.0, Fetal Count: 239.0
tick: 23809.0, Fetal Count: 289.0
tick: 23833.0, Fetal Count: 269.0
tick: 23857.0, Fetal Count: 394.0
tick: 23881.0, Fetal Count: 431.0
tick: 23905.0, Fetal Count: 482.0
tick: 23929.0, Fetal Count: 494.0
tick: 23953.0, Fetal Count: 456.0
tick: 23977.0, Fetal Count: 408.0
tick: 24001.0, Fetal Count: 421.0
tick: 24025.0, Fetal Count: 456.0
tick: 24049.0, Fetal Count: 453.0
tick: 24073.0, Fetal Count: 414.0
tick: 24097.0, Fetal Count: 390.0
tick: 24121.0, Fetal Count: 419.0
tick: 24145.0, Fetal Count: 427.0
tick: 24169.0, Fetal Count: 373.0
tick: 24193.0, Fetal Count: 356.0
tick: 24217.0, Fetal Count: 352.0
tick: 24241.0, Fetal Count: 342.0
tick: 24265.0, Fetal Count: 378.0
tick: 24289.0, Fetal Count: 379.0
tick: 24313.0, Fetal Count: 389.0
tick: 24337.0, Fetal Count: 436.0
tick: 24361.0, Fetal Count: 487.0
tick: 24385.0, Fetal Count: 504.0
tick: 24409.0, Fetal Count: 453.0
tick: 24433.0, Fetal Count: 429.0
tick: 24457.0, Fetal Count: 449.0
tick: 24481.0, Fetal Count: 427.0
tick: 24505.0, Fetal Count: 462.0
tick: 24529.0, Fetal Count: 470.0
tick: 24553.0, Fetal Count: 428.0
tick: 24577.0, Fetal Count: 426.0
tick: 24601.0, Fetal Count: 411.0
tick: 24625.0, Fetal Count: 394.0
tick: 24649.0, Fetal Count: 380.0
tick: 24673.0, Fetal Count: 376.0
tick: 24697.0, Fetal Count: 358.0
tick: 24721.0, Fetal Count: 325.0
tick: 24745.0, Fetal Count: 335.0
tick: 24769.0, Fetal Count: 314.0
tick: 24793.0, Fetal Count: 287.0
tick: 24817.0, Fetal Count: 284.0
tick: 24841.0, Fetal Count: 309.0
tick: 24865.0, Fetal Count: 311.0
tick: 24889.0, Fetal Count: 281.0
tick: 24913.0, Fetal Count: 274.0
tick: 24937.0, Fetal Count: 268.0
tick: 24961.0, Fetal Count: 330.0
tick: 24985.0, Fetal Count: 361.0
tick: 25009.0, Fetal Count: 347.0
tick: 25033.0, Fetal Count: 341.0
tick: 25057.0, Fetal Count: 435.0
tick: 25081.0, Fetal Count: 474.0
tick: 25105.0, Fetal Count: 482.0
tick: 25129.0, Fetal Count: 462.0
tick: 25153.0, Fetal Count: 513.0
tick: 25177.0, Fetal Count: 567.0
tick: 25201.0, Fetal Count: 607.0
tick: 25225.0, Fetal Count: 571.0
tick: 25249.0, Fetal Count: 511.0
tick: 25273.0, Fetal Count: 569.0
tick: 25297.0, Fetal Count: 597.0
tick: 25321.0, Fetal Count: 575.0
tick: 25345.0, Fetal Count: 509.0
tick: 25369.0, Fetal Count: 460.0
tick: 25393.0, Fetal Count: 435.0
tick: 25417.0, Fetal Count: 479.0
tick: 25441.0, Fetal Count: 416.0
tick: 25465.0, Fetal Count: 357.0
tick: 25489.0, Fetal Count: 331.0
tick: 25513.0, Fetal Count: 315.0
tick: 25537.0, Fetal Count: 347.0
tick: 25561.0, Fetal Count: 370.0
tick: 25585.0, Fetal Count: 351.0
tick: 25609.0, Fetal Count: 411.0
tick: 25633.0, Fetal Count: 425.0
tick: 25657.0, Fetal Count: 441.0
tick: 25681.0, Fetal Count: 454.0
tick: 25705.0, Fetal Count: 411.0
tick: 25729.0, Fetal Count: 436.0
tick: 25753.0, Fetal Count: 441.0
tick: 25777.0, Fetal Count: 488.0
tick: 25801.0, Fetal Count: 483.0
tick: 25825.0, Fetal Count: 464.0
tick: 25849.0, Fetal Count: 402.0
tick: 25873.0, Fetal Count: 365.0
tick: 25897.0, Fetal Count: 359.0
tick: 25921.0, Fetal Count: 355.0
tick: 25945.0, Fetal Count: 375.0
tick: 25969.0, Fetal Count: 391.0
tick: 25993.0, Fetal Count: 417.0
tick: 26017.0, Fetal Count: 429.0
tick: 26041.0, Fetal Count: 453.0
tick: 26065.0, Fetal Count: 471.0
tick: 26089.0, Fetal Count: 482.0
tick: 26113.0, Fetal Count: 482.0
tick: 26137.0, Fetal Count: 526.0
tick: 26161.0, Fetal Count: 509.0
tick: 26185.0, Fetal Count: 512.0
tick: 26209.0, Fetal Count: 503.0
tick: 26233.0, Fetal Count: 529.0
tick: 26257.0, Fetal Count: 488.0
tick: 26281.0, Fetal Count: 485.0
tick: 26305.0, Fetal Count: 456.0
tick: 26329.0, Fetal Count: 478.0
tick: 26353.0, Fetal Count: 468.0
tick: 26377.0, Fetal Count: 434.0
tick: 26401.0, Fetal Count: 425.0
tick: 26425.0, Fetal Count: 437.0
tick: 26449.0, Fetal Count: 425.0
tick: 26473.0, Fetal Count: 417.0
tick: 26497.0, Fetal Count: 405.0
tick: 26521.0, Fetal Count: 400.0
tick: 26545.0, Fetal Count: 404.0
tick: 26569.0, Fetal Count: 395.0
tick: 26593.0, Fetal Count: 398.0
tick: 26617.0, Fetal Count: 390.0
tick: 26641.0, Fetal Count: 386.0
tick: 26665.0, Fetal Count: 379.0
tick: 26689.0, Fetal Count: 372.0
tick: 26713.0, Fetal Count: 363.0
tick: 26737.0, Fetal Count: 380.0
tick: 26761.0, Fetal Count: 353.0
tick: 26785.0, Fetal Count: 336.0
tick: 26809.0, Fetal Count: 321.0
tick: 26833.0, Fetal Count: 341.0
tick: 26857.0, Fetal Count: 330.0
tick: 26881.0, Fetal Count: 335.0
tick: 26905.0, Fetal Count: 328.0
tick: 26929.0, Fetal Count: 329.0
tick: 26953.0, Fetal Count: 343.0
tick: 26977.0, Fetal Count: 352.0
tick: 27001.0, Fetal Count: 354.0
tick: 27025.0, Fetal Count: 353.0
tick: 27049.0, Fetal Count: 335.0
tick: 27073.0, Fetal Count: 321.0
tick: 27097.0, Fetal Count: 327.0
tick: 27121.0, Fetal Count: 309.0
tick: 27145.0, Fetal Count: 312.0
tick: 27169.0, Fetal Count: 310.0
tick: 27193.0, Fetal Count: 336.0
tick: 27217.0, Fetal Count: 335.0
tick: 27241.0, Fetal Count: 322.0
tick: 27265.0, Fetal Count: 313.0
tick: 27289.0, Fetal Count: 311.0
tick: 27313.0, Fetal Count: 317.0
tick: 27337.0, Fetal Count: 330.0
tick: 27361.0, Fetal Count: 330.0
tick: 27385.0, Fetal Count: 219.0
tick: 27409.0, Fetal Count: 207.0
tick: 27433.0, Fetal Count: 219.0
tick: 27457.0, Fetal Count: 236.0
tick: 27481.0, Fetal Count: 221.0
tick: 27505.0, Fetal Count: 212.0
tick: 27529.0, Fetal Count: 237.0
tick: 27553.0, Fetal Count: 255.0
tick: 27577.0, Fetal Count: 274.0
tick: 27601.0, Fetal Count: 312.0
tick: 27625.0, Fetal Count: 300.0
tick: 27649.0, Fetal Count: 322.0
tick: 27673.0, Fetal Count: 338.0
tick: 27697.0, Fetal Count: 342.0
tick: 27721.0, Fetal Count: 337.0
tick: 27745.0, Fetal Count: 334.0
tick: 27769.0, Fetal Count: 329.0
tick: 27793.0, Fetal Count: 344.0
tick: 27817.0, Fetal Count: 337.0
tick: 27841.0, Fetal Count: 329.0
tick: 27865.0, Fetal Count: 301.0
tick: 27889.0, Fetal Count: 264.0
tick: 27913.0, Fetal Count: 241.0
tick: 27937.0, Fetal Count: 206.0
tick: 27961.0, Fetal Count: 169.0
tick: 27985.0, Fetal Count: 149.0
tick: 28009.0, Fetal Count: 157.0
tick: 28033.0, Fetal Count: 151.0
tick: 28057.0, Fetal Count: 141.0
tick: 28081.0, Fetal Count: 137.0
tick: 28105.0, Fetal Count: 113.0
tick: 28129.0, Fetal Count: 100.0
tick: 28153.0, Fetal Count: 112.0
tick: 28177.0, Fetal Count: 119.0
tick: 28201.0, Fetal Count: 160.0
tick: 28225.0, Fetal Count: 184.0
tick: 28249.0, Fetal Count: 196.0
tick: 28273.0, Fetal Count: 217.0
tick: 28297.0, Fetal Count: 292.0
tick: 28321.0, Fetal Count: 321.0
tick: 28345.0, Fetal Count: 308.0
tick: 28369.0, Fetal Count: 305.0
tick: 28393.0, Fetal Count: 352.0
tick: 28417.0, Fetal Count: 401.0
tick: 28441.0, Fetal Count: 403.0
tick: 28465.0, Fetal Count: 404.0
tick: 28489.0, Fetal Count: 377.0
tick: 28513.0, Fetal Count: 433.0
tick: 28537.0, Fetal Count: 422.0
tick: 28561.0, Fetal Count: 370.0
tick: 28585.0, Fetal Count: 332.0
tick: 28609.0, Fetal Count: 332.0
tick: 28633.0, Fetal Count: 358.0
tick: 28657.0, Fetal Count: 335.0
tick: 28681.0, Fetal Count: 295.0
tick: 28705.0, Fetal Count: 273.0
tick: 28729.0, Fetal Count: 266.0
tick: 28753.0, Fetal Count: 283.0
tick: 28777.0, Fetal Count: 273.0
tick: 28801.0, Fetal Count: 241.0
tick: 28825.0, Fetal Count: 250.0
tick: 28849.0, Fetal Count: 243.0
tick: 28873.0, Fetal Count: 282.0
tick: 28897.0, Fetal Count: 273.0
tick: 28921.0, Fetal Count: 303.0
tick: 28945.0, Fetal Count: 300.0
tick: 28969.0, Fetal Count: 296.0
tick: 28993.0, Fetal Count: 288.0
tick: 29017.0, Fetal Count: 290.0
tick: 29041.0, Fetal Count: 353.0
tick: 29065.0, Fetal Count: 338.0
tick: 29089.0, Fetal Count: 334.0
tick: 29113.0, Fetal Count: 345.0
tick: 29137.0, Fetal Count: 339.0
tick: 29161.0, Fetal Count: 333.0
tick: 29185.0, Fetal Count: 347.0
tick: 29209.0, Fetal Count: 331.0
tick: 29233.0, Fetal Count: 333.0
tick: 29257.0, Fetal Count: 332.0
tick: 29281.0, Fetal Count: 338.0
tick: 29305.0, Fetal Count: 299.0
tick: 29329.0, Fetal Count: 293.0
tick: 29353.0, Fetal Count: 281.0
tick: 29377.0, Fetal Count: 293.0
tick: 29401.0, Fetal Count: 291.0
tick: 29425.0, Fetal Count: 267.0
tick: 29449.0, Fetal Count: 235.0
tick: 29473.0, Fetal Count: 258.0
tick: 29497.0, Fetal Count: 348.0
tick: 29521.0, Fetal Count: 364.0
tick: 29545.0, Fetal Count: 428.0
tick: 29569.0, Fetal Count: 437.0
tick: 29593.0, Fetal Count: 468.0
tick: 29617.0, Fetal Count: 500.0
tick: 29641.0, Fetal Count: 491.0
tick: 29665.0, Fetal Count: 500.0
tick: 29689.0, Fetal Count: 535.0
tick: 29713.0, Fetal Count: 554.0
tick: 29737.0, Fetal Count: 650.0
tick: 29761.0, Fetal Count: 608.0
tick: 29785.0, Fetal Count: 546.0
tick: 29809.0, Fetal Count: 486.0
tick: 29833.0, Fetal Count: 466.0
tick: 29857.0, Fetal Count: 422.0
tick: 29881.0, Fetal Count: 388.0
tick: 29905.0, Fetal Count: 398.0
tick: 29929.0, Fetal Count: 443.0
tick: 29953.0, Fetal Count: 427.0
tick: 29977.0, Fetal Count: 425.0
tick: 30001.0, Fetal Count: 426.0
tick: 30025.0, Fetal Count: 382.0
tick: 30049.0, Fetal Count: 343.0
tick: 30073.0, Fetal Count: 381.0
tick: 30097.0, Fetal Count: 388.0
tick: 30121.0, Fetal Count: 430.0
tick: 30145.0, Fetal Count: 493.0
tick: 30169.0, Fetal Count: 471.0
tick: 30193.0, Fetal Count: 470.0
tick: 30217.0, Fetal Count: 460.0
tick: 30241.0, Fetal Count: 440.0
tick: 30265.0, Fetal Count: 464.0
tick: 30289.0, Fetal Count: 427.0
tick: 30313.0, Fetal Count: 399.0
tick: 30337.0, Fetal Count: 408.0
tick: 30361.0, Fetal Count: 490.0
tick: 30385.0, Fetal Count: 461.0
tick: 30409.0, Fetal Count: 464.0
tick: 30433.0, Fetal Count: 509.0
tick: 30457.0, Fetal Count: 513.0
tick: 30481.0, Fetal Count: 478.0
tick: 30505.0, Fetal Count: 536.0
tick: 30529.0, Fetal Count: 608.0
tick: 30553.0, Fetal Count: 594.0
tick: 30577.0, Fetal Count: 684.0
tick: 30601.0, Fetal Count: 689.0
tick: 30625.0, Fetal Count: 701.0
tick: 30649.0, Fetal Count: 688.0
tick: 30673.0, Fetal Count: 657.0
tick: 30697.0, Fetal Count: 644.0
tick: 30721.0, Fetal Count: 617.0
tick: 30745.0, Fetal Count: 558.0
tick: 30769.0, Fetal Count: 541.0
tick: 30793.0, Fetal Count: 503.0
tick: 30817.0, Fetal Count: 469.0
tick: 30841.0, Fetal Count: 410.0
tick: 30865.0, Fetal Count: 359.0
tick: 30889.0, Fetal Count: 309.0
tick: 30913.0, Fetal Count: 381.0
tick: 30937.0, Fetal Count: 356.0
tick: 30961.0, Fetal Count: 368.0
tick: 30985.0, Fetal Count: 371.0
tick: 31009.0, Fetal Count: 446.0
tick: 31033.0, Fetal Count: 425.0
tick: 31057.0, Fetal Count: 526.0
tick: 31081.0, Fetal Count: 630.0
tick: 31105.0, Fetal Count: 598.0
tick: 31129.0, Fetal Count: 590.0
tick: 31153.0, Fetal Count: 603.0
tick: 31177.0, Fetal Count: 676.0
tick: 31201.0, Fetal Count: 635.0
tick: 31225.0, Fetal Count: 649.0
tick: 31249.0, Fetal Count: 640.0
tick: 31273.0, Fetal Count: 668.0
tick: 31297.0, Fetal Count: 621.0
tick: 31321.0, Fetal Count: 584.0
tick: 31345.0, Fetal Count: 512.0
tick: 31369.0, Fetal Count: 471.0
tick: 31393.0, Fetal Count: 424.0
tick: 31417.0, Fetal Count: 421.0
tick: 31441.0, Fetal Count: 396.0
tick: 31465.0, Fetal Count: 424.0
tick: 31489.0, Fetal Count: 375.0
tick: 31513.0, Fetal Count: 366.0
tick: 31537.0, Fetal Count: 337.0
tick: 31561.0, Fetal Count: 303.0
tick: 31585.0, Fetal Count: 361.0
tick: 31609.0, Fetal Count: 399.0
tick: 31633.0, Fetal Count: 397.0
tick: 31657.0, Fetal Count: 392.0
tick: 31681.0, Fetal Count: 416.0
tick: 31705.0, Fetal Count: 420.0
tick: 31729.0, Fetal Count: 423.0
tick: 31753.0, Fetal Count: 420.0
tick: 31777.0, Fetal Count: 426.0
tick: 31801.0, Fetal Count: 519.0
tick: 31825.0, Fetal Count: 498.0
tick: 31849.0, Fetal Count: 520.0
tick: 31873.0, Fetal Count: 507.0
tick: 31897.0, Fetal Count: 471.0
tick: 31921.0, Fetal Count: 489.0
tick: 31945.0, Fetal Count: 509.0
tick: 31969.0, Fetal Count: 496.0
tick: 31993.0, Fetal Count: 511.0
tick: 32017.0, Fetal Count: 545.0
tick: 32041.0, Fetal Count: 578.0
tick: 32065.0, Fetal Count: 595.0
tick: 32089.0, Fetal Count: 529.0
tick: 32113.0, Fetal Count: 551.0
tick: 32137.0, Fetal Count: 527.0
tick: 32161.0, Fetal Count: 542.0
tick: 32185.0, Fetal Count: 566.0
tick: 32209.0, Fetal Count: 581.0
tick: 32233.0, Fetal Count: 574.0
tick: 32257.0, Fetal Count: 629.0
tick: 32281.0, Fetal Count: 642.0
tick: 32305.0, Fetal Count: 592.0
tick: 32329.0, Fetal Count: 551.0
tick: 32353.0, Fetal Count: 536.0
tick: 32377.0, Fetal Count: 563.0
tick: 32401.0, Fetal Count: 522.0
tick: 32425.0, Fetal Count: 471.0
tick: 32449.0, Fetal Count: 416.0
tick: 32473.0, Fetal Count: 373.0
tick: 32497.0, Fetal Count: 340.0
tick: 32521.0, Fetal Count: 287.0
tick: 32545.0, Fetal Count: 209.0
tick: 32569.0, Fetal Count: 178.0
tick: 32593.0, Fetal Count: 204.0
tick: 32617.0, Fetal Count: 180.0
tick: 32641.0, Fetal Count: 184.0
tick: 32665.0, Fetal Count: 194.0
tick: 32689.0, Fetal Count: 202.0
tick: 32713.0, Fetal Count: 232.0
tick: 32737.0, Fetal Count: 229.0
tick: 32761.0, Fetal Count: 311.0
tick: 32785.0, Fetal Count: 358.0
tick: 32809.0, Fetal Count: 372.0
tick: 32833.0, Fetal Count: 406.0
tick: 32857.0, Fetal Count: 405.0
tick: 32881.0, Fetal Count: 423.0
tick: 32905.0, Fetal Count: 399.0
tick: 32929.0, Fetal Count: 365.0
tick: 32953.0, Fetal Count: 359.0
tick: 32977.0, Fetal Count: 345.0
tick: 33001.0, Fetal Count: 358.0
tick: 33025.0, Fetal Count: 313.0
tick: 33049.0, Fetal Count: 285.0
tick: 33073.0, Fetal Count: 275.0
tick: 33097.0, Fetal Count: 303.0
tick: 33121.0, Fetal Count: 277.0
tick: 33145.0, Fetal Count: 258.0
tick: 33169.0, Fetal Count: 239.0
tick: 33193.0, Fetal Count: 256.0
tick: 33217.0, Fetal Count: 285.0
tick: 33241.0, Fetal Count: 267.0
tick: 33265.0, Fetal Count: 248.0
tick: 33289.0, Fetal Count: 233.0
tick: 33313.0, Fetal Count: 229.0
tick: 33337.0, Fetal Count: 195.0
tick: 33361.0, Fetal Count: 165.0
tick: 33385.0, Fetal Count: 152.0
tick: 33409.0, Fetal Count: 159.0
tick: 33433.0, Fetal Count: 164.0
tick: 33457.0, Fetal Count: 148.0
tick: 33481.0, Fetal Count: 140.0
tick: 33505.0, Fetal Count: 116.0
tick: 33529.0, Fetal Count: 113.0
tick: 33553.0, Fetal Count: 107.0
tick: 33577.0, Fetal Count: 155.0
tick: 33601.0, Fetal Count: 146.0
tick: 33625.0, Fetal Count: 277.0
tick: 33649.0, Fetal Count: 257.0
tick: 33673.0, Fetal Count: 278.0
tick: 33697.0, Fetal Count: 280.0
tick: 33721.0, Fetal Count: 294.0
tick: 33745.0, Fetal Count: 325.0
tick: 33769.0, Fetal Count: 317.0
tick: 33793.0, Fetal Count: 376.0
tick: 33817.0, Fetal Count: 384.0
tick: 33841.0, Fetal Count: 371.0
tick: 33865.0, Fetal Count: 357.0
tick: 33889.0, Fetal Count: 319.0
tick: 33913.0, Fetal Count: 274.0
tick: 33937.0, Fetal Count: 247.0
tick: 33961.0, Fetal Count: 254.0
tick: 33985.0, Fetal Count: 239.0
tick: 34009.0, Fetal Count: 267.0
tick: 34033.0, Fetal Count: 247.0
tick: 34057.0, Fetal Count: 260.0
tick: 34081.0, Fetal Count: 258.0
tick: 34105.0, Fetal Count: 267.0
tick: 34129.0, Fetal Count: 251.0
tick: 34153.0, Fetal Count: 287.0
tick: 34177.0, Fetal Count: 317.0
tick: 34201.0, Fetal Count: 318.0
tick: 34225.0, Fetal Count: 321.0
tick: 34249.0, Fetal Count: 335.0
tick: 34273.0, Fetal Count: 340.0
tick: 34297.0, Fetal Count: 327.0
tick: 34321.0, Fetal Count: 321.0
tick: 34345.0, Fetal Count: 332.0
tick: 34369.0, Fetal Count: 360.0
tick: 34393.0, Fetal Count: 356.0
tick: 34417.0, Fetal Count: 407.0
tick: 34441.0, Fetal Count: 375.0
tick: 34465.0, Fetal Count: 356.0
tick: 34489.0, Fetal Count: 348.0
tick: 34513.0, Fetal Count: 353.0
tick: 34537.0, Fetal Count: 332.0
tick: 34561.0, Fetal Count: 322.0
tick: 34585.0, Fetal Count: 328.0
tick: 34609.0, Fetal Count: 344.0
tick: 34633.0, Fetal Count: 356.0
tick: 34657.0, Fetal Count: 364.0
tick: 34681.0, Fetal Count: 378.0
tick: 34705.0, Fetal Count: 390.0
tick: 34729.0, Fetal Count: 404.0
tick: 34753.0, Fetal Count: 424.0
tick: 34777.0, Fetal Count: 417.0
tick: 34801.0, Fetal Count: 396.0
tick: 34825.0, Fetal Count: 366.0
tick: 34849.0, Fetal Count: 314.0
tick: 34873.0, Fetal Count: 304.0
tick: 34897.0, Fetal Count: 274.0
tick: 34921.0, Fetal Count: 241.0
tick: 34945.0, Fetal Count: 248.0
tick: 34969.0, Fetal Count: 243.0
tick: 34993.0, Fetal Count: 242.0
tick: 35017.0, Fetal Count: 235.0
tick: 35041.0, Fetal Count: 235.0
tick: 35065.0, Fetal Count: 248.0
tick: 35089.0, Fetal Count: 241.0
tick: 35113.0, Fetal Count: 255.0
tick: 35137.0, Fetal Count: 246.0
tick: 35161.0, Fetal Count: 251.0
tick: 35185.0, Fetal Count: 265.0
tick: 35209.0, Fetal Count: 242.0
tick: 35233.0, Fetal Count: 229.0
tick: 35257.0, Fetal Count: 233.0
tick: 35281.0, Fetal Count: 234.0
tick: 35305.0, Fetal Count: 253.0
tick: 35329.0, Fetal Count: 272.0
tick: 35353.0, Fetal Count: 280.0
tick: 35377.0, Fetal Count: 275.0
tick: 35401.0, Fetal Count: 259.0
tick: 35425.0, Fetal Count: 280.0
tick: 35449.0, Fetal Count: 270.0
tick: 35473.0, Fetal Count: 267.0
tick: 35497.0, Fetal Count: 270.0
tick: 35521.0, Fetal Count: 282.0
tick: 35545.0, Fetal Count: 282.0
tick: 35569.0, Fetal Count: 286.0
tick: 35593.0, Fetal Count: 277.0
tick: 35617.0, Fetal Count: 270.0
tick: 35641.0, Fetal Count: 289.0
tick: 35665.0, Fetal Count: 283.0
tick: 35689.0, Fetal Count: 265.0
tick: 35713.0, Fetal Count: 266.0
tick: 35737.0, Fetal Count: 263.0
tick: 35761.0, Fetal Count: 289.0
tick: 35785.0, Fetal Count: 287.0
tick: 35809.0, Fetal Count: 273.0
tick: 35833.0, Fetal Count: 270.0
tick: 35857.0, Fetal Count: 260.0
tick: 35881.0, Fetal Count: 264.0
tick: 35905.0, Fetal Count: 258.0
tick: 35929.0, Fetal Count: 273.0
tick: 35953.0, Fetal Count: 274.0
tick: 35977.0, Fetal Count: 259.0
tick: 36001.0, Fetal Count: 258.0
tick: 36025.0, Fetal Count: 161.0
tick: 36049.0, Fetal Count: 145.0
tick: 36073.0, Fetal Count: 144.0
tick: 36097.0, Fetal Count: 163.0
tick: 36121.0, Fetal Count: 182.0
tick: 36145.0, Fetal Count: 169.0
tick: 36169.0, Fetal Count: 178.0
tick: 36193.0, Fetal Count: 173.0
tick: 36217.0, Fetal Count: 177.0
tick: 36241.0, Fetal Count: 163.0
tick: 36265.0, Fetal Count: 210.0
tick: 36289.0, Fetal Count: 201.0
tick: 36313.0, Fetal Count: 186.0
tick: 36337.0, Fetal Count: 171.0
tick: 36361.0, Fetal Count: 179.0
tick: 36385.0, Fetal Count: 159.0
tick: 36409.0, Fetal Count: 141.0
tick: 36433.0, Fetal Count: 180.0
tick: 36457.0, Fetal Count: 193.0
tick: 36481.0, Fetal Count: 186.0
tick: 36505.0, Fetal Count: 199.0
tick: 36529.0, Fetal Count: 215.0
tick: 36553.0, Fetal Count: 194.0
tick: 36577.0, Fetal Count: 170.0
tick: 36601.0, Fetal Count: 232.0
tick: 36625.0, Fetal Count: 312.0
tick: 36649.0, Fetal Count: 302.0
tick: 36673.0, Fetal Count: 332.0
tick: 36697.0, Fetal Count: 349.0
tick: 36721.0, Fetal Count: 339.0
tick: 36745.0, Fetal Count: 311.0
tick: 36769.0, Fetal Count: 313.0
tick: 36793.0, Fetal Count: 331.0
tick: 36817.0, Fetal Count: 332.0
tick: 36841.0, Fetal Count: 328.0
tick: 36865.0, Fetal Count: 357.0
tick: 36889.0, Fetal Count: 303.0
tick: 36913.0, Fetal Count: 280.0
tick: 36937.0, Fetal Count: 260.0
tick: 36961.0, Fetal Count: 252.0
tick: 36985.0, Fetal Count: 238.0
tick: 37009.0, Fetal Count: 254.0
tick: 37033.0, Fetal Count: 246.0
tick: 37057.0, Fetal Count: 239.0
tick: 37081.0, Fetal Count: 257.0
tick: 37105.0, Fetal Count: 248.0
tick: 37129.0, Fetal Count: 256.0
tick: 37153.0, Fetal Count: 299.0
tick: 37177.0, Fetal Count: 296.0
tick: 37201.0, Fetal Count: 372.0
tick: 37225.0, Fetal Count: 383.0
tick: 37249.0, Fetal Count: 462.0
tick: 37273.0, Fetal Count: 459.0
tick: 37297.0, Fetal Count: 488.0
tick: 37321.0, Fetal Count: 480.0
tick: 37345.0, Fetal Count: 479.0
tick: 37369.0, Fetal Count: 452.0
tick: 37393.0, Fetal Count: 429.0
tick: 37417.0, Fetal Count: 401.0
tick: 37441.0, Fetal Count: 404.0
tick: 37465.0, Fetal Count: 427.0
tick: 37489.0, Fetal Count: 379.0
tick: 37513.0, Fetal Count: 338.0
tick: 37537.0, Fetal Count: 319.0
tick: 37561.0, Fetal Count: 302.0
tick: 37585.0, Fetal Count: 285.0
tick: 37609.0, Fetal Count: 281.0
tick: 37633.0, Fetal Count: 282.0
tick: 37657.0, Fetal Count: 325.0
tick: 37681.0, Fetal Count: 323.0
tick: 37705.0, Fetal Count: 323.0
tick: 37729.0, Fetal Count: 270.0
tick: 37753.0, Fetal Count: 258.0
tick: 37777.0, Fetal Count: 259.0
tick: 37801.0, Fetal Count: 271.0
tick: 37825.0, Fetal Count: 292.0
tick: 37849.0, Fetal Count: 297.0
tick: 37873.0, Fetal Count: 296.0
tick: 37897.0, Fetal Count: 291.0
tick: 37921.0, Fetal Count: 256.0
tick: 37945.0, Fetal Count: 261.0
tick: 37969.0, Fetal Count: 258.0
tick: 37993.0, Fetal Count: 245.0
tick: 38017.0, Fetal Count: 283.0
tick: 38041.0, Fetal Count: 345.0
tick: 38065.0, Fetal Count: 335.0
tick: 38089.0, Fetal Count: 325.0
tick: 38113.0, Fetal Count: 308.0
tick: 38137.0, Fetal Count: 329.0
tick: 38161.0, Fetal Count: 360.0
tick: 38185.0, Fetal Count: 378.0
tick: 38209.0, Fetal Count: 374.0
tick: 38233.0, Fetal Count: 370.0
tick: 38257.0, Fetal Count: 364.0
tick: 38281.0, Fetal Count: 342.0
tick: 38305.0, Fetal Count: 373.0
tick: 38329.0, Fetal Count: 378.0
tick: 38353.0, Fetal Count: 341.0
tick: 38377.0, Fetal Count: 368.0
tick: 38401.0, Fetal Count: 354.0
tick: 38425.0, Fetal Count: 340.0
tick: 38449.0, Fetal Count: 299.0
tick: 38473.0, Fetal Count: 278.0
tick: 38497.0, Fetal Count: 264.0
tick: 38521.0, Fetal Count: 276.0
tick: 38545.0, Fetal Count: 264.0
tick: 38569.0, Fetal Count: 303.0
tick: 38593.0, Fetal Count: 247.0
tick: 38617.0, Fetal Count: 203.0
tick: 38641.0, Fetal Count: 185.0
tick: 38665.0, Fetal Count: 192.0
tick: 38689.0, Fetal Count: 170.0
tick: 38713.0, Fetal Count: 178.0
tick: 38737.0, Fetal Count: 360.0
tick: 38761.0, Fetal Count: 410.0
tick: 38785.0, Fetal Count: 398.0
tick: 38809.0, Fetal Count: 453.0
tick: 38833.0, Fetal Count: 444.0
tick: 38857.0, Fetal Count: 427.0
tick: 38881.0, Fetal Count: 421.0
tick: 38905.0, Fetal Count: 430.0
tick: 38929.0, Fetal Count: 431.0
tick: 38953.0, Fetal Count: 485.0
tick: 38977.0, Fetal Count: 488.0
tick: 39001.0, Fetal Count: 509.0
tick: 39025.0, Fetal Count: 415.0
tick: 39049.0, Fetal Count: 334.0
tick: 39073.0, Fetal Count: 408.0
tick: 39097.0, Fetal Count: 368.0
tick: 39121.0, Fetal Count: 359.0
tick: 39145.0, Fetal Count: 403.0
tick: 39169.0, Fetal Count: 400.0
tick: 39193.0, Fetal Count: 409.0
tick: 39217.0, Fetal Count: 435.0
tick: 39241.0, Fetal Count: 433.0
tick: 39265.0, Fetal Count: 394.0
tick: 39289.0, Fetal Count: 364.0
tick: 39313.0, Fetal Count: 465.0
tick: 39337.0, Fetal Count: 475.0
tick: 39361.0, Fetal Count: 427.0
tick: 39385.0, Fetal Count: 473.0
tick: 39409.0, Fetal Count: 466.0
tick: 39433.0, Fetal Count: 428.0
tick: 39457.0, Fetal Count: 443.0
tick: 39481.0, Fetal Count: 453.0
tick: 39505.0, Fetal Count: 441.0
tick: 39529.0, Fetal Count: 468.0
tick: 39553.0, Fetal Count: 457.0
tick: 39577.0, Fetal Count: 449.0
tick: 39601.0, Fetal Count: 435.0
tick: 39625.0, Fetal Count: 376.0
tick: 39649.0, Fetal Count: 438.0
tick: 39673.0, Fetal Count: 380.0
tick: 39697.0, Fetal Count: 384.0
tick: 39721.0, Fetal Count: 379.0
tick: 39745.0, Fetal Count: 376.0
tick: 39769.0, Fetal Count: 367.0
tick: 39793.0, Fetal Count: 347.0
tick: 39817.0, Fetal Count: 302.0
tick: 39841.0, Fetal Count: 281.0
tick: 39865.0, Fetal Count: 280.0
tick: 39889.0, Fetal Count: 272.0
tick: 39913.0, Fetal Count: 253.0
tick: 39937.0, Fetal Count: 281.0
tick: 39961.0, Fetal Count: 338.0
tick: 39985.0, Fetal Count: 361.0
tick: 40009.0, Fetal Count: 390.0
tick: 40033.0, Fetal Count: 384.0
tick: 40057.0, Fetal Count: 379.0
tick: 40081.0, Fetal Count: 392.0
tick: 40105.0, Fetal Count: 394.0
tick: 40129.0, Fetal Count: 421.0
tick: 40153.0, Fetal Count: 497.0
tick: 40177.0, Fetal Count: 474.0
tick: 40201.0, Fetal Count: 544.0
tick: 40225.0, Fetal Count: 509.0
tick: 40249.0, Fetal Count: 456.0
tick: 40273.0, Fetal Count: 389.0
tick: 40297.0, Fetal Count: 348.0
tick: 40321.0, Fetal Count: 368.0
tick: 40345.0, Fetal Count: 373.0
tick: 40369.0, Fetal Count: 424.0
tick: 40393.0, Fetal Count: 413.0
tick: 40417.0, Fetal Count: 452.0
tick: 40441.0, Fetal Count: 414.0
tick: 40465.0, Fetal Count: 449.0
tick: 40489.0, Fetal Count: 416.0
tick: 40513.0, Fetal Count: 408.0
tick: 40537.0, Fetal Count: 390.0
tick: 40561.0, Fetal Count: 385.0
tick: 40585.0, Fetal Count: 397.0
tick: 40609.0, Fetal Count: 434.0
tick: 40633.0, Fetal Count: 435.0
tick: 40657.0, Fetal Count: 405.0
tick: 40681.0, Fetal Count: 389.0
tick: 40705.0, Fetal Count: 395.0
tick: 40729.0, Fetal Count: 348.0
tick: 40753.0, Fetal Count: 352.0
tick: 40777.0, Fetal Count: 342.0
tick: 40801.0, Fetal Count: 334.0
tick: 40825.0, Fetal Count: 314.0
tick: 40849.0, Fetal Count: 342.0
tick: 40873.0, Fetal Count: 382.0
tick: 40897.0, Fetal Count: 341.0
tick: 40921.0, Fetal Count: 313.0
tick: 40945.0, Fetal Count: 367.0
tick: 40969.0, Fetal Count: 349.0
tick: 40993.0, Fetal Count: 432.0
tick: 41017.0, Fetal Count: 485.0
tick: 41041.0, Fetal Count: 502.0
tick: 41065.0, Fetal Count: 467.0
tick: 41089.0, Fetal Count: 508.0
tick: 41113.0, Fetal Count: 504.0
tick: 41137.0, Fetal Count: 480.0
tick: 41161.0, Fetal Count: 439.0
tick: 41185.0, Fetal Count: 423.0
tick: 41209.0, Fetal Count: 415.0
tick: 41233.0, Fetal Count: 399.0
tick: 41257.0, Fetal Count: 342.0
tick: 41281.0, Fetal Count: 264.0
tick: 41305.0, Fetal Count: 234.0
tick: 41329.0, Fetal Count: 210.0
tick: 41353.0, Fetal Count: 185.0
tick: 41377.0, Fetal Count: 222.0
tick: 41401.0, Fetal Count: 248.0
tick: 41425.0, Fetal Count: 239.0
tick: 41449.0, Fetal Count: 236.0
tick: 41473.0, Fetal Count: 262.0
tick: 41497.0, Fetal Count: 249.0
tick: 41521.0, Fetal Count: 233.0
tick: 41545.0, Fetal Count: 226.0
tick: 41569.0, Fetal Count: 263.0
tick: 41593.0, Fetal Count: 240.0
tick: 41617.0, Fetal Count: 236.0
tick: 41641.0, Fetal Count: 209.0
tick: 41665.0, Fetal Count: 149.0
tick: 41689.0, Fetal Count: 130.0
tick: 41713.0, Fetal Count: 124.0
tick: 41737.0, Fetal Count: 104.0
tick: 41761.0, Fetal Count: 83.0
tick: 41785.0, Fetal Count: 71.0
tick: 41809.0, Fetal Count: 66.0
tick: 41833.0, Fetal Count: 62.0
tick: 41857.0, Fetal Count: 106.0
tick: 41881.0, Fetal Count: 132.0
tick: 41905.0, Fetal Count: 168.0
tick: 41929.0, Fetal Count: 184.0
tick: 41953.0, Fetal Count: 182.0
tick: 41977.0, Fetal Count: 248.0
tick: 42001.0, Fetal Count: 252.0
tick: 42025.0, Fetal Count: 280.0
tick: 42049.0, Fetal Count: 288.0
tick: 42073.0, Fetal Count: 288.0
tick: 42097.0, Fetal Count: 281.0
tick: 42121.0, Fetal Count: 256.0
tick: 42145.0, Fetal Count: 221.0
tick: 42169.0, Fetal Count: 212.0
tick: 42193.0, Fetal Count: 223.0
tick: 42217.0, Fetal Count: 216.0
tick: 42241.0, Fetal Count: 183.0
tick: 42265.0, Fetal Count: 199.0
tick: 42289.0, Fetal Count: 223.0
tick: 42313.0, Fetal Count: 237.0
tick: 42337.0, Fetal Count: 316.0
tick: 42361.0, Fetal Count: 323.0
tick: 42385.0, Fetal Count: 365.0
tick: 42409.0, Fetal Count: 382.0
tick: 42433.0, Fetal Count: 380.0
tick: 42457.0, Fetal Count: 344.0
tick: 42481.0, Fetal Count: 329.0
tick: 42505.0, Fetal Count: 360.0
tick: 42529.0, Fetal Count: 369.0
tick: 42553.0, Fetal Count: 343.0
tick: 42577.0, Fetal Count: 351.0
tick: 42601.0, Fetal Count: 300.0
tick: 42625.0, Fetal Count: 247.0
tick: 42649.0, Fetal Count: 212.0
tick: 42673.0, Fetal Count: 181.0
tick: 42697.0, Fetal Count: 180.0
tick: 42721.0, Fetal Count: 169.0
tick: 42745.0, Fetal Count: 184.0
tick: 42769.0, Fetal Count: 175.0
tick: 42793.0, Fetal Count: 207.0
tick: 42817.0, Fetal Count: 197.0
tick: 42841.0, Fetal Count: 184.0
tick: 42865.0, Fetal Count: 223.0
tick: 42889.0, Fetal Count: 232.0
tick: 42913.0, Fetal Count: 252.0
tick: 42937.0, Fetal Count: 263.0
tick: 42961.0, Fetal Count: 321.0
tick: 42985.0, Fetal Count: 383.0
tick: 43009.0, Fetal Count: 371.0
tick: 43033.0, Fetal Count: 370.0
tick: 43057.0, Fetal Count: 348.0
tick: 43081.0, Fetal Count: 324.0
tick: 43105.0, Fetal Count: 318.0
tick: 43129.0, Fetal Count: 302.0
tick: 43153.0, Fetal Count: 276.0
tick: 43177.0, Fetal Count: 258.0
