tick: 1.0, Infected: 0.0
tick: 2.0, Infected: 0.0
tick: 3.0, Infected: 0.0
tick: 4.0, Infected: 0.0
tick: 5.0, Infected: 0.0
tick: 6.0, Infected: 0.0
tick: 7.0, Infected: 0.0
tick: 8.0, Infected: 0.0
tick: 9.0, Infected: 0.0
