tick: 1.0, Infected: 0.0
tick: 2.0, Infected: 0.0
tick: 3.0, Infected: 0.0
tick: 4.0, Infected: 0.0
tick: 5.0, Infected: 0.0
tick: 6.0, Infected: 0.0
tick: 7.0, Infected: 0.0
tick: 8.0, Infected: 0.0
tick: 9.0, Infected: 0.0
tick: 10.0, Infected: 0.0
tick: 11.0, Infected: 0.0
tick: 12.0, Infected: 0.0
tick: 13.0, Infected: 0.0
tick: 14.0, Infected: 0.0
tick: 15.0, Infected: 0.0
tick: 16.0, Infected: 0.0
tick: 17.0, Infected: 0.0
tick: 18.0, Infected: 0.0
tick: 19.0, Infected: 0.0
tick: 20.0, Infected: 0.0
tick: 21.0, Infected: 0.0
tick: 22.0, Infected: 0.0
tick: 23.0, Infected: 0.0
tick: 24.0, Infected: 0.0
tick: 25.0, Infected: 0.0
tick: 26.0, Infected: 0.0
tick: 27.0, Infected: 0.0
tick: 28.0, Infected: 0.0
tick: 29.0, Infected: 0.0
tick: 30.0, Infected: 0.0
tick: 31.0, Infected: 0.0
tick: 32.0, Infected: 0.0
tick: 33.0, Infected: 0.0
tick: 34.0, Infected: 0.0
tick: 35.0, Infected: 0.0
tick: 36.0, Infected: 0.0
tick: 37.0, Infected: 0.0
tick: 38.0, Infected: 0.0
tick: 39.0, Infected: 0.0
tick: 40.0, Infected: 0.0
tick: 41.0, Infected: 0.0
tick: 42.0, Infected: 0.0
tick: 43.0, Infected: 0.0
tick: 44.0, Infected: 0.0
tick: 45.0, Infected: 0.0
tick: 46.0, Infected: 0.0
tick: 47.0, Infected: 0.0
tick: 48.0, Infected: 0.0
tick: 49.0, Infected: 0.0
tick: 50.0, Infected: 0.0
tick: 51.0, Infected: 0.0
tick: 52.0, Infected: 0.0
tick: 53.0, Infected: 0.0
tick: 54.0, Infected: 0.0
tick: 55.0, Infected: 0.0
tick: 56.0, Infected: 0.0
tick: 57.0, Infected: 0.0
tick: 58.0, Infected: 0.0
tick: 59.0, Infected: 0.0
tick: 60.0, Infected: 0.0
tick: 61.0, Infected: 0.0
tick: 62.0, Infected: 0.0
tick: 63.0, Infected: 0.0
tick: 64.0, Infected: 0.0
tick: 65.0, Infected: 0.0
tick: 66.0, Infected: 0.0
tick: 67.0, Infected: 0.0
tick: 68.0, Infected: 0.0
tick: 69.0, Infected: 0.0
tick: 70.0, Infected: 0.0
tick: 71.0, Infected: 0.0
tick: 72.0, Infected: 0.0
tick: 73.0, Infected: 0.0
tick: 74.0, Infected: 0.0
tick: 75.0, Infected: 0.0
tick: 76.0, Infected: 0.0
tick: 77.0, Infected: 0.0
tick: 78.0, Infected: 0.0
tick: 79.0, Infected: 0.0
tick: 80.0, Infected: 0.0
tick: 81.0, Infected: 0.0
