tick: 1.0, AdultMeanDeathAge: 0.0
tick: 2.0, AdultMeanDeathAge: 0.0
tick: 3.0, AdultMeanDeathAge: 0.0
tick: 4.0, AdultMeanDeathAge: 0.0
tick: 5.0, AdultMeanDeathAge: 0.0
tick: 6.0, AdultMeanDeathAge: 0.0
tick: 7.0, AdultMeanDeathAge: 0.0
tick: 8.0, AdultMeanDeathAge: 0.0
tick: 9.0, AdultMeanDeathAge: 0.0
tick: 10.0, AdultMeanDeathAge: 0.0
tick: 11.0, AdultMeanDeathAge: 0.0
tick: 12.0, AdultMeanDeathAge: 0.0
tick: 13.0, AdultMeanDeathAge: 0.0
tick: 14.0, AdultMeanDeathAge: 0.0
tick: 15.0, AdultMeanDeathAge: 0.0
tick: 16.0, AdultMeanDeathAge: 0.0
tick: 17.0, AdultMeanDeathAge: 0.0
tick: 18.0, AdultMeanDeathAge: 0.0
tick: 19.0, AdultMeanDeathAge: 0.0
tick: 20.0, AdultMeanDeathAge: 0.0
tick: 21.0, AdultMeanDeathAge: 0.0
tick: 22.0, AdultMeanDeathAge: 0.0
tick: 23.0, AdultMeanDeathAge: 0.0
tick: 24.0, AdultMeanDeathAge: 0.0
tick: 25.0, AdultMeanDeathAge: 0.0
tick: 26.0, AdultMeanDeathAge: 0.0
tick: 27.0, AdultMeanDeathAge: 0.0
tick: 28.0, AdultMeanDeathAge: 0.0
tick: 29.0, AdultMeanDeathAge: 0.0
tick: 30.0, AdultMeanDeathAge: 0.0
tick: 31.0, AdultMeanDeathAge: 0.0
tick: 32.0, AdultMeanDeathAge: 0.0
tick: 33.0, AdultMeanDeathAge: 0.0
tick: 34.0, AdultMeanDeathAge: 0.0
tick: 35.0, AdultMeanDeathAge: 0.0
tick: 36.0, AdultMeanDeathAge: 0.0
tick: 37.0, AdultMeanDeathAge: 0.0
tick: 38.0, AdultMeanDeathAge: 0.0
tick: 39.0, AdultMeanDeathAge: 0.0
tick: 40.0, AdultMeanDeathAge: 0.0
tick: 41.0, AdultMeanDeathAge: 0.0
tick: 42.0, AdultMeanDeathAge: 0.0
tick: 43.0, AdultMeanDeathAge: 0.0
tick: 44.0, AdultMeanDeathAge: 0.0
tick: 45.0, AdultMeanDeathAge: 0.0
tick: 46.0, AdultMeanDeathAge: 0.0
tick: 47.0, AdultMeanDeathAge: 0.0
tick: 48.0, AdultMeanDeathAge: 0.0
tick: 49.0, AdultMeanDeathAge: 0.0
tick: 50.0, AdultMeanDeathAge: 0.0
tick: 51.0, AdultMeanDeathAge: 0.0
tick: 52.0, AdultMeanDeathAge: 0.0
tick: 53.0, AdultMeanDeathAge: 0.0
tick: 54.0, AdultMeanDeathAge: 0.0
tick: 55.0, AdultMeanDeathAge: 0.0
tick: 56.0, AdultMeanDeathAge: 0.0
tick: 57.0, AdultMeanDeathAge: 0.0
tick: 58.0, AdultMeanDeathAge: 0.0
tick: 59.0, AdultMeanDeathAge: 0.0
tick: 60.0, AdultMeanDeathAge: 0.0
tick: 61.0, AdultMeanDeathAge: 0.0
tick: 62.0, AdultMeanDeathAge: 0.0
tick: 63.0, AdultMeanDeathAge: 0.0
tick: 64.0, AdultMeanDeathAge: 0.0
tick: 65.0, AdultMeanDeathAge: 0.0
tick: 66.0, AdultMeanDeathAge: 0.0
tick: 67.0, AdultMeanDeathAge: 0.0
tick: 68.0, AdultMeanDeathAge: 0.0
tick: 69.0, AdultMeanDeathAge: 0.0
tick: 70.0, AdultMeanDeathAge: 0.0
tick: 71.0, AdultMeanDeathAge: 0.0
tick: 72.0, AdultMeanDeathAge: 0.0
tick: 73.0, AdultMeanDeathAge: 0.0
tick: 74.0, AdultMeanDeathAge: 0.0
tick: 75.0, AdultMeanDeathAge: 0.0
tick: 76.0, AdultMeanDeathAge: 0.0
tick: 77.0, AdultMeanDeathAge: 0.0
tick: 78.0, AdultMeanDeathAge: 0.0
tick: 79.0, AdultMeanDeathAge: 0.0
tick: 80.0, AdultMeanDeathAge: 0.0
tick: 81.0, AdultMeanDeathAge: 0.0
tick: 82.0, AdultMeanDeathAge: 0.0
tick: 83.0, AdultMeanDeathAge: 0.0
tick: 84.0, AdultMeanDeathAge: 0.0
tick: 85.0, AdultMeanDeathAge: 0.0
tick: 86.0, AdultMeanDeathAge: 0.0
tick: 87.0, AdultMeanDeathAge: 0.0
tick: 88.0, AdultMeanDeathAge: 0.0
tick: 89.0, AdultMeanDeathAge: 0.0
tick: 90.0, AdultMeanDeathAge: 0.0
tick: 91.0, AdultMeanDeathAge: 0.0
tick: 92.0, AdultMeanDeathAge: 0.0
tick: 93.0, AdultMeanDeathAge: 0.0
tick: 94.0, AdultMeanDeathAge: 0.0
tick: 95.0, AdultMeanDeathAge: 0.0
tick: 96.0, AdultMeanDeathAge: 0.0
tick: 97.0, AdultMeanDeathAge: 0.0
tick: 98.0, AdultMeanDeathAge: 0.0
tick: 99.0, AdultMeanDeathAge: 0.0
tick: 100.0, AdultMeanDeathAge: 0.0
tick: 101.0, AdultMeanDeathAge: 0.0
tick: 102.0, AdultMeanDeathAge: 0.0
tick: 103.0, AdultMeanDeathAge: 0.0
tick: 104.0, AdultMeanDeathAge: 0.0
tick: 105.0, AdultMeanDeathAge: 0.0
tick: 106.0, AdultMeanDeathAge: 0.0
tick: 107.0, AdultMeanDeathAge: 0.0
tick: 108.0, AdultMeanDeathAge: 0.0
tick: 109.0, AdultMeanDeathAge: 0.0
tick: 110.0, AdultMeanDeathAge: 0.0
tick: 111.0, AdultMeanDeathAge: 0.0
tick: 112.0, AdultMeanDeathAge: 0.0
tick: 113.0, AdultMeanDeathAge: 0.0
tick: 114.0, AdultMeanDeathAge: 0.0
tick: 115.0, AdultMeanDeathAge: 0.0
tick: 116.0, AdultMeanDeathAge: 0.0
tick: 117.0, AdultMeanDeathAge: 0.0
tick: 118.0, AdultMeanDeathAge: 0.0
tick: 119.0, AdultMeanDeathAge: 0.0
tick: 120.0, AdultMeanDeathAge: 0.0
tick: 121.0, AdultMeanDeathAge: 0.0
tick: 122.0, AdultMeanDeathAge: 0.0
tick: 123.0, AdultMeanDeathAge: 0.0
tick: 124.0, AdultMeanDeathAge: 0.0
tick: 125.0, AdultMeanDeathAge: 0.0
tick: 126.0, AdultMeanDeathAge: 0.0
tick: 127.0, AdultMeanDeathAge: 0.0
tick: 128.0, AdultMeanDeathAge: 0.0
tick: 129.0, AdultMeanDeathAge: 0.0
tick: 130.0, AdultMeanDeathAge: 0.0
tick: 131.0, AdultMeanDeathAge: 0.0
tick: 132.0, AdultMeanDeathAge: 0.0
tick: 133.0, AdultMeanDeathAge: 0.0
tick: 134.0, AdultMeanDeathAge: 0.0
tick: 135.0, AdultMeanDeathAge: 0.0
tick: 136.0, AdultMeanDeathAge: 0.0
tick: 137.0, AdultMeanDeathAge: 0.0
tick: 138.0, AdultMeanDeathAge: 0.0
tick: 139.0, AdultMeanDeathAge: 0.0
tick: 140.0, AdultMeanDeathAge: 0.0
tick: 141.0, AdultMeanDeathAge: 0.0
tick: 142.0, AdultMeanDeathAge: 0.0
tick: 143.0, AdultMeanDeathAge: 0.0
tick: 144.0, AdultMeanDeathAge: 0.0
tick: 145.0, AdultMeanDeathAge: 0.0
tick: 146.0, AdultMeanDeathAge: 0.0
tick: 147.0, AdultMeanDeathAge: 0.0
tick: 148.0, AdultMeanDeathAge: 0.0
tick: 149.0, AdultMeanDeathAge: 0.0
tick: 150.0, AdultMeanDeathAge: 0.0
tick: 151.0, AdultMeanDeathAge: 0.0
tick: 152.0, AdultMeanDeathAge: 0.0
tick: 153.0, AdultMeanDeathAge: 0.0
tick: 154.0, AdultMeanDeathAge: 0.0
tick: 155.0, AdultMeanDeathAge: 0.0
tick: 156.0, AdultMeanDeathAge: 0.0
tick: 157.0, AdultMeanDeathAge: 0.0
tick: 158.0, AdultMeanDeathAge: 0.0
tick: 159.0, AdultMeanDeathAge: 0.0
tick: 160.0, AdultMeanDeathAge: 0.0
tick: 161.0, AdultMeanDeathAge: 0.0
tick: 162.0, AdultMeanDeathAge: 0.0
tick: 163.0, AdultMeanDeathAge: 0.0
tick: 164.0, AdultMeanDeathAge: 0.0
tick: 165.0, AdultMeanDeathAge: 0.0
tick: 166.0, AdultMeanDeathAge: 0.0
tick: 167.0, AdultMeanDeathAge: 0.0
tick: 168.0, AdultMeanDeathAge: 0.0
tick: 169.0, AdultMeanDeathAge: 0.0
tick: 170.0, AdultMeanDeathAge: 0.0
tick: 171.0, AdultMeanDeathAge: 0.0
tick: 172.0, AdultMeanDeathAge: 0.0
tick: 173.0, AdultMeanDeathAge: 0.0
tick: 174.0, AdultMeanDeathAge: 0.0
tick: 175.0, AdultMeanDeathAge: 0.0
tick: 176.0, AdultMeanDeathAge: 0.0
tick: 177.0, AdultMeanDeathAge: 0.0
tick: 178.0, AdultMeanDeathAge: 0.0
tick: 179.0, AdultMeanDeathAge: 0.0
tick: 180.0, AdultMeanDeathAge: 0.0
tick: 181.0, AdultMeanDeathAge: 0.0
tick: 182.0, AdultMeanDeathAge: 0.0
tick: 183.0, AdultMeanDeathAge: 0.0
tick: 184.0, AdultMeanDeathAge: 0.0
tick: 185.0, AdultMeanDeathAge: 0.0
tick: 186.0, AdultMeanDeathAge: 0.0
tick: 187.0, AdultMeanDeathAge: 0.0
tick: 188.0, AdultMeanDeathAge: 0.0
tick: 189.0, AdultMeanDeathAge: 0.0
tick: 190.0, AdultMeanDeathAge: 0.0
tick: 191.0, AdultMeanDeathAge: 0.0
tick: 192.0, AdultMeanDeathAge: 0.0
tick: 193.0, AdultMeanDeathAge: 0.0
tick: 194.0, AdultMeanDeathAge: 0.0
tick: 195.0, AdultMeanDeathAge: 0.0
tick: 196.0, AdultMeanDeathAge: 0.0
tick: 197.0, AdultMeanDeathAge: 0.0
tick: 198.0, AdultMeanDeathAge: 0.0
tick: 199.0, AdultMeanDeathAge: 0.0
tick: 200.0, AdultMeanDeathAge: 0.0
tick: 201.0, AdultMeanDeathAge: 0.0
tick: 202.0, AdultMeanDeathAge: 0.0
tick: 203.0, AdultMeanDeathAge: 0.0
tick: 204.0, AdultMeanDeathAge: 0.0
tick: 205.0, AdultMeanDeathAge: 0.0
tick: 206.0, AdultMeanDeathAge: 0.0
tick: 207.0, AdultMeanDeathAge: 0.0
tick: 208.0, AdultMeanDeathAge: 0.0
tick: 209.0, AdultMeanDeathAge: 0.0
tick: 210.0, AdultMeanDeathAge: 0.0
tick: 211.0, AdultMeanDeathAge: 0.0
tick: 212.0, AdultMeanDeathAge: 0.0
tick: 213.0, AdultMeanDeathAge: 0.0
tick: 214.0, AdultMeanDeathAge: 0.0
tick: 215.0, AdultMeanDeathAge: 0.0
tick: 216.0, AdultMeanDeathAge: 0.0
tick: 217.0, AdultMeanDeathAge: 0.0
tick: 218.0, AdultMeanDeathAge: 0.0
tick: 219.0, AdultMeanDeathAge: 0.0
tick: 220.0, AdultMeanDeathAge: 0.0
tick: 221.0, AdultMeanDeathAge: 0.0
tick: 222.0, AdultMeanDeathAge: 0.0
tick: 223.0, AdultMeanDeathAge: 0.0
tick: 224.0, AdultMeanDeathAge: 0.0
tick: 225.0, AdultMeanDeathAge: 0.0
tick: 226.0, AdultMeanDeathAge: 0.0
tick: 227.0, AdultMeanDeathAge: 0.0
tick: 228.0, AdultMeanDeathAge: 0.0
tick: 229.0, AdultMeanDeathAge: 0.0
tick: 230.0, AdultMeanDeathAge: 0.0
tick: 231.0, AdultMeanDeathAge: 0.0
tick: 232.0, AdultMeanDeathAge: 0.0
tick: 233.0, AdultMeanDeathAge: 0.0
tick: 234.0, AdultMeanDeathAge: 0.0
tick: 235.0, AdultMeanDeathAge: 0.0
tick: 236.0, AdultMeanDeathAge: 0.0
tick: 237.0, AdultMeanDeathAge: 0.0
tick: 238.0, AdultMeanDeathAge: 0.0
tick: 239.0, AdultMeanDeathAge: 0.0
tick: 240.0, AdultMeanDeathAge: 0.0
tick: 241.0, AdultMeanDeathAge: 0.0
tick: 242.0, AdultMeanDeathAge: 0.0
tick: 243.0, AdultMeanDeathAge: 0.0
tick: 244.0, AdultMeanDeathAge: 0.0
tick: 245.0, AdultMeanDeathAge: 0.0
tick: 246.0, AdultMeanDeathAge: 0.0
tick: 247.0, AdultMeanDeathAge: 0.0
tick: 248.0, AdultMeanDeathAge: 0.0
tick: 249.0, AdultMeanDeathAge: 0.0
tick: 250.0, AdultMeanDeathAge: 0.0
tick: 251.0, AdultMeanDeathAge: 0.0
tick: 252.0, AdultMeanDeathAge: 0.0
tick: 253.0, AdultMeanDeathAge: 0.0
tick: 254.0, AdultMeanDeathAge: 0.0
tick: 255.0, AdultMeanDeathAge: 0.0
tick: 256.0, AdultMeanDeathAge: 0.0
tick: 257.0, AdultMeanDeathAge: 0.0
tick: 258.0, AdultMeanDeathAge: 0.0
tick: 259.0, AdultMeanDeathAge: 0.0
tick: 260.0, AdultMeanDeathAge: 0.0
tick: 261.0, AdultMeanDeathAge: 0.0
tick: 262.0, AdultMeanDeathAge: 0.0
tick: 263.0, AdultMeanDeathAge: 0.0
tick: 264.0, AdultMeanDeathAge: 0.0
tick: 265.0, AdultMeanDeathAge: 0.0
tick: 266.0, AdultMeanDeathAge: 0.0
tick: 267.0, AdultMeanDeathAge: 0.0
tick: 268.0, AdultMeanDeathAge: 0.0
tick: 269.0, AdultMeanDeathAge: 0.0
tick: 270.0, AdultMeanDeathAge: 0.0
tick: 271.0, AdultMeanDeathAge: 0.0
tick: 272.0, AdultMeanDeathAge: 0.0
tick: 273.0, AdultMeanDeathAge: 0.0
tick: 274.0, AdultMeanDeathAge: 0.0
tick: 275.0, AdultMeanDeathAge: 0.0
tick: 276.0, AdultMeanDeathAge: 0.0
tick: 277.0, AdultMeanDeathAge: 0.0
tick: 278.0, AdultMeanDeathAge: 0.0
tick: 279.0, AdultMeanDeathAge: 0.0
tick: 280.0, AdultMeanDeathAge: 0.0
tick: 281.0, AdultMeanDeathAge: 0.0
tick: 282.0, AdultMeanDeathAge: 0.0
tick: 283.0, AdultMeanDeathAge: 0.0
tick: 284.0, AdultMeanDeathAge: 0.0
tick: 285.0, AdultMeanDeathAge: 0.0
tick: 286.0, AdultMeanDeathAge: 0.0
tick: 287.0, AdultMeanDeathAge: 0.0
tick: 288.0, AdultMeanDeathAge: 0.0
tick: 289.0, AdultMeanDeathAge: 0.0
tick: 290.0, AdultMeanDeathAge: 0.0
tick: 291.0, AdultMeanDeathAge: 0.0
tick: 292.0, AdultMeanDeathAge: 0.0
tick: 293.0, AdultMeanDeathAge: 0.0
tick: 294.0, AdultMeanDeathAge: 0.0
tick: 295.0, AdultMeanDeathAge: 0.0
tick: 296.0, AdultMeanDeathAge: 0.0
tick: 297.0, AdultMeanDeathAge: 0.0
tick: 298.0, AdultMeanDeathAge: 0.0
tick: 299.0, AdultMeanDeathAge: 0.0
tick: 300.0, AdultMeanDeathAge: 0.0
tick: 301.0, AdultMeanDeathAge: 0.0
tick: 302.0, AdultMeanDeathAge: 0.0
tick: 303.0, AdultMeanDeathAge: 0.0
tick: 304.0, AdultMeanDeathAge: 0.0
tick: 305.0, AdultMeanDeathAge: 0.0
tick: 306.0, AdultMeanDeathAge: 0.0
tick: 307.0, AdultMeanDeathAge: 0.0
tick: 308.0, AdultMeanDeathAge: 0.0
tick: 309.0, AdultMeanDeathAge: 0.0
tick: 310.0, AdultMeanDeathAge: 0.0
tick: 311.0, AdultMeanDeathAge: 0.0
tick: 312.0, AdultMeanDeathAge: 0.0
tick: 313.0, AdultMeanDeathAge: 0.0
tick: 314.0, AdultMeanDeathAge: 0.0
tick: 315.0, AdultMeanDeathAge: 0.0
tick: 316.0, AdultMeanDeathAge: 0.0
tick: 317.0, AdultMeanDeathAge: 0.0
tick: 318.0, AdultMeanDeathAge: 0.0
tick: 319.0, AdultMeanDeathAge: 0.0
tick: 320.0, AdultMeanDeathAge: 0.0
tick: 321.0, AdultMeanDeathAge: 0.0
tick: 322.0, AdultMeanDeathAge: 0.0
tick: 323.0, AdultMeanDeathAge: 0.0
tick: 324.0, AdultMeanDeathAge: 0.0
tick: 325.0, AdultMeanDeathAge: 0.0
tick: 326.0, AdultMeanDeathAge: 0.0
tick: 327.0, AdultMeanDeathAge: 0.0
tick: 328.0, AdultMeanDeathAge: 0.0
tick: 329.0, AdultMeanDeathAge: 0.0
tick: 330.0, AdultMeanDeathAge: 0.0
tick: 331.0, AdultMeanDeathAge: 0.0
tick: 332.0, AdultMeanDeathAge: 0.0
tick: 333.0, AdultMeanDeathAge: 0.0
tick: 334.0, AdultMeanDeathAge: 0.0
tick: 335.0, AdultMeanDeathAge: 0.0
tick: 336.0, AdultMeanDeathAge: 0.0
tick: 337.0, AdultMeanDeathAge: 0.0
tick: 338.0, AdultMeanDeathAge: 0.0
tick: 339.0, AdultMeanDeathAge: 0.0
tick: 340.0, AdultMeanDeathAge: 0.0
tick: 341.0, AdultMeanDeathAge: 0.0
tick: 342.0, AdultMeanDeathAge: 0.0
tick: 343.0, AdultMeanDeathAge: 0.0
tick: 344.0, AdultMeanDeathAge: 0.0
tick: 345.0, AdultMeanDeathAge: 0.0
tick: 346.0, AdultMeanDeathAge: 0.0
tick: 347.0, AdultMeanDeathAge: 0.0
tick: 348.0, AdultMeanDeathAge: 0.0
tick: 349.0, AdultMeanDeathAge: 0.0
tick: 350.0, AdultMeanDeathAge: 0.0
tick: 351.0, AdultMeanDeathAge: 0.0
tick: 352.0, AdultMeanDeathAge: 0.0
tick: 353.0, AdultMeanDeathAge: 0.0
tick: 354.0, AdultMeanDeathAge: 0.0
tick: 355.0, AdultMeanDeathAge: 0.0
tick: 356.0, AdultMeanDeathAge: 0.0
tick: 357.0, AdultMeanDeathAge: 0.0
tick: 358.0, AdultMeanDeathAge: 0.0
tick: 359.0, AdultMeanDeathAge: 0.0
tick: 360.0, AdultMeanDeathAge: 0.0
tick: 361.0, AdultMeanDeathAge: 0.0
tick: 362.0, AdultMeanDeathAge: 0.0
tick: 363.0, AdultMeanDeathAge: 0.0
tick: 364.0, AdultMeanDeathAge: 0.0
tick: 365.0, AdultMeanDeathAge: 0.0
tick: 366.0, AdultMeanDeathAge: 0.0
tick: 367.0, AdultMeanDeathAge: 0.0
tick: 368.0, AdultMeanDeathAge: 0.0
tick: 369.0, AdultMeanDeathAge: 0.0
tick: 370.0, AdultMeanDeathAge: 0.0
tick: 371.0, AdultMeanDeathAge: 0.0
tick: 372.0, AdultMeanDeathAge: 0.0
tick: 373.0, AdultMeanDeathAge: 0.0
tick: 374.0, AdultMeanDeathAge: 0.0
tick: 375.0, AdultMeanDeathAge: 0.0
tick: 376.0, AdultMeanDeathAge: 0.0
tick: 377.0, AdultMeanDeathAge: 0.0
tick: 378.0, AdultMeanDeathAge: 0.0
tick: 379.0, AdultMeanDeathAge: 0.0
tick: 380.0, AdultMeanDeathAge: 0.0
tick: 381.0, AdultMeanDeathAge: 0.0
tick: 382.0, AdultMeanDeathAge: 0.0
tick: 383.0, AdultMeanDeathAge: 0.0
tick: 384.0, AdultMeanDeathAge: 0.0
tick: 385.0, AdultMeanDeathAge: 0.0
tick: 386.0, AdultMeanDeathAge: 0.0
tick: 387.0, AdultMeanDeathAge: 0.0
tick: 388.0, AdultMeanDeathAge: 0.0
tick: 389.0, AdultMeanDeathAge: 0.0
tick: 390.0, AdultMeanDeathAge: 0.0
tick: 391.0, AdultMeanDeathAge: 0.0
tick: 392.0, AdultMeanDeathAge: 0.0
tick: 393.0, AdultMeanDeathAge: 0.0
tick: 394.0, AdultMeanDeathAge: 0.0
tick: 395.0, AdultMeanDeathAge: 0.0
tick: 396.0, AdultMeanDeathAge: 0.0
tick: 397.0, AdultMeanDeathAge: 0.0
tick: 398.0, AdultMeanDeathAge: 0.0
tick: 399.0, AdultMeanDeathAge: 0.0
tick: 400.0, AdultMeanDeathAge: 0.0
tick: 401.0, AdultMeanDeathAge: 0.0
tick: 402.0, AdultMeanDeathAge: 0.0
tick: 403.0, AdultMeanDeathAge: 0.0
tick: 404.0, AdultMeanDeathAge: 0.0
tick: 405.0, AdultMeanDeathAge: 0.0
tick: 406.0, AdultMeanDeathAge: 0.0
tick: 407.0, AdultMeanDeathAge: 0.0
tick: 408.0, AdultMeanDeathAge: 0.0
tick: 409.0, AdultMeanDeathAge: 0.0
tick: 410.0, AdultMeanDeathAge: 0.0
tick: 411.0, AdultMeanDeathAge: 0.0
tick: 412.0, AdultMeanDeathAge: 0.0
tick: 413.0, AdultMeanDeathAge: 0.0
tick: 414.0, AdultMeanDeathAge: 0.0
tick: 415.0, AdultMeanDeathAge: 0.0
tick: 416.0, AdultMeanDeathAge: 0.0
tick: 417.0, AdultMeanDeathAge: 0.0
tick: 418.0, AdultMeanDeathAge: 0.0
tick: 419.0, AdultMeanDeathAge: 0.0
tick: 420.0, AdultMeanDeathAge: 0.0
tick: 421.0, AdultMeanDeathAge: 0.0
tick: 422.0, AdultMeanDeathAge: 0.0
tick: 423.0, AdultMeanDeathAge: 0.0
tick: 424.0, AdultMeanDeathAge: 0.0
tick: 425.0, AdultMeanDeathAge: 0.0
tick: 426.0, AdultMeanDeathAge: 0.0
tick: 427.0, AdultMeanDeathAge: 0.0
tick: 428.0, AdultMeanDeathAge: 0.0
tick: 429.0, AdultMeanDeathAge: 0.0
tick: 430.0, AdultMeanDeathAge: 0.0
tick: 431.0, AdultMeanDeathAge: 0.0
tick: 432.0, AdultMeanDeathAge: 0.0
tick: 433.0, AdultMeanDeathAge: 0.0
tick: 434.0, AdultMeanDeathAge: 0.0
tick: 435.0, AdultMeanDeathAge: 0.0
tick: 436.0, AdultMeanDeathAge: 0.0
tick: 437.0, AdultMeanDeathAge: 0.0
tick: 438.0, AdultMeanDeathAge: 0.0
tick: 439.0, AdultMeanDeathAge: 0.0
tick: 440.0, AdultMeanDeathAge: 0.0
tick: 441.0, AdultMeanDeathAge: 0.0
tick: 442.0, AdultMeanDeathAge: 0.0
tick: 443.0, AdultMeanDeathAge: 0.0
tick: 444.0, AdultMeanDeathAge: 0.0
tick: 445.0, AdultMeanDeathAge: 0.0
tick: 446.0, AdultMeanDeathAge: 0.0
tick: 447.0, AdultMeanDeathAge: 0.0
tick: 448.0, AdultMeanDeathAge: 0.0
tick: 449.0, AdultMeanDeathAge: 0.0
tick: 450.0, AdultMeanDeathAge: 0.0
tick: 451.0, AdultMeanDeathAge: 0.0
tick: 452.0, AdultMeanDeathAge: 0.0
tick: 453.0, AdultMeanDeathAge: 0.0
tick: 454.0, AdultMeanDeathAge: 0.0
tick: 455.0, AdultMeanDeathAge: 0.0
tick: 456.0, AdultMeanDeathAge: 0.0
tick: 457.0, AdultMeanDeathAge: 0.0
tick: 458.0, AdultMeanDeathAge: 0.0
tick: 459.0, AdultMeanDeathAge: 0.0
tick: 460.0, AdultMeanDeathAge: 0.0
tick: 461.0, AdultMeanDeathAge: 0.0
tick: 462.0, AdultMeanDeathAge: 0.0
tick: 463.0, AdultMeanDeathAge: 0.0
tick: 464.0, AdultMeanDeathAge: 0.0
tick: 465.0, AdultMeanDeathAge: 0.0
tick: 466.0, AdultMeanDeathAge: 0.0
tick: 467.0, AdultMeanDeathAge: 0.0
tick: 468.0, AdultMeanDeathAge: 0.0
tick: 469.0, AdultMeanDeathAge: 0.0
tick: 470.0, AdultMeanDeathAge: 0.0
tick: 471.0, AdultMeanDeathAge: 0.0
tick: 472.0, AdultMeanDeathAge: 0.0
tick: 473.0, AdultMeanDeathAge: 0.0
tick: 474.0, AdultMeanDeathAge: 0.0
tick: 475.0, AdultMeanDeathAge: 0.0
tick: 476.0, AdultMeanDeathAge: 0.0
tick: 477.0, AdultMeanDeathAge: 0.0
tick: 478.0, AdultMeanDeathAge: 0.0
tick: 479.0, AdultMeanDeathAge: 0.0
tick: 480.0, AdultMeanDeathAge: 0.0
tick: 481.0, AdultMeanDeathAge: 0.0
tick: 482.0, AdultMeanDeathAge: 0.0
tick: 483.0, AdultMeanDeathAge: 0.0
tick: 484.0, AdultMeanDeathAge: 0.0
tick: 485.0, AdultMeanDeathAge: 0.0
tick: 486.0, AdultMeanDeathAge: 0.0
tick: 487.0, AdultMeanDeathAge: 0.0
tick: 488.0, AdultMeanDeathAge: 0.0
tick: 489.0, AdultMeanDeathAge: 0.0
tick: 490.0, AdultMeanDeathAge: 0.0
tick: 491.0, AdultMeanDeathAge: 0.0
tick: 492.0, AdultMeanDeathAge: 0.0
tick: 493.0, AdultMeanDeathAge: 0.0
tick: 494.0, AdultMeanDeathAge: 0.0
tick: 495.0, AdultMeanDeathAge: 0.0
tick: 496.0, AdultMeanDeathAge: 0.0
tick: 497.0, AdultMeanDeathAge: 0.0
tick: 498.0, AdultMeanDeathAge: 0.0
tick: 499.0, AdultMeanDeathAge: 0.0
tick: 500.0, AdultMeanDeathAge: 0.0
tick: 501.0, AdultMeanDeathAge: 0.0
tick: 502.0, AdultMeanDeathAge: 0.0
tick: 503.0, AdultMeanDeathAge: 0.0
tick: 504.0, AdultMeanDeathAge: 0.0
tick: 505.0, AdultMeanDeathAge: 0.0
tick: 506.0, AdultMeanDeathAge: 0.0
tick: 507.0, AdultMeanDeathAge: 0.0
tick: 508.0, AdultMeanDeathAge: 0.0
tick: 509.0, AdultMeanDeathAge: 0.0
tick: 510.0, AdultMeanDeathAge: 0.0
tick: 511.0, AdultMeanDeathAge: 0.0
tick: 512.0, AdultMeanDeathAge: 0.0
tick: 513.0, AdultMeanDeathAge: 0.0
tick: 514.0, AdultMeanDeathAge: 0.0
tick: 515.0, AdultMeanDeathAge: 0.0
tick: 516.0, AdultMeanDeathAge: 0.0
tick: 517.0, AdultMeanDeathAge: 0.0
tick: 518.0, AdultMeanDeathAge: 0.0
tick: 519.0, AdultMeanDeathAge: 0.0
tick: 520.0, AdultMeanDeathAge: 0.0
tick: 521.0, AdultMeanDeathAge: 0.0
tick: 522.0, AdultMeanDeathAge: 0.0
tick: 523.0, AdultMeanDeathAge: 0.0
tick: 524.0, AdultMeanDeathAge: 0.0
tick: 525.0, AdultMeanDeathAge: 0.0
tick: 526.0, AdultMeanDeathAge: 0.0
tick: 527.0, AdultMeanDeathAge: 0.0
tick: 528.0, AdultMeanDeathAge: 0.0
tick: 529.0, AdultMeanDeathAge: 0.0
tick: 530.0, AdultMeanDeathAge: 0.0
tick: 531.0, AdultMeanDeathAge: 0.0
tick: 532.0, AdultMeanDeathAge: 0.0
tick: 533.0, AdultMeanDeathAge: 0.0
tick: 534.0, AdultMeanDeathAge: 0.0
tick: 535.0, AdultMeanDeathAge: 0.0
tick: 536.0, AdultMeanDeathAge: 0.0
tick: 537.0, AdultMeanDeathAge: 0.0
tick: 538.0, AdultMeanDeathAge: 0.0
tick: 539.0, AdultMeanDeathAge: 0.0
tick: 540.0, AdultMeanDeathAge: 0.0
tick: 541.0, AdultMeanDeathAge: 0.0
tick: 542.0, AdultMeanDeathAge: 0.0
tick: 543.0, AdultMeanDeathAge: 0.0
tick: 544.0, AdultMeanDeathAge: 0.0
tick: 545.0, AdultMeanDeathAge: 0.0
tick: 546.0, AdultMeanDeathAge: 0.0
tick: 547.0, AdultMeanDeathAge: 0.0
tick: 548.0, AdultMeanDeathAge: 0.0
tick: 549.0, AdultMeanDeathAge: 0.0
tick: 550.0, AdultMeanDeathAge: 0.0
tick: 551.0, AdultMeanDeathAge: 0.0
tick: 552.0, AdultMeanDeathAge: 0.0
tick: 553.0, AdultMeanDeathAge: 0.0
tick: 554.0, AdultMeanDeathAge: 0.0
tick: 555.0, AdultMeanDeathAge: 0.0
tick: 556.0, AdultMeanDeathAge: 0.0
tick: 557.0, AdultMeanDeathAge: 0.0
tick: 558.0, AdultMeanDeathAge: 0.0
tick: 559.0, AdultMeanDeathAge: 0.0
tick: 560.0, AdultMeanDeathAge: 0.0
tick: 561.0, AdultMeanDeathAge: 0.0
tick: 562.0, AdultMeanDeathAge: 0.0
tick: 563.0, AdultMeanDeathAge: 0.0
tick: 564.0, AdultMeanDeathAge: 0.0
tick: 565.0, AdultMeanDeathAge: 0.0
tick: 566.0, AdultMeanDeathAge: 0.0
tick: 567.0, AdultMeanDeathAge: 0.0
tick: 568.0, AdultMeanDeathAge: 0.0
tick: 569.0, AdultMeanDeathAge: 0.0
tick: 570.0, AdultMeanDeathAge: 0.0
tick: 571.0, AdultMeanDeathAge: 0.0
tick: 572.0, AdultMeanDeathAge: 0.0
tick: 573.0, AdultMeanDeathAge: 0.0
tick: 574.0, AdultMeanDeathAge: 0.0
tick: 575.0, AdultMeanDeathAge: 0.0
tick: 576.0, AdultMeanDeathAge: 0.0
tick: 577.0, AdultMeanDeathAge: 0.0
tick: 578.0, AdultMeanDeathAge: 0.0
tick: 579.0, AdultMeanDeathAge: 0.0
tick: 580.0, AdultMeanDeathAge: 0.0
tick: 581.0, AdultMeanDeathAge: 0.0
tick: 582.0, AdultMeanDeathAge: 0.0
tick: 583.0, AdultMeanDeathAge: 0.0
tick: 584.0, AdultMeanDeathAge: 0.0
tick: 585.0, AdultMeanDeathAge: 0.0
tick: 586.0, AdultMeanDeathAge: 0.0
tick: 587.0, AdultMeanDeathAge: 0.0
tick: 588.0, AdultMeanDeathAge: 0.0
tick: 589.0, AdultMeanDeathAge: 0.0
tick: 590.0, AdultMeanDeathAge: 0.0
tick: 591.0, AdultMeanDeathAge: 0.0
tick: 592.0, AdultMeanDeathAge: 0.0
tick: 593.0, AdultMeanDeathAge: 0.0
tick: 594.0, AdultMeanDeathAge: 0.0
tick: 595.0, AdultMeanDeathAge: 0.0
tick: 596.0, AdultMeanDeathAge: 0.0
tick: 597.0, AdultMeanDeathAge: 0.0
tick: 598.0, AdultMeanDeathAge: 0.0
tick: 599.0, AdultMeanDeathAge: 0.0
tick: 600.0, AdultMeanDeathAge: 0.0
tick: 601.0, AdultMeanDeathAge: 0.0
tick: 602.0, AdultMeanDeathAge: 0.0
tick: 603.0, AdultMeanDeathAge: 0.0
tick: 604.0, AdultMeanDeathAge: 0.0
tick: 605.0, AdultMeanDeathAge: 0.0
tick: 606.0, AdultMeanDeathAge: 0.0
tick: 607.0, AdultMeanDeathAge: 0.0
tick: 608.0, AdultMeanDeathAge: 0.0
tick: 609.0, AdultMeanDeathAge: 0.0
tick: 610.0, AdultMeanDeathAge: 0.0
tick: 611.0, AdultMeanDeathAge: 0.0
tick: 612.0, AdultMeanDeathAge: 0.0
tick: 613.0, AdultMeanDeathAge: 0.0
tick: 614.0, AdultMeanDeathAge: 0.0
tick: 615.0, AdultMeanDeathAge: 0.0
tick: 616.0, AdultMeanDeathAge: 0.0
tick: 617.0, AdultMeanDeathAge: 0.0
tick: 618.0, AdultMeanDeathAge: 0.0
tick: 619.0, AdultMeanDeathAge: 0.0
tick: 620.0, AdultMeanDeathAge: 0.0
tick: 621.0, AdultMeanDeathAge: 0.0
tick: 622.0, AdultMeanDeathAge: 0.0
tick: 623.0, AdultMeanDeathAge: 0.0
tick: 624.0, AdultMeanDeathAge: 0.0
tick: 625.0, AdultMeanDeathAge: 0.0
tick: 626.0, AdultMeanDeathAge: 0.0
tick: 627.0, AdultMeanDeathAge: 0.0
tick: 628.0, AdultMeanDeathAge: 0.0
tick: 629.0, AdultMeanDeathAge: 0.0
tick: 630.0, AdultMeanDeathAge: 0.0
tick: 631.0, AdultMeanDeathAge: 0.0
tick: 632.0, AdultMeanDeathAge: 0.0
tick: 633.0, AdultMeanDeathAge: 0.0
tick: 634.0, AdultMeanDeathAge: 0.0
tick: 635.0, AdultMeanDeathAge: 0.0
tick: 636.0, AdultMeanDeathAge: 0.0
tick: 637.0, AdultMeanDeathAge: 0.0
tick: 638.0, AdultMeanDeathAge: 0.0
tick: 639.0, AdultMeanDeathAge: 0.0
tick: 640.0, AdultMeanDeathAge: 0.0
tick: 641.0, AdultMeanDeathAge: 0.0
tick: 642.0, AdultMeanDeathAge: 0.0
tick: 643.0, AdultMeanDeathAge: 0.0
tick: 644.0, AdultMeanDeathAge: 0.0
tick: 645.0, AdultMeanDeathAge: 0.0
tick: 646.0, AdultMeanDeathAge: 0.0
tick: 647.0, AdultMeanDeathAge: 0.0
tick: 648.0, AdultMeanDeathAge: 0.0
tick: 649.0, AdultMeanDeathAge: 0.0
tick: 650.0, AdultMeanDeathAge: 0.0
tick: 651.0, AdultMeanDeathAge: 0.0
tick: 652.0, AdultMeanDeathAge: 0.0
tick: 653.0, AdultMeanDeathAge: 0.0
tick: 654.0, AdultMeanDeathAge: 0.0
tick: 655.0, AdultMeanDeathAge: 0.0
tick: 656.0, AdultMeanDeathAge: 0.0
tick: 657.0, AdultMeanDeathAge: 0.0
tick: 658.0, AdultMeanDeathAge: 0.0
tick: 659.0, AdultMeanDeathAge: 0.0
tick: 660.0, AdultMeanDeathAge: 0.0
tick: 661.0, AdultMeanDeathAge: 0.0
tick: 662.0, AdultMeanDeathAge: 0.0
tick: 663.0, AdultMeanDeathAge: 0.0
tick: 664.0, AdultMeanDeathAge: 0.0
tick: 665.0, AdultMeanDeathAge: 0.0
tick: 666.0, AdultMeanDeathAge: 0.0
tick: 667.0, AdultMeanDeathAge: 0.0
tick: 668.0, AdultMeanDeathAge: 0.0
tick: 669.0, AdultMeanDeathAge: 0.0
tick: 670.0, AdultMeanDeathAge: 0.0
tick: 671.0, AdultMeanDeathAge: 0.0
tick: 672.0, AdultMeanDeathAge: 0.0
tick: 673.0, AdultMeanDeathAge: 0.0
tick: 674.0, AdultMeanDeathAge: 0.0
tick: 675.0, AdultMeanDeathAge: 0.0
tick: 676.0, AdultMeanDeathAge: 0.0
tick: 677.0, AdultMeanDeathAge: 0.0
tick: 678.0, AdultMeanDeathAge: 0.0
tick: 679.0, AdultMeanDeathAge: 0.0
tick: 680.0, AdultMeanDeathAge: 0.0
tick: 681.0, AdultMeanDeathAge: 0.0
tick: 682.0, AdultMeanDeathAge: 0.0
tick: 683.0, AdultMeanDeathAge: 0.0
tick: 684.0, AdultMeanDeathAge: 0.0
tick: 685.0, AdultMeanDeathAge: 0.0
tick: 686.0, AdultMeanDeathAge: 0.0
tick: 687.0, AdultMeanDeathAge: 0.0
tick: 688.0, AdultMeanDeathAge: 0.0
tick: 689.0, AdultMeanDeathAge: 0.0
tick: 690.0, AdultMeanDeathAge: 0.0
tick: 691.0, AdultMeanDeathAge: 0.0
tick: 692.0, AdultMeanDeathAge: 0.0
tick: 693.0, AdultMeanDeathAge: 0.0
tick: 694.0, AdultMeanDeathAge: 0.0
tick: 695.0, AdultMeanDeathAge: 0.0
tick: 696.0, AdultMeanDeathAge: 0.0
tick: 697.0, AdultMeanDeathAge: 0.0
tick: 698.0, AdultMeanDeathAge: 0.0
tick: 699.0, AdultMeanDeathAge: 0.0
tick: 700.0, AdultMeanDeathAge: 0.0
tick: 701.0, AdultMeanDeathAge: 0.0
tick: 702.0, AdultMeanDeathAge: 0.0
tick: 703.0, AdultMeanDeathAge: 0.0
tick: 704.0, AdultMeanDeathAge: 0.0
tick: 705.0, AdultMeanDeathAge: 0.0
tick: 706.0, AdultMeanDeathAge: 0.0
tick: 707.0, AdultMeanDeathAge: 0.0
tick: 708.0, AdultMeanDeathAge: 0.0
tick: 709.0, AdultMeanDeathAge: 0.0
tick: 710.0, AdultMeanDeathAge: 0.0
tick: 711.0, AdultMeanDeathAge: 0.0
tick: 712.0, AdultMeanDeathAge: 0.0
tick: 713.0, AdultMeanDeathAge: 0.0
tick: 714.0, AdultMeanDeathAge: 0.0
tick: 715.0, AdultMeanDeathAge: 0.0
tick: 716.0, AdultMeanDeathAge: 0.0
tick: 717.0, AdultMeanDeathAge: 0.0
tick: 718.0, AdultMeanDeathAge: 0.0
tick: 719.0, AdultMeanDeathAge: 0.0
tick: 720.0, AdultMeanDeathAge: 0.0
tick: 721.0, AdultMeanDeathAge: 0.0
tick: 722.0, AdultMeanDeathAge: 0.0
tick: 723.0, AdultMeanDeathAge: 0.0
tick: 724.0, AdultMeanDeathAge: 0.0
tick: 725.0, AdultMeanDeathAge: 0.0
tick: 726.0, AdultMeanDeathAge: 0.0
tick: 727.0, AdultMeanDeathAge: 0.0
tick: 728.0, AdultMeanDeathAge: 0.0
tick: 729.0, AdultMeanDeathAge: 0.0
tick: 730.0, AdultMeanDeathAge: 0.0
tick: 731.0, AdultMeanDeathAge: 0.0
tick: 732.0, AdultMeanDeathAge: 0.0
tick: 733.0, AdultMeanDeathAge: 0.0
tick: 734.0, AdultMeanDeathAge: 0.0
tick: 735.0, AdultMeanDeathAge: 0.0
tick: 736.0, AdultMeanDeathAge: 0.0
tick: 737.0, AdultMeanDeathAge: 0.0
tick: 738.0, AdultMeanDeathAge: 0.0
tick: 739.0, AdultMeanDeathAge: 0.0
tick: 740.0, AdultMeanDeathAge: 0.0
tick: 741.0, AdultMeanDeathAge: 0.0
tick: 742.0, AdultMeanDeathAge: 0.0
tick: 743.0, AdultMeanDeathAge: 0.0
tick: 744.0, AdultMeanDeathAge: 0.0
tick: 745.0, AdultMeanDeathAge: 0.0
tick: 746.0, AdultMeanDeathAge: 0.0
tick: 747.0, AdultMeanDeathAge: 0.0
tick: 748.0, AdultMeanDeathAge: 0.0
tick: 749.0, AdultMeanDeathAge: 0.0
tick: 750.0, AdultMeanDeathAge: 0.0
tick: 751.0, AdultMeanDeathAge: 0.0
tick: 752.0, AdultMeanDeathAge: 0.0
tick: 753.0, AdultMeanDeathAge: 0.0
tick: 754.0, AdultMeanDeathAge: 0.0
tick: 755.0, AdultMeanDeathAge: 0.0
tick: 756.0, AdultMeanDeathAge: 0.0
tick: 757.0, AdultMeanDeathAge: 0.0
tick: 758.0, AdultMeanDeathAge: 0.0
tick: 759.0, AdultMeanDeathAge: 0.0
tick: 760.0, AdultMeanDeathAge: 0.0
tick: 761.0, AdultMeanDeathAge: 0.0
tick: 762.0, AdultMeanDeathAge: 0.0
tick: 763.0, AdultMeanDeathAge: 0.0
tick: 764.0, AdultMeanDeathAge: 0.0
tick: 765.0, AdultMeanDeathAge: 0.0
tick: 766.0, AdultMeanDeathAge: 0.0
tick: 767.0, AdultMeanDeathAge: 0.0
tick: 768.0, AdultMeanDeathAge: 0.0
tick: 769.0, AdultMeanDeathAge: 0.0
tick: 770.0, AdultMeanDeathAge: 0.0
tick: 771.0, AdultMeanDeathAge: 0.0
tick: 772.0, AdultMeanDeathAge: 0.0
tick: 773.0, AdultMeanDeathAge: 0.0
tick: 774.0, AdultMeanDeathAge: 0.0
tick: 775.0, AdultMeanDeathAge: 0.0
tick: 776.0, AdultMeanDeathAge: 0.0
tick: 777.0, AdultMeanDeathAge: 0.0
tick: 778.0, AdultMeanDeathAge: 0.0
tick: 779.0, AdultMeanDeathAge: 0.0
tick: 780.0, AdultMeanDeathAge: 0.0
tick: 781.0, AdultMeanDeathAge: 0.0
tick: 782.0, AdultMeanDeathAge: 0.0
tick: 783.0, AdultMeanDeathAge: 0.0
tick: 784.0, AdultMeanDeathAge: 0.0
tick: 785.0, AdultMeanDeathAge: 0.0
tick: 786.0, AdultMeanDeathAge: 0.0
tick: 787.0, AdultMeanDeathAge: 0.0
tick: 788.0, AdultMeanDeathAge: 0.0
tick: 789.0, AdultMeanDeathAge: 0.0
tick: 790.0, AdultMeanDeathAge: 0.0
tick: 791.0, AdultMeanDeathAge: 0.0
tick: 792.0, AdultMeanDeathAge: 0.0
tick: 793.0, AdultMeanDeathAge: 0.0
tick: 794.0, AdultMeanDeathAge: 0.0
tick: 795.0, AdultMeanDeathAge: 0.0
tick: 796.0, AdultMeanDeathAge: 0.0
tick: 797.0, AdultMeanDeathAge: 0.0
tick: 798.0, AdultMeanDeathAge: 0.0
tick: 799.0, AdultMeanDeathAge: 0.0
tick: 800.0, AdultMeanDeathAge: 0.0
tick: 801.0, AdultMeanDeathAge: 0.0
tick: 802.0, AdultMeanDeathAge: 0.0
tick: 803.0, AdultMeanDeathAge: 0.0
tick: 804.0, AdultMeanDeathAge: 0.0
tick: 805.0, AdultMeanDeathAge: 0.0
tick: 806.0, AdultMeanDeathAge: 0.0
tick: 807.0, AdultMeanDeathAge: 0.0
tick: 808.0, AdultMeanDeathAge: 0.0
tick: 809.0, AdultMeanDeathAge: 0.0
tick: 810.0, AdultMeanDeathAge: 0.0
tick: 811.0, AdultMeanDeathAge: 0.0
tick: 812.0, AdultMeanDeathAge: 0.0
tick: 813.0, AdultMeanDeathAge: 0.0
tick: 814.0, AdultMeanDeathAge: 0.0
tick: 815.0, AdultMeanDeathAge: 0.0
tick: 816.0, AdultMeanDeathAge: 0.0
tick: 817.0, AdultMeanDeathAge: 4.0
tick: 818.0, AdultMeanDeathAge: 0.0
tick: 819.0, AdultMeanDeathAge: 0.0
tick: 820.0, AdultMeanDeathAge: 0.0
tick: 821.0, AdultMeanDeathAge: 0.0
tick: 822.0, AdultMeanDeathAge: 0.0
tick: 823.0, AdultMeanDeathAge: 0.0
tick: 824.0, AdultMeanDeathAge: 0.0
tick: 825.0, AdultMeanDeathAge: 0.0
tick: 826.0, AdultMeanDeathAge: 0.0
tick: 827.0, AdultMeanDeathAge: 0.0
tick: 828.0, AdultMeanDeathAge: 0.0
tick: 829.0, AdultMeanDeathAge: 0.0
tick: 830.0, AdultMeanDeathAge: 0.0
tick: 831.0, AdultMeanDeathAge: 0.0
tick: 832.0, AdultMeanDeathAge: 0.0
tick: 833.0, AdultMeanDeathAge: 0.0
tick: 834.0, AdultMeanDeathAge: 0.0
tick: 835.0, AdultMeanDeathAge: 0.0
tick: 836.0, AdultMeanDeathAge: 0.0
tick: 837.0, AdultMeanDeathAge: 0.0
tick: 838.0, AdultMeanDeathAge: 0.0
tick: 839.0, AdultMeanDeathAge: 0.0
tick: 840.0, AdultMeanDeathAge: 0.0
tick: 841.0, AdultMeanDeathAge: 0.0
tick: 842.0, AdultMeanDeathAge: 0.0
tick: 843.0, AdultMeanDeathAge: 0.0
tick: 844.0, AdultMeanDeathAge: 0.0
tick: 845.0, AdultMeanDeathAge: 0.0
tick: 846.0, AdultMeanDeathAge: 0.0
tick: 847.0, AdultMeanDeathAge: 0.0
tick: 848.0, AdultMeanDeathAge: 0.0
tick: 849.0, AdultMeanDeathAge: 0.0
tick: 850.0, AdultMeanDeathAge: 0.0
tick: 851.0, AdultMeanDeathAge: 0.0
tick: 852.0, AdultMeanDeathAge: 0.0
tick: 853.0, AdultMeanDeathAge: 0.0
tick: 854.0, AdultMeanDeathAge: 0.0
tick: 855.0, AdultMeanDeathAge: 0.0
tick: 856.0, AdultMeanDeathAge: 0.0
tick: 857.0, AdultMeanDeathAge: 0.0
tick: 858.0, AdultMeanDeathAge: 0.0
tick: 859.0, AdultMeanDeathAge: 0.0
tick: 860.0, AdultMeanDeathAge: 0.0
tick: 861.0, AdultMeanDeathAge: 0.0
tick: 862.0, AdultMeanDeathAge: 0.0
tick: 863.0, AdultMeanDeathAge: 0.0
tick: 864.0, AdultMeanDeathAge: 0.0
tick: 865.0, AdultMeanDeathAge: 0.0
tick: 866.0, AdultMeanDeathAge: 0.0
tick: 867.0, AdultMeanDeathAge: 0.0
tick: 868.0, AdultMeanDeathAge: 0.0
tick: 869.0, AdultMeanDeathAge: 0.0
tick: 870.0, AdultMeanDeathAge: 0.0
tick: 871.0, AdultMeanDeathAge: 0.0
tick: 872.0, AdultMeanDeathAge: 0.0
tick: 873.0, AdultMeanDeathAge: 0.0
tick: 874.0, AdultMeanDeathAge: 0.0
tick: 875.0, AdultMeanDeathAge: 0.0
tick: 876.0, AdultMeanDeathAge: 0.0
tick: 877.0, AdultMeanDeathAge: 0.0
tick: 878.0, AdultMeanDeathAge: 0.0
tick: 879.0, AdultMeanDeathAge: 0.0
tick: 880.0, AdultMeanDeathAge: 0.0
tick: 881.0, AdultMeanDeathAge: 0.0
tick: 882.0, AdultMeanDeathAge: 0.0
tick: 883.0, AdultMeanDeathAge: 0.0
tick: 884.0, AdultMeanDeathAge: 0.0
tick: 885.0, AdultMeanDeathAge: 0.0
tick: 886.0, AdultMeanDeathAge: 0.0
tick: 887.0, AdultMeanDeathAge: 0.0
tick: 888.0, AdultMeanDeathAge: 0.0
tick: 889.0, AdultMeanDeathAge: 0.0
tick: 890.0, AdultMeanDeathAge: 0.0
tick: 891.0, AdultMeanDeathAge: 0.0
tick: 892.0, AdultMeanDeathAge: 0.0
tick: 893.0, AdultMeanDeathAge: 0.0
tick: 894.0, AdultMeanDeathAge: 0.0
tick: 895.0, AdultMeanDeathAge: 0.0
tick: 896.0, AdultMeanDeathAge: 0.0
tick: 897.0, AdultMeanDeathAge: 0.0
tick: 898.0, AdultMeanDeathAge: 0.0
tick: 899.0, AdultMeanDeathAge: 0.0
tick: 900.0, AdultMeanDeathAge: 0.0
tick: 901.0, AdultMeanDeathAge: 0.0
tick: 902.0, AdultMeanDeathAge: 0.0
tick: 903.0, AdultMeanDeathAge: 0.0
tick: 904.0, AdultMeanDeathAge: 0.0
tick: 905.0, AdultMeanDeathAge: 0.0
tick: 906.0, AdultMeanDeathAge: 0.0
tick: 907.0, AdultMeanDeathAge: 0.0
tick: 908.0, AdultMeanDeathAge: 0.0
tick: 909.0, AdultMeanDeathAge: 0.0
tick: 910.0, AdultMeanDeathAge: 0.0
tick: 911.0, AdultMeanDeathAge: 0.0
tick: 912.0, AdultMeanDeathAge: 0.0
tick: 913.0, AdultMeanDeathAge: 0.0
tick: 914.0, AdultMeanDeathAge: 0.0
tick: 915.0, AdultMeanDeathAge: 0.0
tick: 916.0, AdultMeanDeathAge: 0.0
tick: 917.0, AdultMeanDeathAge: 0.0
tick: 918.0, AdultMeanDeathAge: 0.0
tick: 919.0, AdultMeanDeathAge: 0.0
tick: 920.0, AdultMeanDeathAge: 0.0
tick: 921.0, AdultMeanDeathAge: 0.0
tick: 922.0, AdultMeanDeathAge: 0.0
tick: 923.0, AdultMeanDeathAge: 0.0
tick: 924.0, AdultMeanDeathAge: 0.0
tick: 925.0, AdultMeanDeathAge: 0.0
tick: 926.0, AdultMeanDeathAge: 0.0
tick: 927.0, AdultMeanDeathAge: 0.0
tick: 928.0, AdultMeanDeathAge: 0.0
tick: 929.0, AdultMeanDeathAge: 0.0
tick: 930.0, AdultMeanDeathAge: 0.0
tick: 931.0, AdultMeanDeathAge: 0.0
tick: 932.0, AdultMeanDeathAge: 0.0
tick: 933.0, AdultMeanDeathAge: 0.0
tick: 934.0, AdultMeanDeathAge: 0.0
tick: 935.0, AdultMeanDeathAge: 0.0
tick: 936.0, AdultMeanDeathAge: 0.0
tick: 937.0, AdultMeanDeathAge: 0.0
tick: 938.0, AdultMeanDeathAge: 0.0
tick: 939.0, AdultMeanDeathAge: 0.0
tick: 940.0, AdultMeanDeathAge: 0.0
tick: 941.0, AdultMeanDeathAge: 0.0
tick: 942.0, AdultMeanDeathAge: 0.0
tick: 943.0, AdultMeanDeathAge: 0.0
tick: 944.0, AdultMeanDeathAge: 0.0
tick: 945.0, AdultMeanDeathAge: 0.0
tick: 946.0, AdultMeanDeathAge: 0.0
tick: 947.0, AdultMeanDeathAge: 0.0
tick: 948.0, AdultMeanDeathAge: 0.0
tick: 949.0, AdultMeanDeathAge: 0.0
tick: 950.0, AdultMeanDeathAge: 0.0
tick: 951.0, AdultMeanDeathAge: 0.0
tick: 952.0, AdultMeanDeathAge: 0.0
tick: 953.0, AdultMeanDeathAge: 0.0
tick: 954.0, AdultMeanDeathAge: 0.0
tick: 955.0, AdultMeanDeathAge: 0.0
tick: 956.0, AdultMeanDeathAge: 0.0
tick: 957.0, AdultMeanDeathAge: 0.0
tick: 958.0, AdultMeanDeathAge: 0.0
tick: 959.0, AdultMeanDeathAge: 0.0
tick: 960.0, AdultMeanDeathAge: 0.0
tick: 961.0, AdultMeanDeathAge: 0.0
tick: 962.0, AdultMeanDeathAge: 0.0
tick: 963.0, AdultMeanDeathAge: 0.0
tick: 964.0, AdultMeanDeathAge: 0.0
tick: 965.0, AdultMeanDeathAge: 0.0
tick: 966.0, AdultMeanDeathAge: 0.0
tick: 967.0, AdultMeanDeathAge: 0.0
tick: 968.0, AdultMeanDeathAge: 0.0
tick: 969.0, AdultMeanDeathAge: 0.0
tick: 970.0, AdultMeanDeathAge: 0.0
tick: 971.0, AdultMeanDeathAge: 0.0
tick: 972.0, AdultMeanDeathAge: 0.0
tick: 973.0, AdultMeanDeathAge: 0.0
tick: 974.0, AdultMeanDeathAge: 0.0
tick: 975.0, AdultMeanDeathAge: 0.0
tick: 976.0, AdultMeanDeathAge: 0.0
tick: 977.0, AdultMeanDeathAge: 0.0
tick: 978.0, AdultMeanDeathAge: 0.0
tick: 979.0, AdultMeanDeathAge: 0.0
tick: 980.0, AdultMeanDeathAge: 0.0
tick: 981.0, AdultMeanDeathAge: 0.0
tick: 982.0, AdultMeanDeathAge: 0.0
tick: 983.0, AdultMeanDeathAge: 0.0
tick: 984.0, AdultMeanDeathAge: 0.0
tick: 985.0, AdultMeanDeathAge: 0.0
tick: 986.0, AdultMeanDeathAge: 0.0
tick: 987.0, AdultMeanDeathAge: 0.0
tick: 988.0, AdultMeanDeathAge: 0.0
tick: 989.0, AdultMeanDeathAge: 0.0
tick: 990.0, AdultMeanDeathAge: 0.0
tick: 991.0, AdultMeanDeathAge: 0.0
tick: 992.0, AdultMeanDeathAge: 0.0
tick: 993.0, AdultMeanDeathAge: 0.0
tick: 994.0, AdultMeanDeathAge: 0.0
tick: 995.0, AdultMeanDeathAge: 0.0
tick: 996.0, AdultMeanDeathAge: 0.0
tick: 997.0, AdultMeanDeathAge: 0.0
tick: 998.0, AdultMeanDeathAge: 0.0
tick: 999.0, AdultMeanDeathAge: 0.0
tick: 1000.0, AdultMeanDeathAge: 0.0
tick: 1001.0, AdultMeanDeathAge: 0.0
tick: 1002.0, AdultMeanDeathAge: 0.0
tick: 1003.0, AdultMeanDeathAge: 0.0
tick: 1004.0, AdultMeanDeathAge: 0.0
tick: 1005.0, AdultMeanDeathAge: 0.0
tick: 1006.0, AdultMeanDeathAge: 0.0
tick: 1007.0, AdultMeanDeathAge: 0.0
tick: 1008.0, AdultMeanDeathAge: 0.0
tick: 1009.0, AdultMeanDeathAge: 0.0
tick: 1010.0, AdultMeanDeathAge: 0.0
tick: 1011.0, AdultMeanDeathAge: 0.0
tick: 1012.0, AdultMeanDeathAge: 0.0
tick: 1013.0, AdultMeanDeathAge: 0.0
tick: 1014.0, AdultMeanDeathAge: 0.0
tick: 1015.0, AdultMeanDeathAge: 0.0
tick: 1016.0, AdultMeanDeathAge: 0.0
tick: 1017.0, AdultMeanDeathAge: 0.0
tick: 1018.0, AdultMeanDeathAge: 0.0
tick: 1019.0, AdultMeanDeathAge: 0.0
tick: 1020.0, AdultMeanDeathAge: 0.0
tick: 1021.0, AdultMeanDeathAge: 0.0
tick: 1022.0, AdultMeanDeathAge: 0.0
tick: 1023.0, AdultMeanDeathAge: 0.0
tick: 1024.0, AdultMeanDeathAge: 0.0
tick: 1025.0, AdultMeanDeathAge: 0.0
tick: 1026.0, AdultMeanDeathAge: 0.0
tick: 1027.0, AdultMeanDeathAge: 0.0
tick: 1028.0, AdultMeanDeathAge: 0.0
tick: 1029.0, AdultMeanDeathAge: 0.0
tick: 1030.0, AdultMeanDeathAge: 0.0
tick: 1031.0, AdultMeanDeathAge: 0.0
tick: 1032.0, AdultMeanDeathAge: 0.0
tick: 1033.0, AdultMeanDeathAge: 0.0
tick: 1034.0, AdultMeanDeathAge: 0.0
tick: 1035.0, AdultMeanDeathAge: 0.0
tick: 1036.0, AdultMeanDeathAge: 0.0
tick: 1037.0, AdultMeanDeathAge: 0.0
tick: 1038.0, AdultMeanDeathAge: 0.0
tick: 1039.0, AdultMeanDeathAge: 0.0
tick: 1040.0, AdultMeanDeathAge: 0.0
tick: 1041.0, AdultMeanDeathAge: 0.0
tick: 1042.0, AdultMeanDeathAge: 0.0
tick: 1043.0, AdultMeanDeathAge: 0.0
tick: 1044.0, AdultMeanDeathAge: 0.0
tick: 1045.0, AdultMeanDeathAge: 0.0
tick: 1046.0, AdultMeanDeathAge: 0.0
tick: 1047.0, AdultMeanDeathAge: 0.0
tick: 1048.0, AdultMeanDeathAge: 0.0
tick: 1049.0, AdultMeanDeathAge: 0.0
tick: 1050.0, AdultMeanDeathAge: 0.0
tick: 1051.0, AdultMeanDeathAge: 0.0
tick: 1052.0, AdultMeanDeathAge: 0.0
tick: 1053.0, AdultMeanDeathAge: 0.0
tick: 1054.0, AdultMeanDeathAge: 0.0
tick: 1055.0, AdultMeanDeathAge: 0.0
tick: 1056.0, AdultMeanDeathAge: 0.0
tick: 1057.0, AdultMeanDeathAge: 0.0
tick: 1058.0, AdultMeanDeathAge: 0.0
tick: 1059.0, AdultMeanDeathAge: 0.0
tick: 1060.0, AdultMeanDeathAge: 0.0
tick: 1061.0, AdultMeanDeathAge: 0.0
tick: 1062.0, AdultMeanDeathAge: 0.0
tick: 1063.0, AdultMeanDeathAge: 0.0
tick: 1064.0, AdultMeanDeathAge: 0.0
tick: 1065.0, AdultMeanDeathAge: 0.0
tick: 1066.0, AdultMeanDeathAge: 0.0
tick: 1067.0, AdultMeanDeathAge: 0.0
tick: 1068.0, AdultMeanDeathAge: 0.0
tick: 1069.0, AdultMeanDeathAge: 0.0
tick: 1070.0, AdultMeanDeathAge: 0.0
tick: 1071.0, AdultMeanDeathAge: 0.0
tick: 1072.0, AdultMeanDeathAge: 0.0
tick: 1073.0, AdultMeanDeathAge: 0.0
tick: 1074.0, AdultMeanDeathAge: 0.0
tick: 1075.0, AdultMeanDeathAge: 0.0
tick: 1076.0, AdultMeanDeathAge: 0.0
tick: 1077.0, AdultMeanDeathAge: 0.0
tick: 1078.0, AdultMeanDeathAge: 0.0
tick: 1079.0, AdultMeanDeathAge: 0.0
tick: 1080.0, AdultMeanDeathAge: 0.0
tick: 1081.0, AdultMeanDeathAge: 0.0
tick: 1082.0, AdultMeanDeathAge: 0.0
tick: 1083.0, AdultMeanDeathAge: 0.0
tick: 1084.0, AdultMeanDeathAge: 0.0
tick: 1085.0, AdultMeanDeathAge: 0.0
tick: 1086.0, AdultMeanDeathAge: 0.0
tick: 1087.0, AdultMeanDeathAge: 0.0
tick: 1088.0, AdultMeanDeathAge: 0.0
tick: 1089.0, AdultMeanDeathAge: 0.0
tick: 1090.0, AdultMeanDeathAge: 0.0
tick: 1091.0, AdultMeanDeathAge: 0.0
tick: 1092.0, AdultMeanDeathAge: 0.0
tick: 1093.0, AdultMeanDeathAge: 0.0
tick: 1094.0, AdultMeanDeathAge: 0.0
tick: 1095.0, AdultMeanDeathAge: 0.0
tick: 1096.0, AdultMeanDeathAge: 0.0
tick: 1097.0, AdultMeanDeathAge: 0.0
tick: 1098.0, AdultMeanDeathAge: 0.0
tick: 1099.0, AdultMeanDeathAge: 0.0
tick: 1100.0, AdultMeanDeathAge: 0.0
tick: 1101.0, AdultMeanDeathAge: 0.0
tick: 1102.0, AdultMeanDeathAge: 0.0
tick: 1103.0, AdultMeanDeathAge: 0.0
tick: 1104.0, AdultMeanDeathAge: 0.0
tick: 1105.0, AdultMeanDeathAge: 0.0
tick: 1106.0, AdultMeanDeathAge: 0.0
tick: 1107.0, AdultMeanDeathAge: 0.0
t