tick: 1.0, AdultMeanDeathAge: 0.0
tick: 2.0, AdultMeanDeathAge: 0.0
tick: 3.0, AdultMeanDeathAge: 0.0
tick: 4.0, AdultMeanDeathAge: 0.0
tick: 5.0, AdultMeanDeathAge: 0.0
tick: 6.0, AdultMeanDeathAge: 0.0
tick: 7.0, AdultMeanDeathAge: 0.0
tick: 8.0, AdultMeanDeathAge: 0.0
tick: 9.0, AdultMeanDeathAge: 0.0
