tick: 1.0, Sterile: 0.0
tick: 2.0, Sterile: 0.0
tick: 3.0, Sterile: 0.0
tick: 4.0, Sterile: 0.0
tick: 5.0, Sterile: 0.0
tick: 6.0, Sterile: 0.0
tick: 7.0, Sterile: 0.0
tick: 8.0, Sterile: 0.0
tick: 9.0, Sterile: 0.0
tick: 10.0, Sterile: 0.0
tick: 11.0, Sterile: 0.0
tick: 12.0, Sterile: 0.0
tick: 13.0, Sterile: 0.0
tick: 14.0, Sterile: 0.0
tick: 15.0, Sterile: 0.0
tick: 16.0, Sterile: 0.0
tick: 17.0, Sterile: 0.0
tick: 18.0, Sterile: 0.0
tick: 19.0, Sterile: 0.0
tick: 20.0, Sterile: 0.0
tick: 21.0, Sterile: 0.0
tick: 22.0, Sterile: 0.0
tick: 23.0, Sterile: 0.0
tick: 24.0, Sterile: 0.0
tick: 25.0, Sterile: 0.0
tick: 26.0, Sterile: 0.0
tick: 27.0, Sterile: 0.0
tick: 28.0, Sterile: 0.0
tick: 29.0, Sterile: 0.0
tick: 30.0, Sterile: 0.0
tick: 31.0, Sterile: 0.0
tick: 32.0, Sterile: 0.0
tick: 33.0, Sterile: 0.0
tick: 34.0, Sterile: 0.0
tick: 35.0, Sterile: 0.0
tick: 36.0, Sterile: 0.0
tick: 37.0, Sterile: 0.0
tick: 38.0, Sterile: 0.0
tick: 39.0, Sterile: 0.0
tick: 40.0, Sterile: 0.0
tick: 41.0, Sterile: 0.0
tick: 42.0, Sterile: 0.0
tick: 43.0, Sterile: 0.0
tick: 44.0, Sterile: 0.0
tick: 45.0, Sterile: 0.0
tick: 46.0, Sterile: 0.0
tick: 47.0, Sterile: 0.0
tick: 48.0, Sterile: 0.0
tick: 49.0, Sterile: 0.0
tick: 50.0, Sterile: 0.0
tick: 51.0, Sterile: 0.0
tick: 52.0, Sterile: 0.0
tick: 53.0, Sterile: 0.0
tick: 54.0, Sterile: 0.0
tick: 55.0, Sterile: 0.0
tick: 56.0, Sterile: 0.0
tick: 57.0, Sterile: 0.0
tick: 58.0, Sterile: 0.0
tick: 59.0, Sterile: 0.0
tick: 60.0, Sterile: 0.0
tick: 61.0, Sterile: 0.0
tick: 62.0, Sterile: 0.0
tick: 63.0, Sterile: 0.0
tick: 64.0, Sterile: 0.0
tick: 65.0, Sterile: 0.0
tick: 66.0, Sterile: 0.0
tick: 67.0, Sterile: 0.0
tick: 68.0, Sterile: 0.0
tick: 69.0, Sterile: 0.0
tick: 70.0, Sterile: 0.0
tick: 71.0, Sterile: 0.0
tick: 72.0, Sterile: 0.0
tick: 73.0, Sterile: 0.0
tick: 74.0, Sterile: 0.0
tick: 75.0, Sterile: 0.0
tick: 76.0, Sterile: 0.0
tick: 77.0, Sterile: 0.0
tick: 78.0, Sterile: 0.0
tick: 79.0, Sterile: 0.0
tick: 80.0, Sterile: 0.0
tick: 81.0, Sterile: 0.0
tick: 82.0, Sterile: 0.0
tick: 83.0, Sterile: 0.0
tick: 84.0, Sterile: 0.0
tick: 85.0, Sterile: 0.0
tick: 86.0, Sterile: 0.0
tick: 87.0, Sterile: 0.0
tick: 88.0, Sterile: 0.0
tick: 89.0, Sterile: 0.0
tick: 90.0, Sterile: 0.0
tick: 91.0, Sterile: 0.0
tick: 92.0, Sterile: 0.0
tick: 93.0, Sterile: 0.0
tick: 94.0, Sterile: 0.0
tick: 95.0, Sterile: 0.0
tick: 96.0, Sterile: 0.0
tick: 97.0, Sterile: 0.0
tick: 98.0, Sterile: 0.0
tick: 99.0, Sterile: 0.0
tick: 100.0, Sterile: 0.0
tick: 101.0, Sterile: 0.0
tick: 102.0, Sterile: 0.0
tick: 103.0, Sterile: 0.0
tick: 104.0, Sterile: 0.0
tick: 105.0, Sterile: 0.0
tick: 106.0, Sterile: 0.0
tick: 107.0, Sterile: 0.0
tick: 108.0, Sterile: 0.0
tick: 109.0, Sterile: 0.0
tick: 110.0, Sterile: 0.0
tick: 111.0, Sterile: 0.0
tick: 112.0, Sterile: 0.0
tick: 113.0, Sterile: 0.0
tick: 114.0, Sterile: 0.0
tick: 115.0, Sterile: 0.0
tick: 116.0, Sterile: 0.0
tick: 117.0, Sterile: 0.0
tick: 118.0, Sterile: 0.0
tick: 119.0, Sterile: 0.0
tick: 120.0, Sterile: 0.0
tick: 121.0, Sterile: 0.0
tick: 122.0, Sterile: 0.0
tick: 123.0, Sterile: 0.0
tick: 124.0, Sterile: 0.0
tick: 125.0, Sterile: 0.0
tick: 126.0, Sterile: 0.0
tick: 127.0, Sterile: 0.0
tick: 128.0, Sterile: 0.0
tick: 129.0, Sterile: 0.0
tick: 130.0, Sterile: 0.0
tick: 131.0, Sterile: 0.0
tick: 132.0, Sterile: 0.0
tick: 133.0, Sterile: 0.0
tick: 134.0, Sterile: 0.0
tick: 135.0, Sterile: 0.0
tick: 136.0, Sterile: 0.0
tick: 137.0, Sterile: 0.0
tick: 138.0, Sterile: 0.0
tick: 139.0, Sterile: 0.0
tick: 140.0, Sterile: 0.0
tick: 141.0, Sterile: 0.0
tick: 142.0, Sterile: 0.0
tick: 143.0, Sterile: 0.0
tick: 144.0, Sterile: 0.0
tick: 145.0, Sterile: 0.0
tick: 146.0, Sterile: 0.0
tick: 147.0, Sterile: 0.0
tick: 148.0, Sterile: 0.0
tick: 149.0, Sterile: 0.0
tick: 150.0, Sterile: 0.0
tick: 151.0, Sterile: 0.0
tick: 152.0, Sterile: 0.0
tick: 153.0, Sterile: 0.0
tick: 154.0, Sterile: 0.0
tick: 155.0, Sterile: 0.0
tick: 156.0, Sterile: 0.0
tick: 157.0, Sterile: 0.0
tick: 158.0, Sterile: 0.0
tick: 159.0, Sterile: 0.0
tick: 160.0, Sterile: 0.0
tick: 161.0, Sterile: 0.0
tick: 162.0, Sterile: 0.0
tick: 163.0, Sterile: 0.0
tick: 164.0, Sterile: 0.0
tick: 165.0, Sterile: 0.0
tick: 166.0, Sterile: 0.0
tick: 167.0, Sterile: 0.0
tick: 168.0, Sterile: 0.0
tick: 169.0, Sterile: 0.0
tick: 170.0, Sterile: 0.0
tick: 171.0, Sterile: 0.0
tick: 172.0, Sterile: 0.0
tick: 173.0, Sterile: 0.0
tick: 174.0, Sterile: 0.0
tick: 175.0, Sterile: 0.0
tick: 176.0, Sterile: 0.0
tick: 177.0, Sterile: 0.0
tick: 178.0, Sterile: 0.0
tick: 179.0, Sterile: 0.0
tick: 180.0, Sterile: 0.0
tick: 181.0, Sterile: 0.0
tick: 182.0, Sterile: 0.0
tick: 183.0, Sterile: 0.0
tick: 184.0, Sterile: 0.0
tick: 185.0, Sterile: 0.0
tick: 186.0, Sterile: 0.0
tick: 187.0, Sterile: 0.0
tick: 188.0, Sterile: 0.0
tick: 189.0, Sterile: 0.0
tick: 190.0, Sterile: 0.0
tick: 191.0, Sterile: 0.0
tick: 192.0, Sterile: 0.0
tick: 193.0, Sterile: 0.0
tick: 194.0, Sterile: 0.0
tick: 195.0, Sterile: 0.0
tick: 196.0, Sterile: 0.0
tick: 197.0, Sterile: 0.0
tick: 198.0, Sterile: 0.0
tick: 199.0, Sterile: 0.0
tick: 200.0, Sterile: 0.0
tick: 201.0, Sterile: 0.0
tick: 202.0, Sterile: 0.0
tick: 203.0, Sterile: 0.0
tick: 204.0, Sterile: 0.0
tick: 205.0, Sterile: 0.0
tick: 206.0, Sterile: 0.0
tick: 207.0, Sterile: 0.0
tick: 208.0, Sterile: 0.0
tick: 209.0, Sterile: 0.0
tick: 210.0, Sterile: 0.0
tick: 211.0, Sterile: 0.0
tick: 212.0, Sterile: 0.0
tick: 213.0, Sterile: 0.0
tick: 214.0, Sterile: 0.0
tick: 215.0, Sterile: 0.0
tick: 216.0, Sterile: 0.0
tick: 217.0, Sterile: 0.0
tick: 218.0, Sterile: 0.0
tick: 219.0, Sterile: 0.0
tick: 220.0, Sterile: 0.0
tick: 221.0, Sterile: 0.0
tick: 222.0, Sterile: 0.0
tick: 223.0, Sterile: 0.0
tick: 224.0, Sterile: 0.0
tick: 225.0, Sterile: 0.0
tick: 226.0, Sterile: 0.0
tick: 227.0, Sterile: 0.0
tick: 228.0, Sterile: 0.0
tick: 229.0, Sterile: 0.0
tick: 230.0, Sterile: 0.0
tick: 231.0, Sterile: 0.0
tick: 232.0, Sterile: 0.0
tick: 233.0, Sterile: 0.0
tick: 234.0, Sterile: 0.0
tick: 235.0, Sterile: 0.0
tick: 236.0, Sterile: 0.0
tick: 237.0, Sterile: 0.0
tick: 238.0, Sterile: 0.0
tick: 239.0, Sterile: 0.0
tick: 240.0, Sterile: 0.0
tick: 241.0, Sterile: 0.0
tick: 242.0, Sterile: 0.0
tick: 243.0, Sterile: 0.0
tick: 244.0, Sterile: 0.0
tick: 245.0, Sterile: 0.0
tick: 246.0, Sterile: 0.0
tick: 247.0, Sterile: 0.0
tick: 248.0, Sterile: 0.0
tick: 249.0, Sterile: 0.0
tick: 250.0, Sterile: 0.0
tick: 251.0, Sterile: 0.0
tick: 252.0, Sterile: 0.0
tick: 253.0, Sterile: 0.0
tick: 254.0, Sterile: 0.0
tick: 255.0, Sterile: 0.0
tick: 256.0, Sterile: 0.0
tick: 257.0, Sterile: 0.0
tick: 258.0, Sterile: 0.0
tick: 259.0, Sterile: 0.0
tick: 260.0, Sterile: 0.0
tick: 261.0, Sterile: 0.0
tick: 262.0, Sterile: 0.0
tick: 263.0, Sterile: 0.0
tick: 264.0, Sterile: 0.0
tick: 265.0, Sterile: 0.0
tick: 266.0, Sterile: 0.0
tick: 267.0, Sterile: 0.0
tick: 268.0, Sterile: 0.0
tick: 269.0, Sterile: 0.0
tick: 270.0, Sterile: 0.0
tick: 271.0, Sterile: 0.0
tick: 272.0, Sterile: 0.0
tick: 273.0, Sterile: 0.0
tick: 274.0, Sterile: 0.0
tick: 275.0, Sterile: 0.0
tick: 276.0, Sterile: 0.0
tick: 277.0, Sterile: 0.0
tick: 278.0, Sterile: 0.0
tick: 279.0, Sterile: 0.0
tick: 280.0, Sterile: 0.0
tick: 281.0, Sterile: 0.0
tick: 282.0, Sterile: 0.0
tick: 283.0, Sterile: 0.0
tick: 284.0, Sterile: 0.0
tick: 285.0, Sterile: 0.0
tick: 286.0, Sterile: 0.0
tick: 287.0, Sterile: 0.0
tick: 288.0, Sterile: 0.0
tick: 289.0, Sterile: 0.0
tick: 290.0, Sterile: 0.0
tick: 291.0, Sterile: 0.0
tick: 292.0, Sterile: 0.0
tick: 293.0, Sterile: 0.0
tick: 294.0, Sterile: 0.0
tick: 295.0, Sterile: 0.0
tick: 296.0, Sterile: 0.0
tick: 297.0, Sterile: 0.0
tick: 298.0, Sterile: 0.0
tick: 299.0, Sterile: 0.0
tick: 300.0, Sterile: 0.0
tick: 301.0, Sterile: 0.0
tick: 302.0, Sterile: 0.0
tick: 303.0, Sterile: 0.0
tick: 304.0, Sterile: 0.0
tick: 305.0, Sterile: 0.0
tick: 306.0, Sterile: 0.0
tick: 307.0, Sterile: 0.0
tick: 308.0, Sterile: 0.0
tick: 309.0, Sterile: 0.0
tick: 310.0, Sterile: 0.0
tick: 311.0, Sterile: 0.0
tick: 312.0, Sterile: 0.0
tick: 313.0, Sterile: 0.0
tick: 314.0, Sterile: 0.0
tick: 315.0, Sterile: 0.0
tick: 316.0, Sterile: 0.0
tick: 317.0, Sterile: 0.0
tick: 318.0, Sterile: 0.0
tick: 319.0, Sterile: 0.0
tick: 320.0, Sterile: 0.0
tick: 321.0, Sterile: 0.0
tick: 322.0, Sterile: 0.0
tick: 323.0, Sterile: 0.0
tick: 324.0, Sterile: 0.0
tick: 325.0, Sterile: 0.0
tick: 326.0, Sterile: 0.0
tick: 327.0, Sterile: 0.0
tick: 328.0, Sterile: 0.0
tick: 329.0, Sterile: 0.0
tick: 330.0, Sterile: 0.0
tick: 331.0, Sterile: 0.0
tick: 332.0, Sterile: 0.0
tick: 333.0, Sterile: 0.0
tick: 334.0, Sterile: 0.0
tick: 335.0, Sterile: 0.0
tick: 336.0, Sterile: 0.0
tick: 337.0, Sterile: 0.0
tick: 338.0, Sterile: 0.0
tick: 339.0, Sterile: 0.0
tick: 340.0, Sterile: 0.0
tick: 341.0, Sterile: 0.0
tick: 342.0, Sterile: 0.0
tick: 343.0, Sterile: 0.0
tick: 344.0, Sterile: 0.0
tick: 345.0, Sterile: 0.0
tick: 346.0, Sterile: 0.0
tick: 347.0, Sterile: 0.0
tick: 348.0, Sterile: 0.0
tick: 349.0, Sterile: 0.0
tick: 350.0, Sterile: 0.0
tick: 351.0, Sterile: 0.0
tick: 352.0, Sterile: 0.0
tick: 353.0, Sterile: 0.0
tick: 354.0, Sterile: 0.0
tick: 355.0, Sterile: 0.0
tick: 356.0, Sterile: 0.0
tick: 357.0, Sterile: 0.0
tick: 358.0, Sterile: 0.0
tick: 359.0, Sterile: 0.0
tick: 360.0, Sterile: 0.0
tick: 361.0, Sterile: 0.0
tick: 362.0, Sterile: 0.0
tick: 363.0, Sterile: 0.0
tick: 364.0, Sterile: 0.0
tick: 365.0, Sterile: 0.0
tick: 366.0, Sterile: 0.0
tick: 367.0, Sterile: 0.0
tick: 368.0, Sterile: 0.0
tick: 369.0, Sterile: 0.0
tick: 370.0, Sterile: 0.0
tick: 371.0, Sterile: 0.0
tick: 372.0, Sterile: 0.0
tick: 373.0, Sterile: 0.0
tick: 374.0, Sterile: 0.0
tick: 375.0, Sterile: 0.0
tick: 376.0, Sterile: 0.0
tick: 377.0, Sterile: 0.0
tick: 378.0, Sterile: 0.0
tick: 379.0, Sterile: 0.0
tick: 380.0, Sterile: 0.0
tick: 381.0, Sterile: 0.0
tick: 382.0, Sterile: 0.0
tick: 383.0, Sterile: 0.0
tick: 384.0, Sterile: 0.0
tick: 385.0, Sterile: 0.0
tick: 386.0, Sterile: 0.0
tick: 387.0, Sterile: 0.0
tick: 388.0, Sterile: 0.0
tick: 389.0, Sterile: 0.0
tick: 390.0, Sterile: 0.0
tick: 391.0, Sterile: 0.0
tick: 392.0, Sterile: 0.0
tick: 393.0, Sterile: 0.0
tick: 394.0, Sterile: 0.0
tick: 395.0, Sterile: 0.0
tick: 396.0, Sterile: 0.0
tick: 397.0, Sterile: 0.0
tick: 398.0, Sterile: 0.0
tick: 399.0, Sterile: 0.0
tick: 400.0, Sterile: 0.0
tick: 401.0, Sterile: 0.0
tick: 402.0, Sterile: 0.0
tick: 403.0, Sterile: 0.0
tick: 404.0, Sterile: 0.0
tick: 405.0, Sterile: 0.0
tick: 406.0, Sterile: 0.0
tick: 407.0, Sterile: 0.0
tick: 408.0, Sterile: 0.0
tick: 409.0, Sterile: 0.0
tick: 410.0, Sterile: 0.0
tick: 411.0, Sterile: 0.0
tick: 412.0, Sterile: 0.0
tick: 413.0, Sterile: 0.0
tick: 414.0, Sterile: 0.0
tick: 415.0, Sterile: 0.0
tick: 416.0, Sterile: 0.0
tick: 417.0, Sterile: 0.0
tick: 418.0, Sterile: 0.0
tick: 419.0, Sterile: 0.0
tick: 420.0, Sterile: 0.0
tick: 421.0, Sterile: 0.0
tick: 422.0, Sterile: 0.0
tick: 423.0, Sterile: 0.0
tick: 424.0, Sterile: 0.0
tick: 425.0, Sterile: 0.0
tick: 426.0, Sterile: 0.0
tick: 427.0, Sterile: 0.0
tick: 428.0, Sterile: 0.0
tick: 429.0, Sterile: 0.0
tick: 430.0, Sterile: 0.0
tick: 431.0, Sterile: 0.0
tick: 432.0, Sterile: 0.0
tick: 433.0, Sterile: 0.0
tick: 434.0, Sterile: 0.0
tick: 435.0, Sterile: 0.0
tick: 436.0, Sterile: 0.0
tick: 437.0, Sterile: 0.0
tick: 438.0, Sterile: 0.0
tick: 439.0, Sterile: 0.0
tick: 440.0, Sterile: 0.0
tick: 441.0, Sterile: 0.0
tick: 442.0, Sterile: 0.0
tick: 443.0, Sterile: 0.0
tick: 444.0, Sterile: 0.0
tick: 445.0, Sterile: 0.0
tick: 446.0, Sterile: 0.0
tick: 447.0, Sterile: 0.0
tick: 448.0, Sterile: 0.0
tick: 449.0, Sterile: 0.0
tick: 450.0, Sterile: 0.0
tick: 451.0, Sterile: 0.0
tick: 452.0, Sterile: 0.0
tick: 453.0, Sterile: 0.0
tick: 454.0, Sterile: 0.0
tick: 455.0, Sterile: 0.0
tick: 456.0, Sterile: 0.0
tick: 457.0, Sterile: 0.0
tick: 458.0, Sterile: 0.0
tick: 459.0, Sterile: 0.0
tick: 460.0, Sterile: 0.0
tick: 461.0, Sterile: 0.0
tick: 462.0, Sterile: 0.0
tick: 463.0, Sterile: 0.0
tick: 464.0, Sterile: 0.0
tick: 465.0, Sterile: 0.0
