tick: 1.0, Sterile: 0.0
tick: 2.0, Sterile: 0.0
tick: 3.0, Sterile: 0.0
tick: 4.0, Sterile: 0.0
tick: 5.0, Sterile: 0.0
tick: 6.0, Sterile: 0.0
tick: 7.0, Sterile: 0.0
tick: 8.0, Sterile: 0.0
tick: 9.0, Sterile: 0.0
tick: 10.0, Sterile: 0.0
tick: 11.0, Sterile: 0.0
tick: 12.0, Sterile: 0.0
tick: 13.0, Sterile: 0.0
tick: 14.0, Sterile: 0.0
tick: 15.0, Sterile: 0.0
tick: 16.0, Sterile: 0.0
tick: 17.0, Sterile: 0.0
tick: 18.0, Sterile: 0.0
tick: 19.0, Sterile: 0.0
tick: 20.0, Sterile: 0.0
tick: 21.0, Sterile: 0.0
tick: 22.0, Sterile: 0.0
tick: 23.0, Sterile: 0.0
tick: 24.0, Sterile: 0.0
tick: 25.0, Sterile: 0.0
tick: 26.0, Sterile: 0.0
tick: 27.0, Sterile: 0.0
tick: 28.0, Sterile: 0.0
tick: 29.0, Sterile: 0.0
tick: 30.0, Sterile: 0.0
tick: 31.0, Sterile: 0.0
tick: 32.0, Sterile: 0.0
tick: 33.0, Sterile: 0.0
tick: 34.0, Sterile: 0.0
tick: 35.0, Sterile: 0.0
tick: 36.0, Sterile: 0.0
tick: 37.0, Sterile: 0.0
tick: 38.0, Sterile: 0.0
tick: 39.0, Sterile: 0.0
tick: 40.0, Sterile: 0.0
tick: 41.0, Sterile: 0.0
tick: 42.0, Sterile: 0.0
tick: 43.0, Sterile: 0.0
tick: 44.0, Sterile: 0.0
tick: 45.0, Sterile: 0.0
