tick: 0.0, Temperature: 293.706
tick: 1.0, Temperature: 293.706
tick: 2.0, Temperature: 293.706
tick: 3.0, Temperature: 293.706
tick: 4.0, Temperature: 293.706
tick: 5.0, Temperature: 293.706
tick: 6.0, Temperature: 293.706
