tick: 0.0, Temperature: 293.706
tick: 1.0, Temperature: 293.706
tick: 2.0, Temperature: 293.706
tick: 3.0, Temperature: 293.706
tick: 4.0, Temperature: 293.706
tick: 5.0, Temperature: 293.706
tick: 6.0, Temperature: 293.706
tick: 7.0, Temperature: 293.706
tick: 8.0, Temperature: 293.706
tick: 9.0, Temperature: 293.706
tick: 10.0, Temperature: 293.706
tick: 11.0, Temperature: 293.706
tick: 12.0, Temperature: 293.706
tick: 13.0, Temperature: 293.706
tick: 14.0, Temperature: 293.706
tick: 15.0, Temperature: 293.706
tick: 16.0, Temperature: 293.706
tick: 17.0, Temperature: 293.706
tick: 18.0, Temperature: 293.706
tick: 19.0, Temperature: 293.706
tick: 20.0, Temperature: 293.706
tick: 21.0, Temperature: 293.706
tick: 22.0, Temperature: 293.706
tick: 23.0, Temperature: 293.706
tick: 24.0, Temperature: 293.706
tick: 25.0, Temperature: 293.706
tick: 26.0, Temperature: 293.706
tick: 27.0, Temperature: 293.706
tick: 28.0, Temperature: 293.706
tick: 29.0, Temperature: 293.706
tick: 30.0, Temperature: 293.706
tick: 31.0, Temperature: 293.706
tick: 32.0, Temperature: 293.706
tick: 33.0, Temperature: 293.706
tick: 34.0, Temperature: 293.706
tick: 35.0, Temperature: 293.706
tick: 36.0, Temperature: 293.706
tick: 37.0, Temperature: 293.706
tick: 38.0, Temperature: 293.706
tick: 39.0, Temperature: 293.706
tick: 40.0, Temperature: 293.706
tick: 41.0, Temperature: 293.706
tick: 42.0, Temperature: 293.706
tick: 43.0, Temperature: 293.706
tick: 44.0, Temperature: 293.706
tick: 45.0, Temperature: 293.706
tick: 46.0, Temperature: 293.706
tick: 47.0, Temperature: 293.706
tick: 48.0, Temperature: 293.706
tick: 49.0, Temperature: 293.706
tick: 50.0, Temperature: 293.706
tick: 51.0, Temperature: 293.706
tick: 52.0, Temperature: 293.706
tick: 53.0, Temperature: 293.706
tick: 54.0, Temperature: 293.706
tick: 55.0, Temperature: 293.706
tick: 56.0, Temperature: 293.706
tick: 57.0, Temperature: 293.706
tick: 58.0, Temperature: 293.706
tick: 59.0, Temperature: 293.706
tick: 60.0, Temperature: 293.706
tick: 61.0, Temperature: 293.706
tick: 62.0, Temperature: 293.706
tick: 63.0, Temperature: 293.706
tick: 64.0, Temperature: 293.706
tick: 65.0, Temperature: 293.706
tick: 66.0, Temperature: 293.706
tick: 67.0, Temperature: 293.706
tick: 68.0, Temperature: 293.706
tick: 69.0, Temperature: 293.706
tick: 70.0, Temperature: 293.706
tick: 71.0, Temperature: 293.706
tick: 72.0, Temperature: 293.706
tick: 73.0, Temperature: 293.706
tick: 74.0, Temperature: 293.706
tick: 75.0, Temperature: 293.706
tick: 76.0, Temperature: 293.706
tick: 77.0, Temperature: 293.706
tick: 78.0, Temperature: 293.706
tick: 79.0, Temperature: 293.706
tick: 80.0, Temperature: 293.706
tick: 81.0, Temperature: 293.706
tick: 82.0, Temperature: 293.706
tick: 83.0, Temperature: 293.706
tick: 84.0, Temperature: 293.706
tick: 85.0, Temperature: 293.706
tick: 86.0, Temperature: 293.706
tick: 87.0, Temperature: 293.706
tick: 88.0, Temperature: 293.706
tick: 89.0, Temperature: 293.706
tick: 90.0, Temperature: 293.706
tick: 91.0, Temperature: 293.706
tick: 92.0, Temperature: 293.706
tick: 93.0, Temperature: 293.706
tick: 94.0, Temperature: 293.706
tick: 95.0, Temperature: 293.706
tick: 96.0, Temperature: 293.706
tick: 97.0, Temperature: 293.706
tick: 98.0, Temperature: 293.706
tick: 99.0, Temperature: 293.706
tick: 100.0, Temperature: 293.706
tick: 101.0, Temperature: 293.706
tick: 102.0, Temperature: 293.706
tick: 103.0, Temperature: 293.706
tick: 104.0, Temperature: 293.706
tick: 105.0, Temperature: 293.706
tick: 106.0, Temperature: 293.706
tick: 107.0, Temperature: 293.706
tick: 108.0, Temperature: 293.706
tick: 109.0, Temperature: 293.706
tick: 110.0, Temperature: 293.706
tick: 111.0, Temperature: 293.706
tick: 112.0, Temperature: 293.706
tick: 113.0, Temperature: 293.706
tick: 114.0, Temperature: 293.706
tick: 115.0, Temperature: 293.706
tick: 116.0, Temperature: 293.706
tick: 117.0, Temperature: 293.706
tick: 118.0, Temperature: 293.706
tick: 119.0, Temperature: 293.706
tick: 120.0, Temperature: 293.706
tick: 121.0, Temperature: 293.706
tick: 122.0, Temperature: 293.706
tick: 123.0, Temperature: 293.706
tick: 124.0, Temperature: 293.706
tick: 125.0, Temperature: 293.706
tick: 126.0, Temperature: 293.706
tick: 127.0, Temperature: 293.706
tick: 128.0, Temperature: 293.706
tick: 129.0, Temperature: 293.706
tick: 130.0, Temperature: 293.706
tick: 131.0, Temperature: 293.706
tick: 132.0, Temperature: 293.706
tick: 133.0, Temperature: 293.706
tick: 134.0, Temperature: 293.706
tick: 135.0, Temperature: 293.706
tick: 136.0, Temperature: 293.706
tick: 137.0, Temperature: 293.706
tick: 138.0, Temperature: 293.706
tick: 139.0, Temperature: 293.706
tick: 140.0, Temperature: 293.706
tick: 141.0, Temperature: 293.706
tick: 142.0, Temperature: 293.706
tick: 143.0, Temperature: 293.706
tick: 144.0, Temperature: 293.706
tick: 145.0, Temperature: 293.706
tick: 146.0, Temperature: 293.706
tick: 147.0, Temperature: 293.706
tick: 148.0, Temperature: 293.706
tick: 149.0, Temperature: 293.706
tick: 150.0, Temperature: 293.706
tick: 151.0, Temperature: 293.706
tick: 152.0, Temperature: 293.706
tick: 153.0, Temperature: 293.706
tick: 154.0, Temperature: 293.706
tick: 155.0, Temperature: 293.706
tick: 156.0, Temperature: 293.706
tick: 157.0, Temperature: 293.706
tick: 158.0, Temperature: 293.706
tick: 159.0, Temperature: 293.706
tick: 160.0, Temperature: 293.706
tick: 161.0, Temperature: 293.706
tick: 162.0, Temperature: 293.706
tick: 163.0, Temperature: 293.706
tick: 164.0, Temperature: 293.706
tick: 165.0, Temperature: 293.706
tick: 166.0, Temperature: 293.706
tick: 167.0, Temperature: 293.706
tick: 168.0, Temperature: 293.706
tick: 169.0, Temperature: 293.706
tick: 170.0, Temperature: 293.706
tick: 171.0, Temperature: 293.706
tick: 172.0, Temperature: 293.706
tick: 173.0, Temperature: 293.706
tick: 174.0, Temperature: 293.706
tick: 175.0, Temperature: 293.706
tick: 176.0, Temperature: 293.706
tick: 177.0, Temperature: 293.706
tick: 178.0, Temperature: 293.706
tick: 179.0, Temperature: 293.706
tick: 180.0, Temperature: 293.706
tick: 181.0, Temperature: 293.706
tick: 182.0, Temperature: 293.706
tick: 183.0, Temperature: 293.706
tick: 184.0, Temperature: 293.706
tick: 185.0, Temperature: 293.706
tick: 186.0, Temperature: 293.706
tick: 187.0, Temperature: 293.706
tick: 188.0, Temperature: 293.706
tick: 189.0, Temperature: 293.706
tick: 190.0, Temperature: 293.706
tick: 191.0, Temperature: 293.706
tick: 192.0, Temperature: 293.706
tick: 193.0, Temperature: 293.706
tick: 194.0, Temperature: 293.706
tick: 195.0, Temperature: 293.706
tick: 196.0, Temperature: 293.706
tick: 197.0, Temperature: 293.706
tick: 198.0, Temperature: 293.706
tick: 199.0, Temperature: 293.706
tick: 200.0, Temperature: 293.706
tick: 201.0, Temperature: 293.706
tick: 202.0, Temperature: 293.706
tick: 203.0, Temperature: 293.706
tick: 204.0, Temperature: 293.706
tick: 205.0, Temperature: 293.706
tick: 206.0, Temperature: 293.706
tick: 207.0, Temperature: 293.706
tick: 208.0, Temperature: 293.706
tick: 209.0, Temperature: 293.706
tick: 210.0, Temperature: 293.706
tick: 211.0, Temperature: 293.706
tick: 212.0, Temperature: 293.706
tick: 213.0, Temperature: 293.706
tick: 214.0, Temperature: 293.706
tick: 215.0, Temperature: 293.706
tick: 216.0, Temperature: 293.706
tick: 217.0, Temperature: 293.706
tick: 218.0, Temperature: 293.706
tick: 219.0, Temperature: 293.706
tick: 220.0, Temperature: 293.706
tick: 221.0, Temperature: 293.706
tick: 222.0, Temperature: 293.706
tick: 223.0, Temperature: 293.706
tick: 224.0, Temperature: 293.706
tick: 225.0, Temperature: 293.706
tick: 226.0, Temperature: 293.706
tick: 227.0, Temperature: 293.706
tick: 228.0, Temperature: 293.706
tick: 229.0, Temperature: 293.706
tick: 230.0, Temperature: 293.706
tick: 231.0, Temperature: 293.706
tick: 232.0, Temperature: 293.706
tick: 233.0, Temperature: 293.706
tick: 234.0, Temperature: 293.706
tick: 235.0, Temperature: 293.706
tick: 236.0, Temperature: 293.706
tick: 237.0, Temperature: 293.706
tick: 238.0, Temperature: 293.706
tick: 239.0, Temperature: 293.706
tick: 240.0, Temperature: 293.706
tick: 241.0, Temperature: 293.706
tick: 242.0, Temperature: 293.706
tick: 243.0, Temperature: 293.706
tick: 244.0, Temperature: 293.706
tick: 245.0, Temperature: 293.706
tick: 246.0, Temperature: 293.706
tick: 247.0, Temperature: 293.706
tick: 248.0, Temperature: 293.706
tick: 249.0, Temperature: 293.706
tick: 250.0, Temperature: 293.706
tick: 251.0, Temperature: 293.706
tick: 252.0, Temperature: 293.706
tick: 253.0, Temperature: 293.706
tick: 254.0, Temperature: 293.706
tick: 255.0, Temperature: 293.706
tick: 256.0, Temperature: 293.706
tick: 257.0, Temperature: 293.706
tick: 258.0, Temperature: 293.706
tick: 259.0, Temperature: 293.706
tick: 260.0, Temperature: 293.706
tick: 261.0, Temperature: 293.706
tick: 262.0, Temperature: 293.706
tick: 263.0, Temperature: 293.706
tick: 264.0, Temperature: 293.706
tick: 265.0, Temperature: 293.706
tick: 266.0, Temperature: 293.706
tick: 267.0, Temperature: 293.706
tick: 268.0, Temperature: 293.706
tick: 269.0, Temperature: 293.706
tick: 270.0, Temperature: 293.706
tick: 271.0, Temperature: 293.706
tick: 272.0, Temperature: 293.706
tick: 273.0, Temperature: 293.706
tick: 274.0, Temperature: 293.706
tick: 275.0, Temperature: 293.706
tick: 276.0, Temperature: 293.706
tick: 277.0, Temperature: 293.706
tick: 278.0, Temperature: 293.706
tick: 279.0, Temperature: 293.706
tick: 280.0, Temperature: 293.706
tick: 281.0, Temperature: 293.706
tick: 282.0, Temperature: 293.706
tick: 283.0, Temperature: 293.706
tick: 284.0, Temperature: 293.706
tick: 285.0, Temperature: 293.706
tick: 286.0, Temperature: 293.706
tick: 287.0, Temperature: 293.706
tick: 288.0, Temperature: 293.706
tick: 289.0, Temperature: 293.706
tick: 290.0, Temperature: 293.706
tick: 291.0, Temperature: 293.706
tick: 292.0, Temperature: 293.706
tick: 293.0, Temperature: 293.706
tick: 294.0, Temperature: 293.706
tick: 295.0, Temperature: 293.706
tick: 296.0, Temperature: 293.706
tick: 297.0, Temperature: 293.706
tick: 298.0, Temperature: 293.706
tick: 299.0, Temperature: 293.706
tick: 300.0, Temperature: 293.706
tick: 301.0, Temperature: 293.706
tick: 302.0, Temperature: 293.706
tick: 303.0, Temperature: 293.706
tick: 304.0, Temperature: 293.706
tick: 305.0, Temperature: 293.706
tick: 306.0, Temperature: 293.706
tick: 307.0, Temperature: 293.706
tick: 308.0, Temperature: 293.706
tick: 309.0, Temperature: 293.706
tick: 310.0, Temperature: 293.706
tick: 311.0, Temperature: 293.706
tick: 312.0, Temperature: 293.706
tick: 313.0, Temperature: 293.706
tick: 314.0, Temperature: 293.706
tick: 315.0, Temperature: 293.706
tick: 316.0, Temperature: 293.706
tick: 317.0, Temperature: 293.706
tick: 318.0, Temperature: 293.706
tick: 319.0, Temperature: 293.706
tick: 320.0, Temperature: 293.706
tick: 321.0, Temperature: 293.706
tick: 322.0, Temperature: 293.706
tick: 323.0, Temperature: 293.706
tick: 324.0, Temperature: 293.706
tick: 325.0, Temperature: 293.706
tick: 326.0, Temperature: 293.706
tick: 327.0, Temperature: 293.706
tick: 328.0, Temperature: 293.706
tick: 329.0, Temperature: 293.706
tick: 330.0, Temperature: 293.706
tick: 331.0, Temperature: 293.706
tick: 332.0, Temperature: 293.706
tick: 333.0, Temperature: 293.706
tick: 334.0, Temperature: 293.706
tick: 335.0, Temperature: 293.706
tick: 336.0, Temperature: 293.706
tick: 337.0, Temperature: 293.706
tick: 338.0, Temperature: 293.706
tick: 339.0, Temperature: 293.706
tick: 340.0, Temperature: 293.706
tick: 341.0, Temperature: 293.706
tick: 342.0, Temperature: 293.706
tick: 343.0, Temperature: 293.706
tick: 344.0, Temperature: 293.706
tick: 345.0, Temperature: 293.706
tick: 346.0, Temperature: 293.706
tick: 347.0, Temperature: 293.706
tick: 348.0, Temperature: 293.706
tick: 349.0, Temperature: 293.706
tick: 350.0, Temperature: 293.706
tick: 351.0, Temperature: 293.706
tick: 352.0, Temperature: 293.706
tick: 353.0, Temperature: 293.706
tick: 354.0, Temperature: 293.706
tick: 355.0, Temperature: 293.706
tick: 356.0, Temperature: 293.706
tick: 357.0, Temperature: 293.706
tick: 358.0, Temperature: 293.706
tick: 359.0, Temperature: 293.706
tick: 360.0, Temperature: 293.706
tick: 361.0, Temperature: 293.706
tick: 362.0, Temperature: 293.706
tick: 363.0, Temperature: 293.706
tick: 364.0, Temperature: 293.706
tick: 365.0, Temperature: 293.706
tick: 366.0, Temperature: 293.706
tick: 367.0, Temperature: 293.706
tick: 368.0, Temperature: 293.706
tick: 369.0, Temperature: 293.706
tick: 370.0, Temperature: 293.706
tick: 371.0, Temperature: 293.706
tick: 372.0, Temperature: 293.706
tick: 373.0, Temperature: 293.706
tick: 374.0, Temperature: 293.706
tick: 375.0, Temperature: 293.706
tick: 376.0, Temperature: 293.706
tick: 377.0, Temperature: 293.706
tick: 378.0, Temperature: 293.706
tick: 379.0, Temperature: 293.706
tick: 380.0, Temperature: 293.706
tick: 381.0, Temperature: 293.706
tick: 382.0, Temperature: 293.706
tick: 383.0, Temperature: 293.706
tick: 384.0, Temperature: 293.706
tick: 385.0, Temperature: 293.706
tick: 386.0, Temperature: 293.706
tick: 387.0, Temperature: 293.706
tick: 388.0, Temperature: 293.706
tick: 389.0, Temperature: 293.706
tick: 390.0, Temperature: 293.706
tick: 391.0, Temperature: 293.706
tick: 392.0, Temperature: 293.706
tick: 393.0, Temperature: 293.706
tick: 394.0, Temperature: 293.706
tick: 395.0, Temperature: 293.706
tick: 396.0, Temperature: 293.706
tick: 397.0, Temperature: 293.706
tick: 398.0, Temperature: 293.706
tick: 399.0, Temperature: 293.706
tick: 400.0, Temperature: 293.706
tick: 401.0, Temperature: 293.706
tick: 402.0, Temperature: 293.706
tick: 403.0, Temperature: 293.706
tick: 404.0, Temperature: 293.706
tick: 405.0, Temperature: 293.706
tick: 406.0, Temperature: 293.706
tick: 407.0, Temperature: 293.706
tick: 408.0, Temperature: 293.706
tick: 409.0, Temperature: 293.706
tick: 410.0, Temperature: 293.706
tick: 411.0, Temperature: 293.706
tick: 412.0, Temperature: 293.706
tick: 413.0, Temperature: 293.706
tick: 414.0, Temperature: 293.706
tick: 415.0, Temperature: 293.706
tick: 416.0, Temperature: 293.706
tick: 417.0, Temperature: 293.706
tick: 418.0, Temperature: 293.706
tick: 419.0, Temperature: 293.706
tick: 420.0, Temperature: 293.706
tick: 421.0, Temperature: 293.706
tick: 422.0, Temperature: 293.706
tick: 423.0, Temperature: 293.706
tick: 424.0, Temperature: 293.706
tick: 425.0, Temperature: 293.706
tick: 426.0, Temperature: 293.706
tick: 427.0, Temperature: 293.706
tick: 428.0, Temperature: 293.706
tick: 429.0, Temperature: 293.706
tick: 430.0, Temperature: 293.706
tick: 431.0, Temperature: 293.706
tick: 432.0, Temperature: 293.706
tick: 433.0, Temperature: 293.706
tick: 434.0, Temperature: 293.706
tick: 435.0, Temperature: 293.706
tick: 436.0, Temperature: 293.706
tick: 437.0, Temperature: 293.706
tick: 438.0, Temperature: 293.706
tick: 439.0, Temperature: 293.706
tick: 440.0, Temperature: 293.706
tick: 441.0, Temperature: 293.706
tick: 442.0, Temperature: 293.706
tick: 443.0, Temperature: 293.706
tick: 444.0, Temperature: 293.706
tick: 445.0, Temperature: 293.706
tick: 446.0, Temperature: 293.706
tick: 447.0, Temperature: 293.706
tick: 448.0, Temperature: 293.706
tick: 449.0, Temperature: 293.706
tick: 450.0, Temperature: 293.706
tick: 451.0, Temperature: 293.706
tick: 452.0, Temperature: 293.706
tick: 453.0, Temperature: 293.706
tick: 454.0, Temperature: 293.706
tick: 455.0, Temperature: 293.706
tick: 456.0, Temperature: 293.706
tick: 457.0, Temperature: 293.706
tick: 458.0, Temperature: 293.706
tick: 459.0, Temperature: 293.706
tick: 460.0, Temperature: 293.706
tick: 461.0, Temperature: 293.706
tick: 462.0, Temperature: 293.706
tick: 463.0, Temperature: 293.706
tick: 464.0, Temperature: 293.706
tick: 465.0, Temperature: 293.706
tick: 466.0, Temperature: 293.706
tick: 467.0, Temperature: 293.706
tick: 468.0, Temperature: 293.706
tick: 469.0, Temperature: 293.706
tick: 470.0, Temperature: 293.706
tick: 471.0, Temperature: 293.706
tick: 472.0, Temperature: 293.706
tick: 473.0, Temperature: 293.706
tick: 474.0, Temperature: 293.706
tick: 475.0, Temperature: 293.706
tick: 476.0, Temperature: 293.706
tick: 477.0, Temperature: 293.706
tick: 478.0, Temperature: 293.706
tick: 479.0, Temperature: 293.706
tick: 480.0, Temperature: 293.706
tick: 481.0, Temperature: 293.706
tick: 482.0, Temperature: 293.706
tick: 483.0, Temperature: 293.706
tick: 484.0, Temperature: 293.706
tick: 485.0, Temperature: 293.706
tick: 486.0, Temperature: 293.706
tick: 487.0, Temperature: 293.706
tick: 488.0, Temperature: 293.706
tick: 489.0, Temperature: 293.706
tick: 490.0, Temperature: 293.706
tick: 491.0, Temperature: 293.706
tick: 492.0, Temperature: 293.706
tick: 493.0, Temperature: 293.706
tick: 494.0, Temperature: 293.706
tick: 495.0, Temperature: 293.706
tick: 496.0, Temperature: 293.706
tick: 497.0, Temperature: 293.706
tick: 498.0, Temperature: 293.706
tick: 499.0, Temperature: 293.706
tick: 500.0, Temperature: 293.706
tick: 501.0, Temperature: 293.706
tick: 502.0, Temperature: 293.706
tick: 503.0, Temperature: 293.706
tick: 504.0, Temperature: 293.706
tick: 505.0, Temperature: 293.706
tick: 506.0, Temperature: 293.706
tick: 507.0, Temperature: 293.706
tick: 508.0, Temperature: 293.706
tick: 509.0, Temperature: 293.706
tick: 510.0, Temperature: 293.706
tick: 511.0, Temperature: 293.706
tick: 512.0, Temperature: 293.706
tick: 513.0, Temperature: 293.706
tick: 514.0, Temperature: 293.706
tick: 515.0, Temperature: 293.706
tick: 516.0, Temperature: 293.706
tick: 517.0, Temperature: 293.706
tick: 518.0, Temperature: 293.706
tick: 519.0, Temperature: 293.706
tick: 520.0, Temperature: 293.706
tick: 521.0, Temperature: 293.706
tick: 522.0, Temperature: 293.706
tick: 523.0, Temperature: 293.706
tick: 524.0, Temperature: 293.706
tick: 525.0, Temperature: 293.706
tick: 526.0, Temperature: 293.706
tick: 527.0, Temperature: 293.706
tick: 528.0, Temperature: 293.706
tick: 529.0, Temperature: 293.706
tick: 530.0, Temperature: 293.706
tick: 531.0, Temperature: 293.706
tick: 532.0, Temperature: 293.706
tick: 533.0, Temperature: 293.706
tick: 534.0, Temperature: 293.706
tick: 535.0, Temperature: 293.706
tick: 536.0, Temperature: 293.706
tick: 537.0, Temperature: 293.706
tick: 538.0, Temperature: 293.706
tick: 539.0, Temperature: 293.706
tick: 540.0, Temperature: 293.706
tick: 541.0, Temperature: 293.706
tick: 542.0, Temperature: 293.706
tick: 543.0, Temperature: 293.706
tick: 544.0, Temperature: 293.706
tick: 545.0, Temperature: 293.706
tick: 546.0, Temperature: 293.706
tick: 547.0, Temperature: 293.706
tick: 548.0, Temperature: 293.706
tick: 549.0, Temperature: 293.706
tick: 550.0, Temperature: 293.706
tick: 551.0, Temperature: 293.706
tick: 552.0, Temperature: 293.706
tick: 553.0, Temperature: 293.706
tick: 554.0, Temperature: 293.706
tick: 555.0, Temperature: 293.706
tick: 556.0, Temperature: 293.706
tick: 557.0, Temperature: 293.706
tick: 558.0, Temperature: 293.706
tick: 559.0, Temperature: 293.706
tick: 560.0, Temperature: 293.706
tick: 561.0, Temperature: 293.706
tick: 562.0, Temperature: 293.706
tick: 563.0, Temperature: 293.706
tick: 564.0, Temperature: 293.706
tick: 565.0, Temperature: 293.706
tick: 566.0, Temperature: 293.706
tick: 567.0, Temperature: 293.706
tick: 568.0, Temperature: 293.706
tick: 569.0, Temperature: 293.706
tick: 570.0, Temperature: 293.706
tick: 571.0, Temperature: 293.706
tick: 572.0, Temperature: 293.706
tick: 573.0, Temperature: 293.706
tick: 574.0, Temperature: 293.706
tick: 575.0, Temperature: 293.706
tick: 576.0, Temperature: 293.706
tick: 577.0, Temperature: 293.706
tick: 578.0, Temperature: 293.706
tick: 579.0, Temperature: 293.706
tick: 580.0, Temperature: 293.706
tick: 581.0, Temperature: 293.706
tick: 582.0, Temperature: 293.706
tick: 583.0, Temperature: 293.706
tick: 584.0, Temperature: 293.706
tick: 585.0, Temperature: 293.706
tick: 586.0, Temperature: 293.706
tick: 587.0, Temperature: 293.706
tick: 588.0, Temperature: 293.706
tick: 589.0, Temperature: 293.706
tick: 590.0, Temperature: 293.706
tick: 591.0, Temperature: 293.706
tick: 592.0, Temperature: 293.706
tick: 593.0, Temperature: 293.706
tick: 594.0, Temperature: 293.706
tick: 595.0, Temperature: 293.706
tick: 596.0, Temperature: 293.706
tick: 597.0, Temperature: 293.706
tick: 598.0, Temperature: 293.706
tick: 599.0, Temperature: 293.706
tick: 600.0, Temperature: 293.706
tick: 601.0, Temperature: 293.706
tick: 602.0, Temperature: 293.706
tick: 603.0, Temperature: 293.706
tick: 604.0, Temperature: 293.706
tick: 605.0, Temperature: 293.706
tick: 606.0, Temperature: 293.706
tick: 607.0, Temperature: 293.706
tick: 608.0, Temperature: 293.706
tick: 609.0, Temperature: 293.706
tick: 610.0, Temperature: 293.706
tick: 611.0, Temperature: 293.706
tick: 612.0, Temperature: 293.706
tick: 613.0, Temperature: 293.706
tick: 614.0, Temperature: 293.706
tick: 615.0, Temperature: 293.706
tick: 616.0, Temperature: 293.706
tick: 617.0, Temperature: 293.706
tick: 618.0, Temperature: 293.706
tick: 619.0, Temperature: 293.706
tick: 620.0, Temperature: 293.706
tick: 621.0, Temperature: 293.706
tick: 622.0, Temperature: 293.706
tick: 623.0, Temperature: 293.706
tick: 624.0, Temperature: 293.706
tick: 625.0, Temperature: 293.706
tick: 626.0, Temperature: 293.706
tick: 627.0, Temperature: 293.706
tick: 628.0, Temperature: 293.706
tick: 629.0, Temperature: 293.706
tick: 630.0, Temperature: 293.706
tick: 631.0, Temperature: 293.706
tick: 632.0, Temperature: 293.706
tick: 633.0, Temperature: 293.706
tick: 634.0, Temperature: 293.706
tick: 635.0, Temperature: 293.706
tick: 636.0, Temperature: 293.706
tick: 637.0, Temperature: 293.706
tick: 638.0, Temperature: 293.706
tick: 639.0, Temperature: 293.706
tick: 640.0, Temperature: 293.706
tick: 641.0, Temperature: 293.706
tick: 642.0, Temperature: 293.706
tick: 643.0, Temperature: 293.706
tick: 644.0, Temperature: 293.706
tick: 645.0, Temperature: 293.706
tick: 646.0, Temperature: 293.706
tick: 647.0, Temperature: 293.706
tick: 648.0, Temperature: 293.706
tick: 649.0, Temperature: 293.706
tick: 650.0, Temperature: 293.706
tick: 651.0, Temperature: 293.706
tick: 652.0, Temperature: 293.706
tick: 653.0, Temperature: 293.706
tick: 654.0, Temperature: 293.706
tick: 655.0, Temperature: 293.706
tick: 656.0, Temperature: 293.706
tick: 657.0, Temperature: 293.706
tick: 658.0, Temperature: 293.706
tick: 659.0, Temperature: 293.706
tick: 660.0, Temperature: 293.706
tick: 661.0, Temperature: 293.706
tick: 662.0, Temperature: 293.706
tick: 663.0, Temperature: 293.706
tick: 664.0, Temperature: 293.706
tick: 665.0, Temperature: 293.706
tick: 666.0, Temperature: 293.706
tick: 667.0, Temperature: 293.706
tick: 668.0, Temperature: 293.706
tick: 669.0, Temperature: 293.706
tick: 670.0, Temperature: 293.706
tick: 671.0, Temperature: 293.706
tick: 672.0, Temperature: 293.706
tick: 673.0, Temperature: 293.706
tick: 674.0, Temperature: 293.706
tick: 675.0, Temperature: 293.706
tick: 676.0, Temperature: 293.706
tick: 677.0, Temperature: 293.706
tick: 678.0, Temperature: 293.706
tick: 679.0, Temperature: 293.706
tick: 680.0, Temperature: 293.706
tick: 681.0, Temperature: 293.706
tick: 682.0, Temperature: 293.706
tick: 683.0, Temperature: 293.706
tick: 684.0, Temperature: 293.706
tick: 685.0, Temperature: 293.706
tick: 686.0, Temperature: 293.706
tick: 687.0, Temperature: 293.706
tick: 688.0, Temperature: 293.706
tick: 689.0, Temperature: 293.706
tick: 690.0, Temperature: 293.706
tick: 691.0, Temperature: 293.706
tick: 692.0, Temperature: 293.706
tick: 693.0, Temperature: 293.706
tick: 694.0, Temperature: 293.706
tick: 695.0, Temperature: 293.706
tick: 696.0, Temperature: 293.706
tick: 697.0, Temperature: 293.706
tick: 698.0, Temperature: 293.706
tick: 699.0, Temperature: 293.706
tick: 700.0, Temperature: 293.706
tick: 701.0, Temperature: 293.706
tick: 702.0, Temperature: 293.706
tick: 703.0, Temperature: 293.706
tick: 704.0, Temperature: 293.706
tick: 705.0, Temperature: 293.706
tick: 706.0, Temperature: 293.706
tick: 707.0, Temperature: 293.706
tick: 708.0, Temperature: 293.706
tick: 709.0, Temperature: 293.706
tick: 710.0, Temperature: 293.706
tick: 711.0, Temperature: 293.706
tick: 712.0, Temperature: 293.706
tick: 713.0, Temperature: 293.706
tick: 714.0, Temperature: 293.706
tick: 715.0, Temperature: 293.706
tick: 716.0, Temperature: 293.706
tick: 717.0, Temperature: 293.706
tick: 718.0, Temperature: 293.706
tick: 719.0, Temperature: 293.706
tick: 720.0, Temperature: 293.706
tick: 721.0, Temperature: 293.45556
tick: 722.0, Temperature: 293.45556
tick: 723.0, Temperature: 293.45556
tick: 724.0, Temperature: 293.45556
tick: 725.0, Temperature: 293.45556
tick: 726.0, Temperature: 293.45556
tick: 727.0, Temperature: 293.45556
tick: 728.0, Temperature: 293.45556
tick: 729.0, Temperature: 293.45556
tick: 730.0, Temperature: 293.45556
tick: 731.0, Temperature: 293.45556
tick: 732.0, Temperature: 293.45556
tick: 733.0, Temperature: 293.45556
tick: 734.0, Temperature: 293.45556
tick: 735.0, Temperature: 293.45556
tick: 736.0, Temperature: 293.45556
tick: 737.0, Temperature: 293.45556
tick: 738.0, Temperature: 293.45556
tick: 739.0, Temperature: 293.45556
tick: 740.0, Temperature: 293.45556
tick: 741.0, Temperature: 293.45556
tick: 742.0, Temperature: 293.45556
tick: 743.0, Temperature: 293.45556
tick: 744.0, Temperature: 293.45556
tick: 745.0, Temperature: 293.45556
tick: 746.0, Temperature: 293.45556
tick: 747.0, Temperature: 293.45556
tick: 748.0, Temperature: 293.45556
tick: 749.0, Temperature: 293.45556
tick: 750.0, Temperature: 293.45556
tick: 751.0, Temperature: 293.45556
tick: 752.0, Temperature: 293.45556
tick: 753.0, Temperature: 293.45556
tick: 754.0, Temperature: 293.45556
tick: 755.0, Temperature: 293.45556
tick: 756.0, Temperature: 293.45556
tick: 757.0, Temperature: 293.45556
tick: 758.0, Temperature: 293.45556
tick: 759.0, Temperature: 293.45556
tick: 760.0, Temperature: 293.45556
tick: 761.0, Temperature: 293.45556
tick: 762.0, Temperature: 293.45556
tick: 763.0, Temperature: 293.45556
tick: 764.0, Temperature: 293.45556
tick: 765.0, Temperature: 293.45556
tick: 766.0, Temperature: 293.45556
tick: 767.0, Temperature: 293.45556
tick: 768.0, Temperature: 293.45556
tick: 769.0, Temperature: 293.45556
tick: 770.0, Temperature: 293.45556
tick: 771.0, Temperature: 293.45556
tick: 772.0, Temperature: 293.45556
tick: 773.0, Temperature: 293.45556
tick: 774.0, Temperature: 293.45556
tick: 775.0, Temperature: 293.45556
tick: 776.0, Temperature: 293.45556
tick: 777.0, Temperature: 293.45556
tick: 778.0, Temperature: 293.45556
tick: 779.0, Temperature: 293.45556
tick: 780.0, Temperature: 293.45556
tick: 781.0, Temperature: 293.45556
tick: 782.0, Temperature: 293.45556
tick: 783.0, Temperature: 293.45556
tick: 784.0, Temperature: 293.45556
tick: 785.0, Temperature: 293.45556
tick: 786.0, Temperature: 293.45556
tick: 787.0, Temperature: 293.45556
tick: 788.0, Temperature: 293.45556
tick: 789.0, Temperature: 293.45556
tick: 790.0, Temperature: 293.45556
tick: 791.0, Temperature: 293.45556
tick: 792.0, Temperature: 293.45556
tick: 793.0, Temperature: 293.45556
tick: 794.0, Temperature: 293.45556
tick: 795.0, Temperature: 293.45556
tick: 796.0, Temperature: 293.45556
tick: 797.0, Temperature: 293.45556
tick: 798.0, Temperature: 293.45556
tick: 799.0, Temperature: 293.45556
tick: 800.0, Temperature: 293.45556
tick: 801.0, Temperature: 293.45556
tick: 802.0, Temperature: 293.45556
tick: 803.0, Temperature: 293.45556
tick: 804.0, Temperature: 293.45556
tick: 805.0, Temperature: 293.45556
tick: 806.0, Temperature: 293.45556
tick: 807.0, Temperature: 293.45556
tick: 808.0, Temperature: 293.45556
tick: 809.0, Temperature: 293.45556
tick: 810.0, Temperature: 293.45556
tick: 811.0, Temperature: 293.45556
tick: 812.0, Temperature: 293.45556
tick: 813.0, Temperature: 293.45556
tick: 814.0, Temperature: 293.45556
tick: 815.0, Temperature: 293.45556
tick: 816.0, Temperature: 293.45556
tick: 817.0, Temperature: NaN
