Type,Count
zikaVectorControl.vector.AedesAegypti,156859
zikaVectorControl.controllers.PopulationMonitor,1
zikaVectorControl.zones.Vegetation,6736
zikaVectorControl.zones.BreedingSpot,3409
zikaVectorControl.controllers.ClimateController,1
zikaVectorControl.zones.CO2Source,16398
